remove#v  remove#v
remove#v#6  remove#v#6  1

remove#v  unscrew#v
remove#v#8  unscrew#v#1  0.2

remove#v  clean#v
remove#v#1  clean#v#2  0.5

remove#v  put_back#v
remove#v#5  put_back#v#1  0.2

remove#v  screw#v
remove#v#8  screw#v#5  0.2

remove#v  replace#v
remove#v#8  replace#v#4  0.25

remove#v  assemble#v
remove#v#4  assemble#v#3  0.333333333333333

remove#v  close#v
remove#v#2  close#v#3  0.333333333333333

remove#v  open#v
remove#v#8  open#v#1  0.333333333333333

lift#v  remove#v
lift#v#22  remove#v#1  0.5

lift#v  unscrew#v
lift#v#10  unscrew#v#1  0.25

lift#v  clean#v
lift#v#22  clean#v#8  0.333333333333333

lift#v  put_back#v
lift#v#3  put_back#v#1  0.25

lift#v  screw#v
lift#v#10  screw#v#4  0.25

lift#v  replace#v
lift#v#10  replace#v#4  0.333333333333333

lift#v  assemble#v
lift#v#2  assemble#v#3  0.25

lift#v  close#v
lift#v#20  close#v#4  0.333333333333333

lift#v  open#v
lift#v#3  open#v#10  0.25

unscrew#v  remove#v
unscrew#v#2  remove#v#1  0.2

unscrew#v  unscrew#v
unscrew#v#1  unscrew#v#1  1

unscrew#v  clean#v
unscrew#v#1  clean#v#1  0.25

unscrew#v  put_back#v
unscrew#v#1  put_back#v#2  0.142857142857143

unscrew#v  screw#v
unscrew#v#1  screw#v#4  0.2

unscrew#v  replace#v
unscrew#v#2  replace#v#4  0.25

unscrew#v  assemble#v
unscrew#v#2  assemble#v#3  0.2

unscrew#v  close#v
unscrew#v#2  close#v#1  0.2

unscrew#v  open#v
unscrew#v#1  open#v#10  0.2

slide#v  remove#v
slide#v#3  remove#v#3  0.25

slide#v  unscrew#v
slide#v#3  unscrew#v#1  0.166666666666667

slide#v  clean#v
slide#v#3  clean#v#1  0.2

slide#v  put_back#v
slide#v#3  put_back#v#1  0.25

slide#v  screw#v
slide#v#2  screw#v#4  0.166666666666667

slide#v  replace#v
slide#v#3  replace#v#3  0.25

slide#v  assemble#v
slide#v#2  assemble#v#3  0.25

slide#v  close#v
slide#v#2  close#v#1  0.25

slide#v  open#v
slide#v#3  open#v#10  0.25

wash#v  remove#v
wash#v#9  remove#v#1  0.5

wash#v  unscrew#v
wash#v#3  unscrew#v#2  0.2

wash#v  clean#v
wash#v#2  clean#v#4  0.5

wash#v  put_back#v
wash#v#4  put_back#v#1  0.25

wash#v  screw#v
wash#v#11  screw#v#4  0.2

wash#v  replace#v
wash#v#3  replace#v#4  0.25

wash#v  assemble#v
wash#v#9  assemble#v#3  0.25

wash#v  close#v
wash#v#5  close#v#9  0.25

wash#v  open#v
wash#v#9  open#v#2  0.25

assemble#v  remove#v
assemble#v#3  remove#v#2  0.333333333333333

assemble#v  unscrew#v
assemble#v#3  unscrew#v#1  0.2

assemble#v  clean#v
assemble#v#3  clean#v#1  0.25

assemble#v  put_back#v
assemble#v#3  put_back#v#2  0.2

assemble#v  screw#v
assemble#v#3  screw#v#4  0.2

assemble#v  replace#v
assemble#v#3  replace#v#2  0.25

assemble#v  assemble#v
assemble#v#1  assemble#v#1  1

assemble#v  close#v
assemble#v#3  close#v#1  0.333333333333333

assemble#v  open#v
assemble#v#3  open#v#1  0.333333333333333

rescrow#v  remove#v

rescrow#v  unscrew#v

rescrow#v  clean#v

rescrow#v  put_back#v

rescrow#v  screw#v

rescrow#v  replace#v

rescrow#v  assemble#v

rescrow#v  close#v

rescrow#v  open#v

put_back#v  remove#v
put_back#v#2  remove#v#3  0.2

put_back#v  unscrew#v
put_back#v#2  unscrew#v#2  0.142857142857143

put_back#v  clean#v
put_back#v#2  clean#v#5  0.25

put_back#v  put_back#v
put_back#v#1  put_back#v#1  1

put_back#v  screw#v
put_back#v#1  screw#v#4  0.142857142857143

put_back#v  replace#v
put_back#v#1  replace#v#3  1

put_back#v  assemble#v
put_back#v#2  assemble#v#3  0.2

put_back#v  close#v
put_back#v#1  close#v#1  0.2

put_back#v  open#v
put_back#v#2  open#v#2  0.2

assemble#v  remove#v
assemble#v#3  remove#v#1  0.333333333333333

assemble#v  unscrew#v
assemble#v#3  unscrew#v#2  0.2

assemble#v  clean#v
assemble#v#3  clean#v#1  0.25

assemble#v  put_back#v
assemble#v#3  put_back#v#2  0.2

assemble#v  screw#v
assemble#v#3  screw#v#4  0.2

assemble#v  replace#v
assemble#v#3  replace#v#2  0.25

assemble#v  assemble#v
assemble#v#1  assemble#v#1  1

assemble#v  close#v
assemble#v#1  close#v#13  0.333333333333333

assemble#v  open#v
assemble#v#3  open#v#2  0.333333333333333

unscrew#v  remove#v
unscrew#v#2  remove#v#4  0.2

unscrew#v  unscrew#v
unscrew#v#2  unscrew#v#2  1

unscrew#v  clean#v
unscrew#v#1  clean#v#1  0.25

unscrew#v  put_back#v
unscrew#v#1  put_back#v#2  0.142857142857143

unscrew#v  screw#v
unscrew#v#1  screw#v#4  0.2

unscrew#v  replace#v
unscrew#v#2  replace#v#4  0.25

unscrew#v  assemble#v
unscrew#v#2  assemble#v#3  0.2

unscrew#v  close#v
unscrew#v#2  close#v#4  0.2

unscrew#v  open#v
unscrew#v#1  open#v#10  0.2

remove#v  remove#v
remove#v#8  remove#v#8  1

remove#v  unscrew#v
remove#v#1  unscrew#v#1  0.2

remove#v  clean#v
remove#v#1  clean#v#2  0.5

remove#v  put_back#v
remove#v#4  put_back#v#1  0.2

remove#v  screw#v
remove#v#4  screw#v#5  0.2

remove#v  replace#v
remove#v#8  replace#v#4  0.25

remove#v  assemble#v
remove#v#1  assemble#v#3  0.333333333333333

remove#v  close#v
remove#v#3  close#v#1  0.333333333333333

remove#v  open#v
remove#v#2  open#v#10  0.333333333333333

loose#v  remove#v
loose#v#1  remove#v#4  0.333333333333333

loose#v  unscrew#v
loose#v#3  unscrew#v#1  0.5

loose#v  clean#v
loose#v#3  clean#v#1  0.333333333333333

loose#v  put_back#v
loose#v#1  put_back#v#2  0.2

loose#v  screw#v
loose#v#3  screw#v#4  0.25

loose#v  replace#v
loose#v#3  replace#v#4  0.333333333333333

loose#v  assemble#v
loose#v#1  assemble#v#3  0.333333333333333

loose#v  close#v
loose#v#1  close#v#3  0.333333333333333

loose#v  open#v
loose#v#1  open#v#10  0.333333333333333

replace#v  remove#v
replace#v#2  remove#v#4  0.25

replace#v  unscrew#v
replace#v#4  unscrew#v#1  0.25

replace#v  clean#v
replace#v#4  clean#v#1  0.333333333333333

replace#v  put_back#v
replace#v#3  put_back#v#1  1

replace#v  screw#v
replace#v#4  screw#v#4  0.25

replace#v  replace#v
replace#v#3  replace#v#3  1

replace#v  assemble#v
replace#v#2  assemble#v#3  0.25

replace#v  close#v
replace#v#4  close#v#3  0.25

replace#v  open#v
replace#v#4  open#v#10  0.25

tighten#v  remove#v
tighten#v#1  remove#v#2  0.25

tighten#v  unscrew#v
tighten#v#1  unscrew#v#1  0.25

tighten#v  clean#v
tighten#v#1  clean#v#1  0.333333333333333

tighten#v  put_back#v
tighten#v#2  put_back#v#1  0.166666666666667

tighten#v  screw#v
tighten#v#1  screw#v#4  0.5

tighten#v  replace#v
tighten#v#1  replace#v#4  0.333333333333333

tighten#v  assemble#v
tighten#v#1  assemble#v#3  0.25

tighten#v  close#v
tighten#v#1  close#v#3  0.25

tighten#v  open#v
tighten#v#2  open#v#1  0.25

assemble#v  remove#v
assemble#v#3  remove#v#1  0.333333333333333

assemble#v  unscrew#v
assemble#v#3  unscrew#v#2  0.2

assemble#v  clean#v
assemble#v#3  clean#v#5  0.25

assemble#v  put_back#v
assemble#v#3  put_back#v#2  0.2

assemble#v  screw#v
assemble#v#3  screw#v#5  0.2

assemble#v  replace#v
assemble#v#3  replace#v#4  0.25

assemble#v  assemble#v
assemble#v#2  assemble#v#2  1

assemble#v  close#v
assemble#v#1  close#v#16  0.333333333333333

assemble#v  open#v
assemble#v#3  open#v#10  0.333333333333333

tighten#v  remove#v
tighten#v#1  remove#v#2  0.25

tighten#v  unscrew#v
tighten#v#1  unscrew#v#2  0.25

tighten#v  clean#v
tighten#v#1  clean#v#1  0.333333333333333

tighten#v  put_back#v
tighten#v#1  put_back#v#1  0.166666666666667

tighten#v  screw#v
tighten#v#1  screw#v#4  0.5

tighten#v  replace#v
tighten#v#1  replace#v#4  0.333333333333333

tighten#v  assemble#v
tighten#v#2  assemble#v#3  0.25

tighten#v  close#v
tighten#v#2  close#v#2  0.25

tighten#v  open#v
tighten#v#2  open#v#10  0.25

unscrew#v  remove#v
unscrew#v#2  remove#v#4  0.2

unscrew#v  unscrew#v
unscrew#v#2  unscrew#v#2  1

unscrew#v  clean#v
unscrew#v#2  clean#v#1  0.25

unscrew#v  put_back#v
unscrew#v#2  put_back#v#1  0.142857142857143

unscrew#v  screw#v
unscrew#v#1  screw#v#4  0.2

unscrew#v  replace#v
unscrew#v#2  replace#v#4  0.25

unscrew#v  assemble#v
unscrew#v#2  assemble#v#3  0.2

unscrew#v  close#v
unscrew#v#1  close#v#1  0.2

unscrew#v  open#v
unscrew#v#2  open#v#2  0.2

remove#v  remove#v
remove#v#8  remove#v#8  1

remove#v  unscrew#v
remove#v#1  unscrew#v#1  0.2

remove#v  clean#v
remove#v#1  clean#v#2  0.5

remove#v  put_back#v
remove#v#1  put_back#v#1  0.2

remove#v  screw#v
remove#v#3  screw#v#4  0.2

remove#v  replace#v
remove#v#1  replace#v#4  0.25

remove#v  assemble#v
remove#v#4  assemble#v#3  0.333333333333333

remove#v  close#v
remove#v#8  close#v#3  0.333333333333333

remove#v  open#v
remove#v#1  open#v#8  0.333333333333333

loose#v  remove#v
loose#v#1  remove#v#3  0.333333333333333

loose#v  unscrew#v
loose#v#3  unscrew#v#2  0.5

loose#v  clean#v
loose#v#3  clean#v#1  0.333333333333333

loose#v  put_back#v
loose#v#1  put_back#v#1  0.2

loose#v  screw#v
loose#v#3  screw#v#4  0.25

loose#v  replace#v
loose#v#3  replace#v#4  0.333333333333333

loose#v  assemble#v
loose#v#1  assemble#v#3  0.333333333333333

loose#v  close#v
loose#v#1  close#v#3  0.333333333333333

loose#v  open#v
loose#v#1  open#v#10  0.333333333333333

replace#v  remove#v
replace#v#4  remove#v#3  0.25

replace#v  unscrew#v
replace#v#4  unscrew#v#2  0.25

replace#v  clean#v
replace#v#4  clean#v#1  0.333333333333333

replace#v  put_back#v
replace#v#3  put_back#v#1  1

replace#v  screw#v
replace#v#4  screw#v#4  0.25

replace#v  replace#v
replace#v#4  replace#v#4  1

replace#v  assemble#v
replace#v#2  assemble#v#3  0.25

replace#v  close#v
replace#v#4  close#v#1  0.25

replace#v  open#v
replace#v#2  open#v#2  0.25

tighten#v  remove#v
tighten#v#2  remove#v#1  0.25

tighten#v  unscrew#v
tighten#v#1  unscrew#v#1  0.25

tighten#v  clean#v
tighten#v#1  clean#v#1  0.333333333333333

tighten#v  put_back#v
tighten#v#1  put_back#v#1  0.166666666666667

tighten#v  screw#v
tighten#v#1  screw#v#4  0.5

tighten#v  replace#v
tighten#v#1  replace#v#4  0.333333333333333

tighten#v  assemble#v
tighten#v#1  assemble#v#3  0.25

tighten#v  close#v
tighten#v#2  close#v#2  0.25

tighten#v  open#v
tighten#v#2  open#v#1  0.25

remount#v  remove#v
remount#v#1  remove#v#2  0.2

remount#v  unscrew#v
remount#v#1  unscrew#v#1  0.142857142857143

remount#v  clean#v
remount#v#1  clean#v#10  0.166666666666667

remount#v  put_back#v
remount#v#1  put_back#v#2  0.142857142857143

remount#v  screw#v
remount#v#1  screw#v#2  0.166666666666667

remount#v  replace#v
remount#v#1  replace#v#2  0.166666666666667

remount#v  assemble#v
remount#v#1  assemble#v#3  0.2

remount#v  close#v
remount#v#1  close#v#11  0.25

remount#v  open#v
remount#v#1  open#v#1  0.2

tighten#v  remove#v
tighten#v#2  remove#v#3  0.25

tighten#v  unscrew#v
tighten#v#1  unscrew#v#2  0.25

tighten#v  clean#v
tighten#v#1  clean#v#1  0.333333333333333

tighten#v  put_back#v
tighten#v#2  put_back#v#1  0.166666666666667

tighten#v  screw#v
tighten#v#1  screw#v#4  0.5

tighten#v  replace#v
tighten#v#1  replace#v#4  0.333333333333333

tighten#v  assemble#v
tighten#v#2  assemble#v#3  0.25

tighten#v  close#v
tighten#v#1  close#v#6  0.25

tighten#v  open#v
tighten#v#2  open#v#1  0.25

unscrew#v  remove#v
unscrew#v#2  remove#v#3  0.2

unscrew#v  unscrew#v
unscrew#v#2  unscrew#v#2  1

unscrew#v  clean#v
unscrew#v#2  clean#v#1  0.25

unscrew#v  put_back#v
unscrew#v#2  put_back#v#2  0.142857142857143

unscrew#v  screw#v
unscrew#v#1  screw#v#4  0.2

unscrew#v  replace#v
unscrew#v#1  replace#v#4  0.25

unscrew#v  assemble#v
unscrew#v#1  assemble#v#3  0.2

unscrew#v  close#v
unscrew#v#1  close#v#1  0.2

unscrew#v  open#v
unscrew#v#1  open#v#2  0.2

remove#v  remove#v
remove#v#8  remove#v#8  1

remove#v  unscrew#v
remove#v#1  unscrew#v#1  0.2

remove#v  clean#v
remove#v#1  clean#v#2  0.5

remove#v  put_back#v
remove#v#4  put_back#v#2  0.2

remove#v  screw#v
remove#v#1  screw#v#4  0.2

remove#v  replace#v
remove#v#3  replace#v#4  0.25

remove#v  assemble#v
remove#v#3  assemble#v#3  0.333333333333333

remove#v  close#v
remove#v#2  close#v#3  0.333333333333333

remove#v  open#v
remove#v#1  open#v#8  0.333333333333333

loose#v  remove#v
loose#v#1  remove#v#8  0.333333333333333

loose#v  unscrew#v
loose#v#3  unscrew#v#1  0.5

loose#v  clean#v
loose#v#3  clean#v#1  0.333333333333333

loose#v  put_back#v
loose#v#1  put_back#v#2  0.2

loose#v  screw#v
loose#v#3  screw#v#4  0.25

loose#v  replace#v
loose#v#3  replace#v#4  0.333333333333333

loose#v  assemble#v
loose#v#1  assemble#v#3  0.333333333333333

loose#v  close#v
loose#v#1  close#v#3  0.333333333333333

loose#v  open#v
loose#v#1  open#v#1  0.333333333333333

replace#v  remove#v
replace#v#2  remove#v#4  0.25

replace#v  unscrew#v
replace#v#4  unscrew#v#2  0.25

replace#v  clean#v
replace#v#4  clean#v#1  0.333333333333333

replace#v  put_back#v
replace#v#3  put_back#v#1  1

replace#v  screw#v
replace#v#4  screw#v#4  0.25

replace#v  replace#v
replace#v#3  replace#v#3  1

replace#v  assemble#v
replace#v#2  assemble#v#3  0.25

replace#v  close#v
replace#v#2  close#v#3  0.25

replace#v  open#v
replace#v#2  open#v#10  0.25

tighten#v  remove#v
tighten#v#1  remove#v#1  0.25

tighten#v  unscrew#v
tighten#v#1  unscrew#v#1  0.25

tighten#v  clean#v
tighten#v#1  clean#v#1  0.333333333333333

tighten#v  put_back#v
tighten#v#2  put_back#v#2  0.166666666666667

tighten#v  screw#v
tighten#v#1  screw#v#4  0.5

tighten#v  replace#v
tighten#v#1  replace#v#4  0.333333333333333

tighten#v  assemble#v
tighten#v#1  assemble#v#3  0.25

tighten#v  close#v
tighten#v#1  close#v#4  0.25

tighten#v  open#v
tighten#v#2  open#v#1  0.25

remount#v  remove#v
remount#v#1  remove#v#4  0.2

remount#v  unscrew#v
remount#v#1  unscrew#v#2  0.142857142857143

remount#v  clean#v
remount#v#1  clean#v#5  0.166666666666667

remount#v  put_back#v
remount#v#1  put_back#v#2  0.142857142857143

remount#v  screw#v
remount#v#1  screw#v#2  0.166666666666667

remount#v  replace#v
remount#v#1  replace#v#4  0.166666666666667

remount#v  assemble#v
remount#v#1  assemble#v#3  0.2

remount#v  close#v
remount#v#1  close#v#11  0.25

remount#v  open#v
remount#v#1  open#v#10  0.2

tighten#v  remove#v
tighten#v#2  remove#v#3  0.25

tighten#v  unscrew#v
tighten#v#1  unscrew#v#2  0.25

tighten#v  clean#v
tighten#v#1  clean#v#1  0.333333333333333

tighten#v  put_back#v
tighten#v#1  put_back#v#2  0.166666666666667

tighten#v  screw#v
tighten#v#1  screw#v#4  0.5

tighten#v  replace#v
tighten#v#1  replace#v#4  0.333333333333333

tighten#v  assemble#v
tighten#v#1  assemble#v#3  0.25

tighten#v  close#v
tighten#v#1  close#v#1  0.25

tighten#v  open#v
tighten#v#1  open#v#10  0.25

remove#v  remove#v
remove#v#6  remove#v#6  1

remove#v  unscrew#v
remove#v#8  unscrew#v#2  0.2

remove#v  clean#v
remove#v#1  clean#v#2  0.5

remove#v  put_back#v
remove#v#2  put_back#v#2  0.2

remove#v  screw#v
remove#v#2  screw#v#5  0.2

remove#v  replace#v
remove#v#4  replace#v#4  0.25

remove#v  assemble#v
remove#v#4  assemble#v#3  0.333333333333333

remove#v  close#v
remove#v#1  close#v#3  0.333333333333333

remove#v  open#v
remove#v#4  open#v#1  0.333333333333333

lift#v  remove#v
lift#v#11  remove#v#1  0.5

lift#v  unscrew#v
lift#v#10  unscrew#v#1  0.25

lift#v  clean#v
lift#v#22  clean#v#9  0.333333333333333

lift#v  put_back#v
lift#v#2  put_back#v#1  0.25

lift#v  screw#v
lift#v#10  screw#v#4  0.25

lift#v  replace#v
lift#v#10  replace#v#4  0.333333333333333

lift#v  assemble#v
lift#v#2  assemble#v#3  0.25

lift#v  close#v
lift#v#20  close#v#4  0.333333333333333

lift#v  open#v
lift#v#1  open#v#2  0.25

unscrew#v  remove#v
unscrew#v#2  remove#v#4  0.2

unscrew#v  unscrew#v
unscrew#v#1  unscrew#v#1  1

unscrew#v  clean#v
unscrew#v#2  clean#v#1  0.25

unscrew#v  put_back#v
unscrew#v#2  put_back#v#2  0.142857142857143

unscrew#v  screw#v
unscrew#v#2  screw#v#4  0.2

unscrew#v  replace#v
unscrew#v#2  replace#v#4  0.25

unscrew#v  assemble#v
unscrew#v#2  assemble#v#3  0.2

unscrew#v  close#v
unscrew#v#2  close#v#4  0.2

unscrew#v  open#v
unscrew#v#2  open#v#10  0.2

slide#v  remove#v
slide#v#3  remove#v#8  0.25

slide#v  unscrew#v
slide#v#2  unscrew#v#1  0.166666666666667

slide#v  clean#v
slide#v#2  clean#v#1  0.2

slide#v  put_back#v
slide#v#3  put_back#v#1  0.25

slide#v  screw#v
slide#v#2  screw#v#4  0.166666666666667

slide#v  replace#v
slide#v#3  replace#v#3  0.25

slide#v  assemble#v
slide#v#2  assemble#v#3  0.25

slide#v  close#v
slide#v#3  close#v#3  0.25

slide#v  open#v
slide#v#3  open#v#8  0.25

wash#v  remove#v
wash#v#9  remove#v#1  0.5

wash#v  unscrew#v
wash#v#11  unscrew#v#2  0.2

wash#v  clean#v
wash#v#2  clean#v#4  0.5

wash#v  put_back#v
wash#v#5  put_back#v#2  0.25

wash#v  screw#v
wash#v#3  screw#v#4  0.2

wash#v  replace#v
wash#v#11  replace#v#4  0.25

wash#v  assemble#v
wash#v#8  assemble#v#3  0.25

wash#v  close#v
wash#v#8  close#v#3  0.25

wash#v  open#v
wash#v#9  open#v#8  0.25

assemble#v  remove#v
assemble#v#3  remove#v#2  0.333333333333333

assemble#v  unscrew#v
assemble#v#3  unscrew#v#1  0.2

assemble#v  clean#v
assemble#v#3  clean#v#2  0.25

assemble#v  put_back#v
assemble#v#3  put_back#v#2  0.2

assemble#v  screw#v
assemble#v#3  screw#v#4  0.2

assemble#v  replace#v
assemble#v#3  replace#v#2  0.25

assemble#v  assemble#v
assemble#v#1  assemble#v#1  1

assemble#v  close#v
assemble#v#1  close#v#13  0.333333333333333

assemble#v  open#v
assemble#v#3  open#v#1  0.333333333333333

rescrow#v  remove#v

rescrow#v  unscrew#v

rescrow#v  clean#v

rescrow#v  put_back#v

rescrow#v  screw#v

rescrow#v  replace#v

rescrow#v  assemble#v

rescrow#v  close#v

rescrow#v  open#v

put_back#v  remove#v
put_back#v#1  remove#v#3  0.2

put_back#v  unscrew#v
put_back#v#1  unscrew#v#2  0.142857142857143

put_back#v  clean#v
put_back#v#2  clean#v#5  0.25

put_back#v  put_back#v
put_back#v#2  put_back#v#2  1

put_back#v  screw#v
put_back#v#2  screw#v#4  0.142857142857143

put_back#v  replace#v
put_back#v#1  replace#v#3  1

put_back#v  assemble#v
put_back#v#1  assemble#v#3  0.2

put_back#v  close#v
put_back#v#2  close#v#3  0.2

put_back#v  open#v
put_back#v#2  open#v#10  0.2

assemble#v  remove#v
assemble#v#3  remove#v#3  0.333333333333333

assemble#v  unscrew#v
assemble#v#3  unscrew#v#1  0.2

assemble#v  clean#v
assemble#v#3  clean#v#10  0.25

assemble#v  put_back#v
assemble#v#3  put_back#v#1  0.2

assemble#v  screw#v
assemble#v#3  screw#v#5  0.2

assemble#v  replace#v
assemble#v#3  replace#v#4  0.25

assemble#v  assemble#v
assemble#v#1  assemble#v#1  1

assemble#v  close#v
assemble#v#1  close#v#13  0.333333333333333

assemble#v  open#v
assemble#v#3  open#v#10  0.333333333333333

remove#v  remove#v
remove#v#6  remove#v#6  1

remove#v  unscrew#v
remove#v#1  unscrew#v#1  0.2

remove#v  clean#v
remove#v#1  clean#v#7  0.5

remove#v  put_back#v
remove#v#2  put_back#v#1  0.2

remove#v  screw#v
remove#v#2  screw#v#4  0.2

remove#v  replace#v
remove#v#1  replace#v#2  0.25

remove#v  assemble#v
remove#v#4  assemble#v#3  0.333333333333333

remove#v  close#v
remove#v#2  close#v#3  0.333333333333333

remove#v  open#v
remove#v#1  open#v#10  0.333333333333333

lift#v  remove#v
lift#v#11  remove#v#1  0.5

lift#v  unscrew#v
lift#v#10  unscrew#v#2  0.25

lift#v  clean#v
lift#v#11  clean#v#7  0.333333333333333

lift#v  put_back#v
lift#v#3  put_back#v#1  0.25

lift#v  screw#v
lift#v#10  screw#v#4  0.25

lift#v  replace#v
lift#v#10  replace#v#4  0.333333333333333

lift#v  assemble#v
lift#v#3  assemble#v#3  0.25

lift#v  close#v
lift#v#20  close#v#4  0.333333333333333

lift#v  open#v
lift#v#5  open#v#2  0.25

unscrew#v  remove#v
unscrew#v#2  remove#v#4  0.2

unscrew#v  unscrew#v
unscrew#v#1  unscrew#v#1  1

unscrew#v  clean#v
unscrew#v#2  clean#v#1  0.25

unscrew#v  put_back#v
unscrew#v#1  put_back#v#2  0.142857142857143

unscrew#v  screw#v
unscrew#v#2  screw#v#4  0.2

unscrew#v  replace#v
unscrew#v#1  replace#v#4  0.25

unscrew#v  assemble#v
unscrew#v#1  assemble#v#3  0.2

unscrew#v  close#v
unscrew#v#1  close#v#1  0.2

unscrew#v  open#v
unscrew#v#1  open#v#2  0.2

slide#v  remove#v
slide#v#3  remove#v#3  0.25

slide#v  unscrew#v
slide#v#3  unscrew#v#2  0.166666666666667

slide#v  clean#v
slide#v#3  clean#v#1  0.2

slide#v  put_back#v
slide#v#3  put_back#v#1  0.25

slide#v  screw#v
slide#v#2  screw#v#4  0.166666666666667

slide#v  replace#v
slide#v#3  replace#v#3  0.25

slide#v  assemble#v
slide#v#2  assemble#v#3  0.25

slide#v  close#v
slide#v#2  close#v#3  0.25

slide#v  open#v
slide#v#3  open#v#1  0.25

clean#v  remove#v
clean#v#9  remove#v#1  0.5

clean#v  unscrew#v
clean#v#1  unscrew#v#1  0.25

clean#v  clean#v
clean#v#7  clean#v#7  1

clean#v  put_back#v
clean#v#5  put_back#v#2  0.25

clean#v  screw#v
clean#v#1  screw#v#4  0.25

clean#v  replace#v
clean#v#1  replace#v#4  0.333333333333333

clean#v  assemble#v
clean#v#5  assemble#v#3  0.25

clean#v  close#v
clean#v#7  close#v#3  0.25

clean#v  open#v
clean#v#8  open#v#10  0.25

assemble#v  remove#v
assemble#v#3  remove#v#2  0.333333333333333

assemble#v  unscrew#v
assemble#v#3  unscrew#v#1  0.2

assemble#v  clean#v
assemble#v#3  clean#v#10  0.25

assemble#v  put_back#v
assemble#v#3  put_back#v#2  0.2

assemble#v  screw#v
assemble#v#3  screw#v#5  0.2

assemble#v  replace#v
assemble#v#3  replace#v#2  0.25

assemble#v  assemble#v
assemble#v#1  assemble#v#1  1

assemble#v  close#v
assemble#v#3  close#v#1  0.333333333333333

assemble#v  open#v
assemble#v#3  open#v#1  0.333333333333333

tighten#v  remove#v
tighten#v#1  remove#v#2  0.25

tighten#v  unscrew#v
tighten#v#1  unscrew#v#2  0.25

tighten#v  clean#v
tighten#v#1  clean#v#1  0.333333333333333

tighten#v  put_back#v
tighten#v#1  put_back#v#2  0.166666666666667

tighten#v  screw#v
tighten#v#1  screw#v#4  0.5

tighten#v  replace#v
tighten#v#1  replace#v#4  0.333333333333333

tighten#v  assemble#v
tighten#v#1  assemble#v#3  0.25

tighten#v  close#v
tighten#v#2  close#v#3  0.25

tighten#v  open#v
tighten#v#1  open#v#1  0.25

put_back#v  remove#v
put_back#v#1  remove#v#5  0.2

put_back#v  unscrew#v
put_back#v#2  unscrew#v#2  0.142857142857143

put_back#v  clean#v
put_back#v#2  clean#v#5  0.25

put_back#v  put_back#v
put_back#v#2  put_back#v#2  1

put_back#v  screw#v
put_back#v#1  screw#v#4  0.142857142857143

put_back#v  replace#v
put_back#v#1  replace#v#3  1

put_back#v  assemble#v
put_back#v#2  assemble#v#3  0.2

put_back#v  close#v
put_back#v#1  close#v#1  0.2

put_back#v  open#v
put_back#v#1  open#v#1  0.2

assemble#v  remove#v
assemble#v#3  remove#v#2  0.333333333333333

assemble#v  unscrew#v
assemble#v#3  unscrew#v#2  0.2

assemble#v  clean#v
assemble#v#3  clean#v#10  0.25

assemble#v  put_back#v
assemble#v#3  put_back#v#1  0.2

assemble#v  screw#v
assemble#v#3  screw#v#5  0.2

assemble#v  replace#v
assemble#v#3  replace#v#2  0.25

assemble#v  assemble#v
assemble#v#3  assemble#v#3  1

assemble#v  close#v
assemble#v#1  close#v#16  0.333333333333333

assemble#v  open#v
assemble#v#3  open#v#8  0.333333333333333

unscrew#v  remove#v
unscrew#v#2  remove#v#3  0.2

unscrew#v  unscrew#v
unscrew#v#2  unscrew#v#2  1

unscrew#v  clean#v
unscrew#v#1  clean#v#1  0.25

unscrew#v  put_back#v
unscrew#v#1  put_back#v#2  0.142857142857143

unscrew#v  screw#v
unscrew#v#2  screw#v#4  0.2

unscrew#v  replace#v
unscrew#v#1  replace#v#4  0.25

unscrew#v  assemble#v
unscrew#v#1  assemble#v#3  0.2

unscrew#v  close#v
unscrew#v#2  close#v#1  0.2

unscrew#v  open#v
unscrew#v#2  open#v#2  0.2

remove#v  remove#v
remove#v#8  remove#v#8  1

remove#v  unscrew#v
remove#v#2  unscrew#v#1  0.2

remove#v  clean#v
remove#v#1  clean#v#8  0.5

remove#v  put_back#v
remove#v#8  put_back#v#2  0.2

remove#v  screw#v
remove#v#1  screw#v#4  0.2

remove#v  replace#v
remove#v#3  replace#v#2  0.25

remove#v  assemble#v
remove#v#3  assemble#v#3  0.333333333333333

remove#v  close#v
remove#v#3  close#v#1  0.333333333333333

remove#v  open#v
remove#v#3  open#v#8  0.333333333333333

remove#v  remove#v
remove#v#4  remove#v#4  1

remove#v  unscrew#v
remove#v#1  unscrew#v#1  0.2

remove#v  clean#v
remove#v#1  clean#v#7  0.5

remove#v  put_back#v
remove#v#8  put_back#v#1  0.2

remove#v  screw#v
remove#v#8  screw#v#4  0.2

remove#v  replace#v
remove#v#4  replace#v#2  0.25

remove#v  assemble#v
remove#v#3  assemble#v#3  0.333333333333333

remove#v  close#v
remove#v#4  close#v#3  0.333333333333333

remove#v  open#v
remove#v#2  open#v#2  0.333333333333333

lift#v  remove#v
lift#v#22  remove#v#1  0.5

lift#v  unscrew#v
lift#v#10  unscrew#v#1  0.25

lift#v  clean#v
lift#v#11  clean#v#10  0.333333333333333

lift#v  put_back#v
lift#v#3  put_back#v#1  0.25

lift#v  screw#v
lift#v#10  screw#v#4  0.25

lift#v  replace#v
lift#v#10  replace#v#4  0.333333333333333

lift#v  assemble#v
lift#v#2  assemble#v#3  0.25

lift#v  close#v
lift#v#20  close#v#6  0.333333333333333

lift#v  open#v
lift#v#5  open#v#2  0.25

loose#v  remove#v
loose#v#1  remove#v#4  0.333333333333333

loose#v  unscrew#v
loose#v#3  unscrew#v#2  0.5

loose#v  clean#v
loose#v#3  clean#v#1  0.333333333333333

loose#v  put_back#v
loose#v#1  put_back#v#2  0.2

loose#v  screw#v
loose#v#3  screw#v#4  0.25

loose#v  replace#v
loose#v#3  replace#v#4  0.333333333333333

loose#v  assemble#v
loose#v#1  assemble#v#3  0.333333333333333

loose#v  close#v
loose#v#1  close#v#3  0.333333333333333

loose#v  open#v
loose#v#1  open#v#1  0.333333333333333

replace#v  remove#v
replace#v#2  remove#v#8  0.25

replace#v  unscrew#v
replace#v#4  unscrew#v#2  0.25

replace#v  clean#v
replace#v#4  clean#v#1  0.333333333333333

replace#v  put_back#v
replace#v#3  put_back#v#1  1

replace#v  screw#v
replace#v#4  screw#v#4  0.25

replace#v  replace#v
replace#v#3  replace#v#3  1

replace#v  assemble#v
replace#v#4  assemble#v#3  0.25

replace#v  close#v
replace#v#4  close#v#6  0.25

replace#v  open#v
replace#v#4  open#v#1  0.25

tighten#v  remove#v
tighten#v#2  remove#v#4  0.25

tighten#v  unscrew#v
tighten#v#1  unscrew#v#1  0.25

tighten#v  clean#v
tighten#v#1  clean#v#1  0.333333333333333

tighten#v  put_back#v
tighten#v#2  put_back#v#2  0.166666666666667

tighten#v  screw#v
tighten#v#1  screw#v#4  0.5

tighten#v  replace#v
tighten#v#1  replace#v#4  0.333333333333333

tighten#v  assemble#v
tighten#v#1  assemble#v#3  0.25

tighten#v  close#v
tighten#v#1  close#v#1  0.25

tighten#v  open#v
tighten#v#2  open#v#1  0.25

assemble#v  remove#v
assemble#v#3  remove#v#2  0.333333333333333

assemble#v  unscrew#v
assemble#v#3  unscrew#v#2  0.2

assemble#v  clean#v
assemble#v#3  clean#v#9  0.25

assemble#v  put_back#v
assemble#v#3  put_back#v#2  0.2

assemble#v  screw#v
assemble#v#3  screw#v#4  0.2

assemble#v  replace#v
assemble#v#3  replace#v#4  0.25

assemble#v  assemble#v
assemble#v#3  assemble#v#3  1

assemble#v  close#v
assemble#v#1  close#v#16  0.333333333333333

assemble#v  open#v
assemble#v#3  open#v#10  0.333333333333333

tighten#v  remove#v
tighten#v#1  remove#v#1  0.25

tighten#v  unscrew#v
tighten#v#1  unscrew#v#1  0.25

tighten#v  clean#v
tighten#v#1  clean#v#1  0.333333333333333

tighten#v  put_back#v
tighten#v#2  put_back#v#2  0.166666666666667

tighten#v  screw#v
tighten#v#1  screw#v#4  0.5

tighten#v  replace#v
tighten#v#1  replace#v#4  0.333333333333333

tighten#v  assemble#v
tighten#v#2  assemble#v#3  0.25

tighten#v  close#v
tighten#v#1  close#v#4  0.25

tighten#v  open#v
tighten#v#1  open#v#1  0.25

unscrew#v  remove#v
unscrew#v#2  remove#v#8  0.2

unscrew#v  unscrew#v
unscrew#v#1  unscrew#v#1  1

unscrew#v  clean#v
unscrew#v#2  clean#v#1  0.25

unscrew#v  put_back#v
unscrew#v#1  put_back#v#2  0.142857142857143

unscrew#v  screw#v
unscrew#v#1  screw#v#4  0.2

unscrew#v  replace#v
unscrew#v#2  replace#v#4  0.25

unscrew#v  assemble#v
unscrew#v#2  assemble#v#3  0.2

unscrew#v  close#v
unscrew#v#1  close#v#4  0.2

unscrew#v  open#v
unscrew#v#2  open#v#10  0.2

slide#v  remove#v
slide#v#3  remove#v#1  0.25

slide#v  unscrew#v
slide#v#2  unscrew#v#1  0.166666666666667

slide#v  clean#v
slide#v#2  clean#v#10  0.2

slide#v  put_back#v
slide#v#3  put_back#v#1  0.25

slide#v  screw#v
slide#v#3  screw#v#5  0.166666666666667

slide#v  replace#v
slide#v#3  replace#v#3  0.25

slide#v  assemble#v
slide#v#2  assemble#v#3  0.25

slide#v  close#v
slide#v#3  close#v#3  0.25

slide#v  open#v
slide#v#3  open#v#8  0.25

clean#v  remove#v
clean#v#10  remove#v#1  0.5

clean#v  unscrew#v
clean#v#1  unscrew#v#1  0.25

clean#v  clean#v
clean#v#10  clean#v#10  1

clean#v  put_back#v
clean#v#5  put_back#v#2  0.25

clean#v  screw#v
clean#v#1  screw#v#4  0.25

clean#v  replace#v
clean#v#1  replace#v#4  0.333333333333333

clean#v  assemble#v
clean#v#2  assemble#v#3  0.25

clean#v  close#v
clean#v#2  close#v#3  0.25

clean#v  open#v
clean#v#9  open#v#10  0.25

assemble#v  remove#v
assemble#v#3  remove#v#1  0.333333333333333

assemble#v  unscrew#v
assemble#v#3  unscrew#v#1  0.2

assemble#v  clean#v
assemble#v#3  clean#v#1  0.25

assemble#v  put_back#v
assemble#v#3  put_back#v#2  0.2

assemble#v  screw#v
assemble#v#3  screw#v#5  0.2

assemble#v  replace#v
assemble#v#3  replace#v#2  0.25

assemble#v  assemble#v
assemble#v#1  assemble#v#1  1

assemble#v  close#v
assemble#v#3  close#v#3  0.333333333333333

assemble#v  open#v
assemble#v#3  open#v#1  0.333333333333333

tighten#v  remove#v
tighten#v#1  remove#v#8  0.25

tighten#v  unscrew#v
tighten#v#1  unscrew#v#2  0.25

tighten#v  clean#v
tighten#v#1  clean#v#1  0.333333333333333

tighten#v  put_back#v
tighten#v#1  put_back#v#1  0.166666666666667

tighten#v  screw#v
tighten#v#1  screw#v#4  0.5

tighten#v  replace#v
tighten#v#1  replace#v#4  0.333333333333333

tighten#v  assemble#v
tighten#v#1  assemble#v#3  0.25

tighten#v  close#v
tighten#v#2  close#v#1  0.25

tighten#v  open#v
tighten#v#1  open#v#1  0.25

put_back#v  remove#v
put_back#v#2  remove#v#2  0.2

put_back#v  unscrew#v
put_back#v#1  unscrew#v#2  0.142857142857143

put_back#v  clean#v
put_back#v#2  clean#v#5  0.25

put_back#v  put_back#v
put_back#v#2  put_back#v#2  1

put_back#v  screw#v
put_back#v#2  screw#v#4  0.142857142857143

put_back#v  replace#v
put_back#v#1  replace#v#3  1

put_back#v  assemble#v
put_back#v#2  assemble#v#3  0.2

put_back#v  close#v
put_back#v#1  close#v#1  0.2

put_back#v  open#v
put_back#v#1  open#v#1  0.2

assemble#v  remove#v
assemble#v#3  remove#v#1  0.333333333333333

assemble#v  unscrew#v
assemble#v#3  unscrew#v#1  0.2

assemble#v  clean#v
assemble#v#3  clean#v#10  0.25

assemble#v  put_back#v
assemble#v#3  put_back#v#2  0.2

assemble#v  screw#v
assemble#v#3  screw#v#5  0.2

assemble#v  replace#v
assemble#v#3  replace#v#2  0.25

assemble#v  assemble#v
assemble#v#2  assemble#v#2  1

assemble#v  close#v
assemble#v#1  close#v#13  0.333333333333333

assemble#v  open#v
assemble#v#3  open#v#10  0.333333333333333

remove#v  remove#v
remove#v#8  remove#v#8  1

remove#v  unscrew#v
remove#v#4  unscrew#v#2  0.2

remove#v  clean#v
remove#v#1  clean#v#8  0.5

remove#v  put_back#v
remove#v#3  put_back#v#1  0.2

remove#v  screw#v
remove#v#1  screw#v#4  0.2

remove#v  replace#v
remove#v#3  replace#v#2  0.25

remove#v  assemble#v
remove#v#3  assemble#v#3  0.333333333333333

remove#v  close#v
remove#v#2  close#v#3  0.333333333333333

remove#v  open#v
remove#v#2  open#v#10  0.333333333333333

unscrew#v  remove#v
unscrew#v#2  remove#v#3  0.2

unscrew#v  unscrew#v
unscrew#v#1  unscrew#v#1  1

unscrew#v  clean#v
unscrew#v#2  clean#v#1  0.25

unscrew#v  put_back#v
unscrew#v#2  put_back#v#2  0.142857142857143

unscrew#v  screw#v
unscrew#v#2  screw#v#4  0.2

unscrew#v  replace#v
unscrew#v#1  replace#v#4  0.25

unscrew#v  assemble#v
unscrew#v#1  assemble#v#3  0.2

unscrew#v  close#v
unscrew#v#2  close#v#1  0.2

unscrew#v  open#v
unscrew#v#1  open#v#10  0.2

remove#v  remove#v
remove#v#1  remove#v#1  1

remove#v  unscrew#v
remove#v#3  unscrew#v#1  0.2

remove#v  clean#v
remove#v#1  clean#v#8  0.5

remove#v  put_back#v
remove#v#1  put_back#v#1  0.2

remove#v  screw#v
remove#v#2  screw#v#4  0.2

remove#v  replace#v
remove#v#8  replace#v#2  0.25

remove#v  assemble#v
remove#v#3  assemble#v#3  0.333333333333333

remove#v  close#v
remove#v#3  close#v#3  0.333333333333333

remove#v  open#v
remove#v#3  open#v#8  0.333333333333333

open#v  remove#v
open#v#8  remove#v#2  0.333333333333333

open#v  unscrew#v
open#v#10  unscrew#v#2  0.2

open#v  clean#v
open#v#2  clean#v#5  0.25

open#v  put_back#v
open#v#10  put_back#v#1  0.2

open#v  screw#v
open#v#10  screw#v#5  0.2

open#v  replace#v
open#v#8  replace#v#2  0.25

open#v  assemble#v
open#v#8  assemble#v#3  0.333333333333333

open#v  close#v
open#v#1  close#v#3  0.333333333333333

open#v  open#v
open#v#9  open#v#9  1

expose#v  remove#v
expose#v#4  remove#v#8  0.333333333333333

expose#v  unscrew#v
expose#v#6  unscrew#v#2  0.2

expose#v  clean#v
expose#v#4  clean#v#10  0.25

expose#v  put_back#v
expose#v#4  put_back#v#2  0.2

expose#v  screw#v
expose#v#6  screw#v#4  0.2

expose#v  replace#v
expose#v#6  replace#v#4  0.25

expose#v  assemble#v
expose#v#4  assemble#v#3  0.333333333333333

expose#v  close#v
expose#v#4  close#v#3  0.333333333333333

expose#v  open#v
expose#v#3  open#v#11  0.5

clean#v  remove#v
clean#v#9  remove#v#1  0.5

clean#v  unscrew#v
clean#v#1  unscrew#v#1  0.25

clean#v  clean#v
clean#v#10  clean#v#10  1

clean#v  put_back#v
clean#v#5  put_back#v#2  0.25

clean#v  screw#v
clean#v#1  screw#v#4  0.25

clean#v  replace#v
clean#v#1  replace#v#4  0.333333333333333

clean#v  assemble#v
clean#v#2  assemble#v#3  0.25

clean#v  close#v
clean#v#1  close#v#6  0.25

clean#v  open#v
clean#v#5  open#v#1  0.25

close#v  remove#v
close#v#1  remove#v#4  0.333333333333333

close#v  unscrew#v
close#v#3  unscrew#v#1  0.2

close#v  clean#v
close#v#3  clean#v#9  0.25

close#v  put_back#v
close#v#3  put_back#v#2  0.2

close#v  screw#v
close#v#11  screw#v#3  0.2

close#v  replace#v
close#v#3  replace#v#4  0.25

close#v  assemble#v
close#v#3  assemble#v#3  0.333333333333333

close#v  close#v
close#v#15  close#v#15  1

close#v  open#v
close#v#1  open#v#1  0.333333333333333

unscrew#v  remove#v
unscrew#v#2  remove#v#3  0.2

unscrew#v  unscrew#v
unscrew#v#2  unscrew#v#2  1

unscrew#v  clean#v
unscrew#v#2  clean#v#1  0.25

unscrew#v  put_back#v
unscrew#v#2  put_back#v#2  0.142857142857143

unscrew#v  screw#v
unscrew#v#1  screw#v#4  0.2

unscrew#v  replace#v
unscrew#v#1  replace#v#4  0.25

unscrew#v  assemble#v
unscrew#v#2  assemble#v#3  0.2

unscrew#v  close#v
unscrew#v#2  close#v#3  0.2

unscrew#v  open#v
unscrew#v#2  open#v#1  0.2

remove#v  remove#v
remove#v#3  remove#v#3  1

remove#v  unscrew#v
remove#v#2  unscrew#v#1  0.2

remove#v  clean#v
remove#v#1  clean#v#7  0.5

remove#v  put_back#v
remove#v#2  put_back#v#1  0.2

remove#v  screw#v
remove#v#2  screw#v#5  0.2

remove#v  replace#v
remove#v#3  replace#v#2  0.25

remove#v  assemble#v
remove#v#3  assemble#v#3  0.333333333333333

remove#v  close#v
remove#v#3  close#v#3  0.333333333333333

remove#v  open#v
remove#v#3  open#v#8  0.333333333333333

clean#v  remove#v
clean#v#9  remove#v#1  0.5

clean#v  unscrew#v
clean#v#1  unscrew#v#1  0.25

clean#v  clean#v
clean#v#7  clean#v#7  1

clean#v  put_back#v
clean#v#5  put_back#v#2  0.25

clean#v  screw#v
clean#v#1  screw#v#4  0.25

clean#v  replace#v
clean#v#1  replace#v#4  0.333333333333333

clean#v  assemble#v
clean#v#5  assemble#v#3  0.25

clean#v  close#v
clean#v#8  close#v#3  0.25

clean#v  open#v
clean#v#7  open#v#1  0.25

put#v  remove#v
put#v#2  remove#v#3  0.25

put#v  unscrew#v
put#v#2  unscrew#v#1  0.25

put#v  clean#v
put#v#2  clean#v#1  0.333333333333333

put#v  put_back#v
put#v#1  put_back#v#1  0.5

put#v  screw#v
put#v#2  screw#v#4  0.25

put#v  replace#v
put#v#1  replace#v#3  0.5

put#v  assemble#v
put#v#1  assemble#v#3  0.25

put#v  close#v
put#v#4  close#v#1  0.25

put#v  open#v
put#v#1  open#v#8  0.25

assemble#v  remove#v
assemble#v#3  remove#v#3  0.333333333333333

assemble#v  unscrew#v
assemble#v#3  unscrew#v#2  0.2

assemble#v  clean#v
assemble#v#3  clean#v#2  0.25

assemble#v  put_back#v
assemble#v#3  put_back#v#2  0.2

assemble#v  screw#v
assemble#v#3  screw#v#4  0.2

assemble#v  replace#v
assemble#v#3  replace#v#2  0.25

assemble#v  assemble#v
assemble#v#1  assemble#v#1  1

assemble#v  close#v
assemble#v#3  close#v#3  0.333333333333333

assemble#v  open#v
assemble#v#3  open#v#2  0.333333333333333

tighten#v  remove#v
tighten#v#1  remove#v#2  0.25

tighten#v  unscrew#v
tighten#v#1  unscrew#v#2  0.25

tighten#v  clean#v
tighten#v#1  clean#v#1  0.333333333333333

tighten#v  put_back#v
tighten#v#2  put_back#v#1  0.166666666666667

tighten#v  screw#v
tighten#v#1  screw#v#4  0.5

tighten#v  replace#v
tighten#v#1  replace#v#4  0.333333333333333

tighten#v  assemble#v
tighten#v#1  assemble#v#3  0.25

tighten#v  close#v
tighten#v#2  close#v#3  0.25

tighten#v  open#v
tighten#v#1  open#v#8  0.25

assemble#v  remove#v
assemble#v#3  remove#v#2  0.333333333333333

assemble#v  unscrew#v
assemble#v#3  unscrew#v#1  0.2

assemble#v  clean#v
assemble#v#3  clean#v#5  0.25

assemble#v  put_back#v
assemble#v#3  put_back#v#1  0.2

assemble#v  screw#v
assemble#v#3  screw#v#5  0.2

assemble#v  replace#v
assemble#v#3  replace#v#2  0.25

assemble#v  assemble#v
assemble#v#3  assemble#v#3  1

assemble#v  close#v
assemble#v#1  close#v#16  0.333333333333333

assemble#v  open#v
assemble#v#3  open#v#8  0.333333333333333

tighten#v  remove#v
tighten#v#1  remove#v#3  0.25

tighten#v  unscrew#v
tighten#v#1  unscrew#v#1  0.25

tighten#v  clean#v
tighten#v#1  clean#v#1  0.333333333333333

tighten#v  put_back#v
tighten#v#2  put_back#v#1  0.166666666666667

tighten#v  screw#v
tighten#v#1  screw#v#4  0.5

tighten#v  replace#v
tighten#v#1  replace#v#4  0.333333333333333

tighten#v  assemble#v
tighten#v#1  assemble#v#3  0.25

tighten#v  close#v
tighten#v#1  close#v#6  0.25

tighten#v  open#v
tighten#v#1  open#v#1  0.25

put#v  remove#v
put#v#4  remove#v#8  0.25

put#v  unscrew#v
put#v#2  unscrew#v#2  0.25

put#v  clean#v
put#v#2  clean#v#1  0.333333333333333

put#v  put_back#v
put#v#1  put_back#v#1  0.5

put#v  screw#v
put#v#2  screw#v#4  0.25

put#v  replace#v
put#v#1  replace#v#3  0.5

put#v  assemble#v
put#v#4  assemble#v#3  0.25

put#v  close#v
put#v#1  close#v#1  0.25

put#v  open#v
put#v#1  open#v#8  0.25

remove#v  remove#v
remove#v#7  remove#v#7  1

remove#v  unscrew#v
remove#v#3  unscrew#v#1  0.2

remove#v  clean#v
remove#v#1  clean#v#9  0.5

remove#v  put_back#v
remove#v#4  put_back#v#2  0.2

remove#v  screw#v
remove#v#3  screw#v#4  0.2

remove#v  replace#v
remove#v#2  replace#v#2  0.25

remove#v  assemble#v
remove#v#3  assemble#v#3  0.333333333333333

remove#v  close#v
remove#v#2  close#v#3  0.333333333333333

remove#v  open#v
remove#v#8  open#v#2  0.333333333333333

close#v  remove#v
close#v#3  remove#v#1  0.333333333333333

close#v  unscrew#v
close#v#1  unscrew#v#2  0.2

close#v  clean#v
close#v#3  clean#v#1  0.25

close#v  put_back#v
close#v#9  put_back#v#2  0.2

close#v  screw#v
close#v#3  screw#v#5  0.2

close#v  replace#v
close#v#1  replace#v#2  0.25

close#v  assemble#v
close#v#1  assemble#v#3  0.333333333333333

close#v  close#v
close#v#3  close#v#3  1

close#v  open#v
close#v#3  open#v#8  0.333333333333333

interrupt#v  remove#v
interrupt#v#2  remove#v#2  0.25

interrupt#v  unscrew#v
interrupt#v#4  unscrew#v#1  0.2

interrupt#v  clean#v
interrupt#v#4  clean#v#1  0.25

interrupt#v  put_back#v
interrupt#v#2  put_back#v#1  0.166666666666667

interrupt#v  screw#v
interrupt#v#4  screw#v#4  0.2

interrupt#v  replace#v
interrupt#v#4  replace#v#4  0.25

interrupt#v  assemble#v
interrupt#v#2  assemble#v#3  0.25

interrupt#v  close#v
interrupt#v#4  close#v#6  0.333333333333333

interrupt#v  open#v
interrupt#v#2  open#v#1  0.25

close#v  remove#v
close#v#1  remove#v#4  0.333333333333333

close#v  unscrew#v
close#v#6  unscrew#v#2  0.2

close#v  clean#v
close#v#1  clean#v#9  0.25

close#v  put_back#v
close#v#3  put_back#v#2  0.2

close#v  screw#v
close#v#11  screw#v#2  0.2

close#v  replace#v
close#v#4  replace#v#4  0.25

close#v  assemble#v
close#v#1  assemble#v#3  0.333333333333333

close#v  close#v
close#v#15  close#v#15  1

close#v  open#v
close#v#1  open#v#2  0.333333333333333

release#v  remove#v
release#v#5  remove#v#8  0.333333333333333

release#v  unscrew#v
release#v#1  unscrew#v#2  0.2

release#v  clean#v
release#v#1  clean#v#9  0.25

release#v  put_back#v
release#v#5  put_back#v#1  0.2

release#v  screw#v
release#v#2  screw#v#5  0.2

release#v  replace#v
release#v#5  replace#v#4  0.25

release#v  assemble#v
release#v#1  assemble#v#3  0.333333333333333

release#v  close#v
release#v#1  close#v#3  0.333333333333333

release#v  open#v
release#v#5  open#v#2  0.333333333333333

power_off#v  remove#v

power_off#v  unscrew#v

power_off#v  clean#v

power_off#v  put_back#v

power_off#v  screw#v

power_off#v  replace#v

power_off#v  assemble#v

power_off#v  close#v

power_off#v  open#v

unplug#v  remove#v
unplug#v#1  remove#v#4  0.166666666666667

unplug#v  unscrew#v
unplug#v#1  unscrew#v#1  0.125

unplug#v  clean#v
unplug#v#1  clean#v#2  0.142857142857143

unplug#v  put_back#v
unplug#v#1  put_back#v#1  0.125

unplug#v  screw#v
unplug#v#1  screw#v#5  0.125

unplug#v  replace#v
unplug#v#1  replace#v#4  0.142857142857143

unplug#v  assemble#v
unplug#v#1  assemble#v#3  0.166666666666667

unplug#v  close#v
unplug#v#1  close#v#1  0.166666666666667

unplug#v  open#v
unplug#v#1  open#v#5  0.333333333333333

prevent#v  remove#v
prevent#v#1  remove#v#2  0.333333333333333

prevent#v  unscrew#v
prevent#v#1  unscrew#v#2  0.2

prevent#v  clean#v
prevent#v#1  clean#v#2  0.25

prevent#v  put_back#v
prevent#v#1  put_back#v#1  0.2

prevent#v  screw#v
prevent#v#2  screw#v#4  0.2

prevent#v  replace#v
prevent#v#1  replace#v#2  0.25

prevent#v  assemble#v
prevent#v#2  assemble#v#3  0.333333333333333

prevent#v  close#v
prevent#v#1  close#v#3  0.333333333333333

prevent#v  open#v
prevent#v#1  open#v#8  0.333333333333333

remove#v  remove#v
remove#v#4  remove#v#4  1

remove#v  unscrew#v
remove#v#3  unscrew#v#1  0.2

remove#v  clean#v
remove#v#1  clean#v#8  0.5

remove#v  put_back#v
remove#v#8  put_back#v#2  0.2

remove#v  screw#v
remove#v#8  screw#v#5  0.2

remove#v  replace#v
remove#v#3  replace#v#2  0.25

remove#v  assemble#v
remove#v#3  assemble#v#3  0.333333333333333

remove#v  close#v
remove#v#3  close#v#1  0.333333333333333

remove#v  open#v
remove#v#8  open#v#2  0.333333333333333

remove#v  remove#v
remove#v#3  remove#v#3  1

remove#v  unscrew#v
remove#v#1  unscrew#v#1  0.2

remove#v  clean#v
remove#v#1  clean#v#2  0.5

remove#v  put_back#v
remove#v#1  put_back#v#1  0.2

remove#v  screw#v
remove#v#1  screw#v#5  0.2

remove#v  replace#v
remove#v#2  replace#v#4  0.25

remove#v  assemble#v
remove#v#3  assemble#v#3  0.333333333333333

remove#v  close#v
remove#v#1  close#v#1  0.333333333333333

remove#v  open#v
remove#v#3  open#v#1  0.333333333333333

clean#v  remove#v
clean#v#2  remove#v#1  0.5

clean#v  unscrew#v
clean#v#1  unscrew#v#1  0.25

clean#v  clean#v
clean#v#7  clean#v#7  1

clean#v  put_back#v
clean#v#5  put_back#v#2  0.25

clean#v  screw#v
clean#v#1  screw#v#4  0.25

clean#v  replace#v
clean#v#1  replace#v#4  0.333333333333333

clean#v  assemble#v
clean#v#2  assemble#v#3  0.25

clean#v  close#v
clean#v#1  close#v#3  0.25

clean#v  open#v
clean#v#8  open#v#1  0.25

assemble#v  remove#v
assemble#v#3  remove#v#8  0.333333333333333

assemble#v  unscrew#v
assemble#v#3  unscrew#v#2  0.2

assemble#v  clean#v
assemble#v#3  clean#v#2  0.25

assemble#v  put_back#v
assemble#v#3  put_back#v#1  0.2

assemble#v  screw#v
assemble#v#3  screw#v#5  0.2

assemble#v  replace#v
assemble#v#3  replace#v#2  0.25

assemble#v  assemble#v
assemble#v#3  assemble#v#3  1

assemble#v  close#v
assemble#v#1  close#v#13  0.333333333333333

assemble#v  open#v
assemble#v#3  open#v#2  0.333333333333333

seat#n  screw#n
seat#n#4  screw#n#4  0.166666666666667

seat#n  box#n
seat#n#3  box#n#8  0.5

seat#n  area#n
seat#n#2  area#n#3  0.333333333333333

seat#n  cover#n
seat#n#9  cover#n#2  0.25

seat#n  cap#n
seat#n#6  cap#n#9  0.2

seat#n  bulb#n
seat#n#8  bulb#n#3  0.333333333333333

seat#n  seat#n
seat#n#7  seat#n#7  1

seat#n  filter#n
seat#n#4  filter#n#1  0.25

seat#n  lens#n
seat#n#2  lens#n#4  0.25

seat#n  shutter#n
seat#n#4  shutter#n#1  0.166666666666667

holder#n  screw#n
holder#n#1  screw#n#4  0.166666666666667

holder#n  box#n
holder#n#1  box#n#1  0.166666666666667

holder#n  area#n
holder#n#1  area#n#5  0.142857142857143

holder#n  cover#n
holder#n#1  cover#n#9  0.166666666666667

holder#n  cap#n
holder#n#1  cap#n#3  0.2

holder#n  bulb#n
holder#n#1  bulb#n#2  0.142857142857143

holder#n  seat#n
holder#n#1  seat#n#4  0.2

holder#n  filter#n
holder#n#1  filter#n#1  0.25

holder#n  lens#n
holder#n#1  lens#n#1  0.2

holder#n  shutter#n
holder#n#1  shutter#n#1  0.166666666666667

screw#n  screw#n
screw#n#4  screw#n#4  1

screw#n  box#n
screw#n#4  box#n#1  0.142857142857143

screw#n  area#n
screw#n#4  area#n#5  0.125

screw#n  cover#n
screw#n#4  cover#n#9  0.142857142857143

screw#n  cap#n
screw#n#4  cap#n#3  0.166666666666667

screw#n  bulb#n
screw#n#4  bulb#n#2  0.125

screw#n  seat#n
screw#n#4  seat#n#4  0.166666666666667

screw#n  filter#n
screw#n#4  filter#n#1  0.2

screw#n  lens#n
screw#n#4  lens#n#1  0.166666666666667

screw#n  shutter#n
screw#n#3  shutter#n#1  0.25

filter#n  screw#n
filter#n#1  screw#n#4  0.2

filter#n  box#n
filter#n#1  box#n#1  0.2

filter#n  area#n
filter#n#1  area#n#5  0.166666666666667

filter#n  cover#n
filter#n#1  cover#n#9  0.2

filter#n  cap#n
filter#n#1  cap#n#3  0.25

filter#n  bulb#n
filter#n#1  bulb#n#2  0.166666666666667

filter#n  seat#n
filter#n#1  seat#n#4  0.25

filter#n  filter#n
filter#n#1  filter#n#1  1

filter#n  lens#n
filter#n#1  lens#n#1  0.25

filter#n  shutter#n
filter#n#1  shutter#n#1  0.2

filter#n  screw#n
filter#n#1  screw#n#4  0.2

filter#n  box#n
filter#n#1  box#n#1  0.2

filter#n  area#n
filter#n#1  area#n#5  0.166666666666667

filter#n  cover#n
filter#n#1  cover#n#9  0.2

filter#n  cap#n
filter#n#1  cap#n#3  0.25

filter#n  bulb#n
filter#n#1  bulb#n#2  0.166666666666667

filter#n  seat#n
filter#n#1  seat#n#4  0.25

filter#n  filter#n
filter#n#2  filter#n#2  1

filter#n  lens#n
filter#n#1  lens#n#1  0.25

filter#n  shutter#n
filter#n#1  shutter#n#1  0.2

filter#n  screw#n
filter#n#1  screw#n#4  0.2

filter#n  box#n
filter#n#1  box#n#1  0.2

filter#n  area#n
filter#n#1  area#n#5  0.166666666666667

filter#n  cover#n
filter#n#1  cover#n#9  0.2

filter#n  cap#n
filter#n#1  cap#n#8  0.25

filter#n  bulb#n
filter#n#1  bulb#n#2  0.166666666666667

filter#n  seat#n
filter#n#1  seat#n#4  0.25

filter#n  filter#n
filter#n#1  filter#n#1  1

filter#n  lens#n
filter#n#1  lens#n#1  0.25

filter#n  shutter#n
filter#n#1  shutter#n#1  0.2

screw#n  screw#n
screw#n#5  screw#n#5  1

screw#n  box#n
screw#n#4  box#n#1  0.142857142857143

screw#n  area#n
screw#n#4  area#n#5  0.125

screw#n  cover#n
screw#n#4  cover#n#9  0.142857142857143

screw#n  cap#n
screw#n#4  cap#n#8  0.166666666666667

screw#n  bulb#n
screw#n#4  bulb#n#2  0.125

screw#n  seat#n
screw#n#4  seat#n#4  0.166666666666667

screw#n  filter#n
screw#n#4  filter#n#1  0.2

screw#n  lens#n
screw#n#4  lens#n#1  0.166666666666667

screw#n  shutter#n
screw#n#3  shutter#n#1  0.25

holder#n  screw#n
holder#n#1  screw#n#4  0.166666666666667

holder#n  box#n
holder#n#1  box#n#1  0.166666666666667

holder#n  area#n
holder#n#1  area#n#5  0.142857142857143

holder#n  cover#n
holder#n#1  cover#n#9  0.166666666666667

holder#n  cap#n
holder#n#1  cap#n#8  0.2

holder#n  bulb#n
holder#n#1  bulb#n#2  0.142857142857143

holder#n  seat#n
holder#n#1  seat#n#4  0.2

holder#n  filter#n
holder#n#1  filter#n#1  0.25

holder#n  lens#n
holder#n#1  lens#n#1  0.2

holder#n  shutter#n
holder#n#1  shutter#n#1  0.166666666666667

seat#n  screw#n
seat#n#4  screw#n#4  0.166666666666667

seat#n  box#n
seat#n#3  box#n#8  0.5

seat#n  area#n
seat#n#2  area#n#3  0.333333333333333

seat#n  cover#n
seat#n#9  cover#n#1  0.25

seat#n  cap#n
seat#n#6  cap#n#9  0.2

seat#n  bulb#n
seat#n#8  bulb#n#3  0.333333333333333

seat#n  seat#n
seat#n#1  seat#n#1  1

seat#n  filter#n
seat#n#4  filter#n#1  0.25

seat#n  lens#n
seat#n#2  lens#n#4  0.25

seat#n  shutter#n
seat#n#4  shutter#n#1  0.166666666666667

screw#n  screw#n
screw#n#3  screw#n#3  1

screw#n  box#n
screw#n#4  box#n#1  0.142857142857143

screw#n  area#n
screw#n#4  area#n#5  0.125

screw#n  cover#n
screw#n#4  cover#n#9  0.142857142857143

screw#n  cap#n
screw#n#4  cap#n#8  0.166666666666667

screw#n  bulb#n
screw#n#4  bulb#n#2  0.125

screw#n  seat#n
screw#n#4  seat#n#4  0.166666666666667

screw#n  filter#n
screw#n#4  filter#n#1  0.2

screw#n  lens#n
screw#n#4  lens#n#1  0.166666666666667

screw#n  shutter#n
screw#n#3  shutter#n#1  0.25

cover#n  screw#n
cover#n#9  screw#n#4  0.142857142857143

cover#n  box#n
cover#n#6  box#n#1  0.166666666666667

cover#n  area#n
cover#n#6  area#n#5  0.2

cover#n  cover#n
cover#n#9  cover#n#9  1

cover#n  cap#n
cover#n#6  cap#n#2  0.5

cover#n  bulb#n
cover#n#5  bulb#n#1  0.166666666666667

cover#n  seat#n
cover#n#2  seat#n#9  0.25

cover#n  filter#n
cover#n#9  filter#n#1  0.2

cover#n  lens#n
cover#n#9  lens#n#1  0.166666666666667

cover#n  shutter#n
cover#n#4  shutter#n#2  0.25

screw#n  screw#n
screw#n#4  screw#n#4  1

screw#n  box#n
screw#n#4  box#n#1  0.142857142857143

screw#n  area#n
screw#n#4  area#n#5  0.125

screw#n  cover#n
screw#n#4  cover#n#9  0.142857142857143

screw#n  cap#n
screw#n#4  cap#n#3  0.166666666666667

screw#n  bulb#n
screw#n#4  bulb#n#2  0.125

screw#n  seat#n
screw#n#4  seat#n#4  0.166666666666667

screw#n  filter#n
screw#n#4  filter#n#1  0.2

screw#n  lens#n
screw#n#4  lens#n#1  0.166666666666667

screw#n  shutter#n
screw#n#3  shutter#n#1  0.25

bulb#n  screw#n
bulb#n#2  screw#n#4  0.125

bulb#n  box#n
bulb#n#3  box#n#7  0.125

bulb#n  area#n
bulb#n#6  area#n#3  0.25

bulb#n  cover#n
bulb#n#3  cover#n#5  0.166666666666667

bulb#n  cap#n
bulb#n#1  cap#n#5  0.2

bulb#n  bulb#n
bulb#n#3  bulb#n#3  1

bulb#n  seat#n
bulb#n#3  seat#n#8  0.333333333333333

bulb#n  filter#n
bulb#n#2  filter#n#1  0.166666666666667

bulb#n  lens#n
bulb#n#6  lens#n#4  0.2

bulb#n  shutter#n
bulb#n#2  shutter#n#1  0.125

screw#n  screw#n
screw#n#2  screw#n#2  1

screw#n  box#n
screw#n#4  box#n#1  0.142857142857143

screw#n  area#n
screw#n#4  area#n#5  0.125

screw#n  cover#n
screw#n#4  cover#n#9  0.142857142857143

screw#n  cap#n
screw#n#4  cap#n#3  0.166666666666667

screw#n  bulb#n
screw#n#4  bulb#n#2  0.125

screw#n  seat#n
screw#n#4  seat#n#4  0.166666666666667

screw#n  filter#n
screw#n#4  filter#n#1  0.2

screw#n  lens#n
screw#n#4  lens#n#1  0.166666666666667

screw#n  shutter#n
screw#n#3  shutter#n#1  0.25

cover#n  screw#n
cover#n#9  screw#n#4  0.142857142857143

cover#n  box#n
cover#n#6  box#n#1  0.166666666666667

cover#n  area#n
cover#n#6  area#n#5  0.2

cover#n  cover#n
cover#n#9  cover#n#9  1

cover#n  cap#n
cover#n#5  cap#n#6  0.5

cover#n  bulb#n
cover#n#5  bulb#n#3  0.166666666666667

cover#n  seat#n
cover#n#2  seat#n#9  0.25

cover#n  filter#n
cover#n#9  filter#n#1  0.2

cover#n  lens#n
cover#n#9  lens#n#1  0.166666666666667

cover#n  shutter#n
cover#n#4  shutter#n#2  0.25

screw#n  screw#n
screw#n#3  screw#n#3  1

screw#n  box#n
screw#n#4  box#n#1  0.142857142857143

screw#n  area#n
screw#n#4  area#n#5  0.125

screw#n  cover#n
screw#n#4  cover#n#9  0.142857142857143

screw#n  cap#n
screw#n#4  cap#n#8  0.166666666666667

screw#n  bulb#n
screw#n#4  bulb#n#2  0.125

screw#n  seat#n
screw#n#4  seat#n#4  0.166666666666667

screw#n  filter#n
screw#n#4  filter#n#1  0.2

screw#n  lens#n
screw#n#4  lens#n#1  0.166666666666667

screw#n  shutter#n
screw#n#3  shutter#n#1  0.25

screw#n  screw#n
screw#n#4  screw#n#4  1

screw#n  box#n
screw#n#4  box#n#1  0.142857142857143

screw#n  area#n
screw#n#4  area#n#5  0.125

screw#n  cover#n
screw#n#4  cover#n#9  0.142857142857143

screw#n  cap#n
screw#n#4  cap#n#8  0.166666666666667

screw#n  bulb#n
screw#n#4  bulb#n#2  0.125

screw#n  seat#n
screw#n#4  seat#n#4  0.166666666666667

screw#n  filter#n
screw#n#4  filter#n#1  0.2

screw#n  lens#n
screw#n#4  lens#n#1  0.166666666666667

screw#n  shutter#n
screw#n#3  shutter#n#1  0.25

cover#n  screw#n
cover#n#9  screw#n#4  0.142857142857143

cover#n  box#n
cover#n#1  box#n#7  0.166666666666667

cover#n  area#n
cover#n#6  area#n#5  0.2

cover#n  cover#n
cover#n#9  cover#n#9  1

cover#n  cap#n
cover#n#5  cap#n#6  0.5

cover#n  bulb#n
cover#n#5  bulb#n#1  0.166666666666667

cover#n  seat#n
cover#n#1  seat#n#9  0.25

cover#n  filter#n
cover#n#9  filter#n#1  0.2

cover#n  lens#n
cover#n#9  lens#n#1  0.166666666666667

cover#n  shutter#n
cover#n#4  shutter#n#2  0.25

screw#n  screw#n
screw#n#1  screw#n#1  1

screw#n  box#n
screw#n#4  box#n#1  0.142857142857143

screw#n  area#n
screw#n#4  area#n#5  0.125

screw#n  cover#n
screw#n#4  cover#n#9  0.142857142857143

screw#n  cap#n
screw#n#4  cap#n#8  0.166666666666667

screw#n  bulb#n
screw#n#4  bulb#n#2  0.125

screw#n  seat#n
screw#n#4  seat#n#4  0.166666666666667

screw#n  filter#n
screw#n#4  filter#n#1  0.2

screw#n  lens#n
screw#n#4  lens#n#1  0.166666666666667

screw#n  shutter#n
screw#n#3  shutter#n#1  0.25

bulb#n  screw#n
bulb#n#2  screw#n#4  0.125

bulb#n  box#n
bulb#n#3  box#n#7  0.125

bulb#n  area#n
bulb#n#6  area#n#3  0.25

bulb#n  cover#n
bulb#n#3  cover#n#5  0.166666666666667

bulb#n  cap#n
bulb#n#1  cap#n#5  0.2

bulb#n  bulb#n
bulb#n#3  bulb#n#3  1

bulb#n  seat#n
bulb#n#3  seat#n#8  0.333333333333333

bulb#n  filter#n
bulb#n#2  filter#n#1  0.166666666666667

bulb#n  lens#n
bulb#n#6  lens#n#4  0.2

bulb#n  shutter#n
bulb#n#2  shutter#n#1  0.125

screw#n  screw#n
screw#n#3  screw#n#3  1

screw#n  box#n
screw#n#4  box#n#1  0.142857142857143

screw#n  area#n
screw#n#4  area#n#5  0.125

screw#n  cover#n
screw#n#4  cover#n#9  0.142857142857143

screw#n  cap#n
screw#n#4  cap#n#3  0.166666666666667

screw#n  bulb#n
screw#n#4  bulb#n#2  0.125

screw#n  seat#n
screw#n#4  seat#n#4  0.166666666666667

screw#n  filter#n
screw#n#4  filter#n#1  0.2

screw#n  lens#n
screw#n#4  lens#n#1  0.166666666666667

screw#n  shutter#n
screw#n#3  shutter#n#1  0.25

cover#n  screw#n
cover#n#9  screw#n#4  0.142857142857143

cover#n  box#n
cover#n#6  box#n#1  0.166666666666667

cover#n  area#n
cover#n#1  area#n#5  0.2

cover#n  cover#n
cover#n#8  cover#n#8  1

cover#n  cap#n
cover#n#6  cap#n#2  0.5

cover#n  bulb#n
cover#n#5  bulb#n#1  0.166666666666667

cover#n  seat#n
cover#n#2  seat#n#9  0.25

cover#n  filter#n
cover#n#9  filter#n#1  0.2

cover#n  lens#n
cover#n#9  lens#n#1  0.166666666666667

cover#n  shutter#n
cover#n#4  shutter#n#2  0.25

screw#n  screw#n
screw#n#4  screw#n#4  1

screw#n  box#n
screw#n#4  box#n#1  0.142857142857143

screw#n  area#n
screw#n#4  area#n#5  0.125

screw#n  cover#n
screw#n#4  cover#n#9  0.142857142857143

screw#n  cap#n
screw#n#4  cap#n#8  0.166666666666667

screw#n  bulb#n
screw#n#4  bulb#n#2  0.125

screw#n  seat#n
screw#n#4  seat#n#4  0.166666666666667

screw#n  filter#n
screw#n#4  filter#n#1  0.2

screw#n  lens#n
screw#n#4  lens#n#1  0.166666666666667

screw#n  shutter#n
screw#n#3  shutter#n#1  0.25

screw#n  screw#n
screw#n#2  screw#n#2  1

screw#n  box#n
screw#n#4  box#n#1  0.142857142857143

screw#n  area#n
screw#n#4  area#n#5  0.125

screw#n  cover#n
screw#n#4  cover#n#9  0.142857142857143

screw#n  cap#n
screw#n#4  cap#n#3  0.166666666666667

screw#n  bulb#n
screw#n#4  bulb#n#2  0.125

screw#n  seat#n
screw#n#4  seat#n#4  0.166666666666667

screw#n  filter#n
screw#n#4  filter#n#1  0.2

screw#n  lens#n
screw#n#4  lens#n#1  0.166666666666667

screw#n  shutter#n
screw#n#3  shutter#n#1  0.25

cover#n  screw#n
cover#n#9  screw#n#4  0.142857142857143

cover#n  box#n
cover#n#1  box#n#1  0.166666666666667

cover#n  area#n
cover#n#1  area#n#5  0.2

cover#n  cover#n
cover#n#9  cover#n#9  1

cover#n  cap#n
cover#n#6  cap#n#2  0.5

cover#n  bulb#n
cover#n#5  bulb#n#1  0.166666666666667

cover#n  seat#n
cover#n#6  seat#n#9  0.25

cover#n  filter#n
cover#n#9  filter#n#1  0.2

cover#n  lens#n
cover#n#9  lens#n#1  0.166666666666667

cover#n  shutter#n
cover#n#4  shutter#n#2  0.25

screw#n  screw#n
screw#n#5  screw#n#5  1

screw#n  box#n
screw#n#4  box#n#1  0.142857142857143

screw#n  area#n
screw#n#4  area#n#5  0.125

screw#n  cover#n
screw#n#4  cover#n#9  0.142857142857143

screw#n  cap#n
screw#n#4  cap#n#8  0.166666666666667

screw#n  bulb#n
screw#n#4  bulb#n#2  0.125

screw#n  seat#n
screw#n#4  seat#n#4  0.166666666666667

screw#n  filter#n
screw#n#4  filter#n#1  0.2

screw#n  lens#n
screw#n#4  lens#n#1  0.166666666666667

screw#n  shutter#n
screw#n#3  shutter#n#1  0.25

bulb#n  screw#n
bulb#n#2  screw#n#4  0.125

bulb#n  box#n
bulb#n#2  box#n#1  0.125

bulb#n  area#n
bulb#n#6  area#n#3  0.25

bulb#n  cover#n
bulb#n#1  cover#n#5  0.166666666666667

bulb#n  cap#n
bulb#n#1  cap#n#5  0.2

bulb#n  bulb#n
bulb#n#2  bulb#n#2  1

bulb#n  seat#n
bulb#n#3  seat#n#8  0.333333333333333

bulb#n  filter#n
bulb#n#2  filter#n#1  0.166666666666667

bulb#n  lens#n
bulb#n#6  lens#n#4  0.2

bulb#n  shutter#n
bulb#n#2  shutter#n#1  0.125

screw#n  screw#n
screw#n#4  screw#n#4  1

screw#n  box#n
screw#n#4  box#n#1  0.142857142857143

screw#n  area#n
screw#n#4  area#n#5  0.125

screw#n  cover#n
screw#n#4  cover#n#9  0.142857142857143

screw#n  cap#n
screw#n#4  cap#n#8  0.166666666666667

screw#n  bulb#n
screw#n#4  bulb#n#2  0.125

screw#n  seat#n
screw#n#4  seat#n#4  0.166666666666667

screw#n  filter#n
screw#n#4  filter#n#1  0.2

screw#n  lens#n
screw#n#4  lens#n#1  0.166666666666667

screw#n  shutter#n
screw#n#3  shutter#n#1  0.25

cover#n  screw#n
cover#n#9  screw#n#4  0.142857142857143

cover#n  box#n
cover#n#6  box#n#1  0.166666666666667

cover#n  area#n
cover#n#1  area#n#5  0.2

cover#n  cover#n
cover#n#1  cover#n#1  1

cover#n  cap#n
cover#n#5  cap#n#6  0.5

cover#n  bulb#n
cover#n#5  bulb#n#1  0.166666666666667

cover#n  seat#n
cover#n#2  seat#n#9  0.25

cover#n  filter#n
cover#n#9  filter#n#1  0.2

cover#n  lens#n
cover#n#9  lens#n#1  0.166666666666667

cover#n  shutter#n
cover#n#4  shutter#n#2  0.25

screw#n  screw#n
screw#n#5  screw#n#5  1

screw#n  box#n
screw#n#4  box#n#1  0.142857142857143

screw#n  area#n
screw#n#4  area#n#5  0.125

screw#n  cover#n
screw#n#4  cover#n#9  0.142857142857143

screw#n  cap#n
screw#n#4  cap#n#3  0.166666666666667

screw#n  bulb#n
screw#n#4  bulb#n#2  0.125

screw#n  seat#n
screw#n#4  seat#n#4  0.166666666666667

screw#n  filter#n
screw#n#4  filter#n#1  0.2

screw#n  lens#n
screw#n#4  lens#n#1  0.166666666666667

screw#n  shutter#n
screw#n#3  shutter#n#1  0.25

seat#n  screw#n
seat#n#4  screw#n#4  0.166666666666667

seat#n  box#n
seat#n#3  box#n#8  0.5

seat#n  area#n
seat#n#1  area#n#1  0.333333333333333

seat#n  cover#n
seat#n#9  cover#n#6  0.25

seat#n  cap#n
seat#n#4  cap#n#3  0.2

seat#n  bulb#n
seat#n#8  bulb#n#3  0.333333333333333

seat#n  seat#n
seat#n#4  seat#n#4  1

seat#n  filter#n
seat#n#4  filter#n#1  0.25

seat#n  lens#n
seat#n#2  lens#n#4  0.25

seat#n  shutter#n
seat#n#4  shutter#n#1  0.166666666666667

holder#n  screw#n
holder#n#1  screw#n#4  0.166666666666667

holder#n  box#n
holder#n#1  box#n#1  0.166666666666667

holder#n  area#n
holder#n#1  area#n#5  0.142857142857143

holder#n  cover#n
holder#n#1  cover#n#9  0.166666666666667

holder#n  cap#n
holder#n#1  cap#n#3  0.2

holder#n  bulb#n
holder#n#1  bulb#n#2  0.142857142857143

holder#n  seat#n
holder#n#1  seat#n#4  0.2

holder#n  filter#n
holder#n#1  filter#n#1  0.25

holder#n  lens#n
holder#n#1  lens#n#1  0.2

holder#n  shutter#n
holder#n#1  shutter#n#1  0.166666666666667

screw#n  screw#n
screw#n#5  screw#n#5  1

screw#n  box#n
screw#n#4  box#n#1  0.142857142857143

screw#n  area#n
screw#n#4  area#n#5  0.125

screw#n  cover#n
screw#n#4  cover#n#9  0.142857142857143

screw#n  cap#n
screw#n#4  cap#n#3  0.166666666666667

screw#n  bulb#n
screw#n#4  bulb#n#2  0.125

screw#n  seat#n
screw#n#4  seat#n#4  0.166666666666667

screw#n  filter#n
screw#n#4  filter#n#1  0.2

screw#n  lens#n
screw#n#4  lens#n#1  0.166666666666667

screw#n  shutter#n
screw#n#3  shutter#n#1  0.25

filter#n  screw#n
filter#n#1  screw#n#4  0.2

filter#n  box#n
filter#n#1  box#n#1  0.2

filter#n  area#n
filter#n#1  area#n#5  0.166666666666667

filter#n  cover#n
filter#n#1  cover#n#9  0.2

filter#n  cap#n
filter#n#1  cap#n#8  0.25

filter#n  bulb#n
filter#n#1  bulb#n#2  0.166666666666667

filter#n  seat#n
filter#n#1  seat#n#4  0.25

filter#n  filter#n
filter#n#1  filter#n#1  1

filter#n  lens#n
filter#n#1  lens#n#1  0.25

filter#n  shutter#n
filter#n#1  shutter#n#1  0.2

filter#n  screw#n
filter#n#1  screw#n#4  0.2

filter#n  box#n
filter#n#1  box#n#1  0.2

filter#n  area#n
filter#n#1  area#n#5  0.166666666666667

filter#n  cover#n
filter#n#1  cover#n#9  0.2

filter#n  cap#n
filter#n#1  cap#n#8  0.25

filter#n  bulb#n
filter#n#1  bulb#n#2  0.166666666666667

filter#n  seat#n
filter#n#1  seat#n#4  0.25

filter#n  filter#n
filter#n#2  filter#n#2  1

filter#n  lens#n
filter#n#1  lens#n#1  0.25

filter#n  shutter#n
filter#n#1  shutter#n#1  0.2

filter#n  screw#n
filter#n#1  screw#n#4  0.2

filter#n  box#n
filter#n#1  box#n#1  0.2

filter#n  area#n
filter#n#1  area#n#5  0.166666666666667

filter#n  cover#n
filter#n#1  cover#n#9  0.2

filter#n  cap#n
filter#n#1  cap#n#8  0.25

filter#n  bulb#n
filter#n#1  bulb#n#2  0.166666666666667

filter#n  seat#n
filter#n#1  seat#n#4  0.25

filter#n  filter#n
filter#n#1  filter#n#1  1

filter#n  lens#n
filter#n#1  lens#n#1  0.25

filter#n  shutter#n
filter#n#1  shutter#n#1  0.2

screw#n  screw#n
screw#n#1  screw#n#1  1

screw#n  box#n
screw#n#4  box#n#1  0.142857142857143

screw#n  area#n
screw#n#4  area#n#5  0.125

screw#n  cover#n
screw#n#4  cover#n#9  0.142857142857143

screw#n  cap#n
screw#n#4  cap#n#3  0.166666666666667

screw#n  bulb#n
screw#n#4  bulb#n#2  0.125

screw#n  seat#n
screw#n#4  seat#n#4  0.166666666666667

screw#n  filter#n
screw#n#4  filter#n#1  0.2

screw#n  lens#n
screw#n#4  lens#n#1  0.166666666666667

screw#n  shutter#n
screw#n#3  shutter#n#1  0.25

holder#n  screw#n
holder#n#1  screw#n#4  0.166666666666667

holder#n  box#n
holder#n#1  box#n#1  0.166666666666667

holder#n  area#n
holder#n#1  area#n#5  0.142857142857143

holder#n  cover#n
holder#n#1  cover#n#9  0.166666666666667

holder#n  cap#n
holder#n#1  cap#n#8  0.2

holder#n  bulb#n
holder#n#1  bulb#n#2  0.142857142857143

holder#n  seat#n
holder#n#1  seat#n#4  0.2

holder#n  filter#n
holder#n#1  filter#n#1  0.25

holder#n  lens#n
holder#n#1  lens#n#1  0.2

holder#n  shutter#n
holder#n#1  shutter#n#1  0.166666666666667

seat#n  screw#n
seat#n#4  screw#n#4  0.166666666666667

seat#n  box#n
seat#n#3  box#n#8  0.5

seat#n  area#n
seat#n#2  area#n#3  0.333333333333333

seat#n  cover#n
seat#n#9  cover#n#1  0.25

seat#n  cap#n
seat#n#4  cap#n#8  0.2

seat#n  bulb#n
seat#n#8  bulb#n#3  0.333333333333333

seat#n  seat#n
seat#n#8  seat#n#8  1

seat#n  filter#n
seat#n#4  filter#n#1  0.25

seat#n  lens#n
seat#n#2  lens#n#4  0.25

seat#n  shutter#n
seat#n#9  shutter#n#2  0.166666666666667

seat#n  screw#n
seat#n#4  screw#n#4  0.166666666666667

seat#n  box#n
seat#n#3  box#n#8  0.5

seat#n  area#n
seat#n#2  area#n#3  0.333333333333333

seat#n  cover#n
seat#n#9  cover#n#2  0.25

seat#n  cap#n
seat#n#6  cap#n#9  0.2

seat#n  bulb#n
seat#n#8  bulb#n#3  0.333333333333333

seat#n  seat#n
seat#n#7  seat#n#7  1

seat#n  filter#n
seat#n#4  filter#n#1  0.25

seat#n  lens#n
seat#n#2  lens#n#4  0.25

seat#n  shutter#n
seat#n#4  shutter#n#1  0.166666666666667

battery#n  screw#n
battery#n#2  screw#n#4  0.166666666666667

battery#n  box#n
battery#n#2  box#n#1  0.166666666666667

battery#n  area#n
battery#n#2  area#n#5  0.142857142857143

battery#n  cover#n
battery#n#6  cover#n#7  0.333333333333333

battery#n  cap#n
battery#n#2  cap#n#8  0.2

battery#n  bulb#n
battery#n#2  bulb#n#2  0.142857142857143

battery#n  seat#n
battery#n#2  seat#n#4  0.2

battery#n  filter#n
battery#n#2  filter#n#2  0.333333333333333

battery#n  lens#n
battery#n#2  lens#n#1  0.2

battery#n  shutter#n
battery#n#2  shutter#n#1  0.166666666666667

screw#n  screw#n
screw#n#3  screw#n#3  1

screw#n  box#n
screw#n#4  box#n#1  0.142857142857143

screw#n  area#n
screw#n#4  area#n#5  0.125

screw#n  cover#n
screw#n#4  cover#n#9  0.142857142857143

screw#n  cap#n
screw#n#4  cap#n#8  0.166666666666667

screw#n  bulb#n
screw#n#4  bulb#n#2  0.125

screw#n  seat#n
screw#n#4  seat#n#4  0.166666666666667

screw#n  filter#n
screw#n#4  filter#n#1  0.2

screw#n  lens#n
screw#n#4  lens#n#1  0.166666666666667

screw#n  shutter#n
screw#n#3  shutter#n#1  0.25

filter#n  screw#n
filter#n#1  screw#n#4  0.2

filter#n  box#n
filter#n#1  box#n#1  0.2

filter#n  area#n
filter#n#1  area#n#5  0.166666666666667

filter#n  cover#n
filter#n#1  cover#n#9  0.2

filter#n  cap#n
filter#n#1  cap#n#3  0.25

filter#n  bulb#n
filter#n#1  bulb#n#2  0.166666666666667

filter#n  seat#n
filter#n#1  seat#n#4  0.25

filter#n  filter#n
filter#n#2  filter#n#2  1

filter#n  lens#n
filter#n#1  lens#n#1  0.25

filter#n  shutter#n
filter#n#1  shutter#n#1  0.2

filter#n  screw#n
filter#n#1  screw#n#4  0.2

filter#n  box#n
filter#n#1  box#n#1  0.2

filter#n  area#n
filter#n#1  area#n#5  0.166666666666667

filter#n  cover#n
filter#n#1  cover#n#9  0.2

filter#n  cap#n
filter#n#1  cap#n#8  0.25

filter#n  bulb#n
filter#n#1  bulb#n#2  0.166666666666667

filter#n  seat#n
filter#n#1  seat#n#4  0.25

filter#n  filter#n
filter#n#2  filter#n#2  1

filter#n  lens#n
filter#n#1  lens#n#1  0.25

filter#n  shutter#n
filter#n#1  shutter#n#1  0.2

filter#n  screw#n
filter#n#1  screw#n#4  0.2

filter#n  box#n
filter#n#1  box#n#1  0.2

filter#n  area#n
filter#n#1  area#n#5  0.166666666666667

filter#n  cover#n
filter#n#1  cover#n#9  0.2

filter#n  cap#n
filter#n#1  cap#n#3  0.25

filter#n  bulb#n
filter#n#1  bulb#n#2  0.166666666666667

filter#n  seat#n
filter#n#1  seat#n#4  0.25

filter#n  filter#n
filter#n#1  filter#n#1  1

filter#n  lens#n
filter#n#1  lens#n#1  0.25

filter#n  shutter#n
filter#n#1  shutter#n#1  0.2

screw#n  screw#n
screw#n#1  screw#n#1  1

screw#n  box#n
screw#n#4  box#n#1  0.142857142857143

screw#n  area#n
screw#n#4  area#n#5  0.125

screw#n  cover#n
screw#n#4  cover#n#9  0.142857142857143

screw#n  cap#n
screw#n#4  cap#n#3  0.166666666666667

screw#n  bulb#n
screw#n#4  bulb#n#2  0.125

screw#n  seat#n
screw#n#4  seat#n#4  0.166666666666667

screw#n  filter#n
screw#n#4  filter#n#1  0.2

screw#n  lens#n
screw#n#4  lens#n#1  0.166666666666667

screw#n  shutter#n
screw#n#3  shutter#n#1  0.25

battery#n  screw#n
battery#n#2  screw#n#4  0.166666666666667

battery#n  box#n
battery#n#2  box#n#1  0.166666666666667

battery#n  area#n
battery#n#5  area#n#5  0.142857142857143

battery#n  cover#n
battery#n#6  cover#n#7  0.333333333333333

battery#n  cap#n
battery#n#2  cap#n#3  0.2

battery#n  bulb#n
battery#n#2  bulb#n#2  0.142857142857143

battery#n  seat#n
battery#n#2  seat#n#4  0.2

battery#n  filter#n
battery#n#2  filter#n#2  0.333333333333333

battery#n  lens#n
battery#n#2  lens#n#1  0.2

battery#n  shutter#n
battery#n#2  shutter#n#1  0.166666666666667

seat#n  screw#n
seat#n#4  screw#n#4  0.166666666666667

seat#n  box#n
seat#n#3  box#n#8  0.5

seat#n  area#n
seat#n#1  area#n#1  0.333333333333333

seat#n  cover#n
seat#n#9  cover#n#2  0.25

seat#n  cap#n
seat#n#6  cap#n#9  0.2

seat#n  bulb#n
seat#n#8  bulb#n#3  0.333333333333333

seat#n  seat#n
seat#n#7  seat#n#7  1

seat#n  filter#n
seat#n#4  filter#n#1  0.25

seat#n  lens#n
seat#n#2  lens#n#4  0.25

seat#n  shutter#n
seat#n#4  shutter#n#1  0.166666666666667

screw#n  screw#n
screw#n#4  screw#n#4  1

screw#n  box#n
screw#n#4  box#n#1  0.142857142857143

screw#n  area#n
screw#n#4  area#n#5  0.125

screw#n  cover#n
screw#n#4  cover#n#9  0.142857142857143

screw#n  cap#n
screw#n#4  cap#n#3  0.166666666666667

screw#n  bulb#n
screw#n#4  bulb#n#2  0.125

screw#n  seat#n
screw#n#4  seat#n#4  0.166666666666667

screw#n  filter#n
screw#n#4  filter#n#1  0.2

screw#n  lens#n
screw#n#4  lens#n#1  0.166666666666667

screw#n  shutter#n
screw#n#3  shutter#n#1  0.25

cover#n  screw#n
cover#n#9  screw#n#4  0.142857142857143

cover#n  box#n
cover#n#6  box#n#1  0.166666666666667

cover#n  area#n
cover#n#1  area#n#5  0.2

cover#n  cover#n
cover#n#8  cover#n#8  1

cover#n  cap#n
cover#n#5  cap#n#6  0.5

cover#n  bulb#n
cover#n#5  bulb#n#1  0.166666666666667

cover#n  seat#n
cover#n#1  seat#n#9  0.25

cover#n  filter#n
cover#n#9  filter#n#1  0.2

cover#n  lens#n
cover#n#9  lens#n#1  0.166666666666667

cover#n  shutter#n
cover#n#4  shutter#n#2  0.25

seat#n  screw#n
seat#n#4  screw#n#4  0.166666666666667

seat#n  box#n
seat#n#3  box#n#8  0.5

seat#n  area#n
seat#n#1  area#n#1  0.333333333333333

seat#n  cover#n
seat#n#9  cover#n#6  0.25

seat#n  cap#n
seat#n#9  cap#n#4  0.2

seat#n  bulb#n
seat#n#8  bulb#n#3  0.333333333333333

seat#n  seat#n
seat#n#3  seat#n#3  1

seat#n  filter#n
seat#n#4  filter#n#1  0.25

seat#n  lens#n
seat#n#2  lens#n#4  0.25

seat#n  shutter#n
seat#n#9  shutter#n#2  0.166666666666667

battery#n  screw#n
battery#n#2  screw#n#4  0.166666666666667

battery#n  box#n
battery#n#2  box#n#1  0.166666666666667

battery#n  area#n
battery#n#2  area#n#5  0.142857142857143

battery#n  cover#n
battery#n#6  cover#n#7  0.333333333333333

battery#n  cap#n
battery#n#2  cap#n#8  0.2

battery#n  bulb#n
battery#n#2  bulb#n#2  0.142857142857143

battery#n  seat#n
battery#n#2  seat#n#4  0.2

battery#n  filter#n
battery#n#2  filter#n#2  0.333333333333333

battery#n  lens#n
battery#n#2  lens#n#1  0.2

battery#n  shutter#n
battery#n#2  shutter#n#1  0.166666666666667

screw#n  screw#n
screw#n#3  screw#n#3  1

screw#n  box#n
screw#n#4  box#n#1  0.142857142857143

screw#n  area#n
screw#n#4  area#n#5  0.125

screw#n  cover#n
screw#n#4  cover#n#9  0.142857142857143

screw#n  cap#n
screw#n#4  cap#n#8  0.166666666666667

screw#n  bulb#n
screw#n#4  bulb#n#2  0.125

screw#n  seat#n
screw#n#4  seat#n#4  0.166666666666667

screw#n  filter#n
screw#n#4  filter#n#1  0.2

screw#n  lens#n
screw#n#4  lens#n#1  0.166666666666667

screw#n  shutter#n
screw#n#3  shutter#n#1  0.25

bulb#n  screw#n
bulb#n#2  screw#n#4  0.125

bulb#n  box#n
bulb#n#3  box#n#7  0.125

bulb#n  area#n
bulb#n#6  area#n#3  0.25

bulb#n  cover#n
bulb#n#3  cover#n#5  0.166666666666667

bulb#n  cap#n
bulb#n#1  cap#n#5  0.2

bulb#n  bulb#n
bulb#n#3  bulb#n#3  1

bulb#n  seat#n
bulb#n#3  seat#n#8  0.333333333333333

bulb#n  filter#n
bulb#n#2  filter#n#1  0.166666666666667

bulb#n  lens#n
bulb#n#6  lens#n#4  0.2

bulb#n  shutter#n
bulb#n#2  shutter#n#1  0.125

screw#n  screw#n
screw#n#5  screw#n#5  1

screw#n  box#n
screw#n#4  box#n#1  0.142857142857143

screw#n  area#n
screw#n#4  area#n#5  0.125

screw#n  cover#n
screw#n#4  cover#n#9  0.142857142857143

screw#n  cap#n
screw#n#4  cap#n#3  0.166666666666667

screw#n  bulb#n
screw#n#4  bulb#n#2  0.125

screw#n  seat#n
screw#n#4  seat#n#4  0.166666666666667

screw#n  filter#n
screw#n#4  filter#n#1  0.2

screw#n  lens#n
screw#n#4  lens#n#1  0.166666666666667

screw#n  shutter#n
screw#n#3  shutter#n#1  0.25

cover#n  screw#n
cover#n#9  screw#n#4  0.142857142857143

cover#n  box#n
cover#n#1  box#n#1  0.166666666666667

cover#n  area#n
cover#n#6  area#n#5  0.2

cover#n  cover#n
cover#n#8  cover#n#8  1

cover#n  cap#n
cover#n#5  cap#n#6  0.5

cover#n  bulb#n
cover#n#5  bulb#n#3  0.166666666666667

cover#n  seat#n
cover#n#2  seat#n#9  0.25

cover#n  filter#n
cover#n#9  filter#n#1  0.2

cover#n  lens#n
cover#n#9  lens#n#1  0.166666666666667

cover#n  shutter#n
cover#n#4  shutter#n#2  0.25

screw#n  screw#n
screw#n#1  screw#n#1  1

screw#n  box#n
screw#n#4  box#n#1  0.142857142857143

screw#n  area#n
screw#n#4  area#n#5  0.125

screw#n  cover#n
screw#n#4  cover#n#9  0.142857142857143

screw#n  cap#n
screw#n#4  cap#n#3  0.166666666666667

screw#n  bulb#n
screw#n#4  bulb#n#2  0.125

screw#n  seat#n
screw#n#4  seat#n#4  0.166666666666667

screw#n  filter#n
screw#n#4  filter#n#1  0.2

screw#n  lens#n
screw#n#4  lens#n#1  0.166666666666667

screw#n  shutter#n
screw#n#3  shutter#n#1  0.25

screw#n  screw#n
screw#n#3  screw#n#3  1

screw#n  box#n
screw#n#4  box#n#1  0.142857142857143

screw#n  area#n
screw#n#4  area#n#5  0.125

screw#n  cover#n
screw#n#4  cover#n#9  0.142857142857143

screw#n  cap#n
screw#n#4  cap#n#3  0.166666666666667

screw#n  bulb#n
screw#n#4  bulb#n#2  0.125

screw#n  seat#n
screw#n#4  seat#n#4  0.166666666666667

screw#n  filter#n
screw#n#4  filter#n#1  0.2

screw#n  lens#n
screw#n#4  lens#n#1  0.166666666666667

screw#n  shutter#n
screw#n#3  shutter#n#1  0.25

filter#n  screw#n
filter#n#1  screw#n#4  0.2

filter#n  box#n
filter#n#1  box#n#1  0.2

filter#n  area#n
filter#n#1  area#n#5  0.166666666666667

filter#n  cover#n
filter#n#1  cover#n#9  0.2

filter#n  cap#n
filter#n#1  cap#n#3  0.25

filter#n  bulb#n
filter#n#1  bulb#n#2  0.166666666666667

filter#n  seat#n
filter#n#1  seat#n#4  0.25

filter#n  filter#n
filter#n#1  filter#n#1  1

filter#n  lens#n
filter#n#1  lens#n#1  0.25

filter#n  shutter#n
filter#n#1  shutter#n#1  0.2

filter#n  screw#n
filter#n#1  screw#n#4  0.2

filter#n  box#n
filter#n#1  box#n#1  0.2

filter#n  area#n
filter#n#1  area#n#5  0.166666666666667

filter#n  cover#n
filter#n#1  cover#n#9  0.2

filter#n  cap#n
filter#n#1  cap#n#3  0.25

filter#n  bulb#n
filter#n#1  bulb#n#2  0.166666666666667

filter#n  seat#n
filter#n#1  seat#n#4  0.25

filter#n  filter#n
filter#n#2  filter#n#2  1

filter#n  lens#n
filter#n#1  lens#n#1  0.25

filter#n  shutter#n
filter#n#1  shutter#n#1  0.2

filter#n  screw#n
filter#n#1  screw#n#4  0.2

filter#n  box#n
filter#n#1  box#n#1  0.2

filter#n  area#n
filter#n#1  area#n#5  0.166666666666667

filter#n  cover#n
filter#n#1  cover#n#9  0.2

filter#n  cap#n
filter#n#1  cap#n#3  0.25

filter#n  bulb#n
filter#n#1  bulb#n#2  0.166666666666667

filter#n  seat#n
filter#n#1  seat#n#4  0.25

filter#n  filter#n
filter#n#2  filter#n#2  1

filter#n  lens#n
filter#n#1  lens#n#1  0.25

filter#n  shutter#n
filter#n#1  shutter#n#1  0.2

screw#n  screw#n
screw#n#1  screw#n#1  1

screw#n  box#n
screw#n#4  box#n#1  0.142857142857143

screw#n  area#n
screw#n#4  area#n#5  0.125

screw#n  cover#n
screw#n#4  cover#n#9  0.142857142857143

screw#n  cap#n
screw#n#4  cap#n#3  0.166666666666667

screw#n  bulb#n
screw#n#4  bulb#n#2  0.125

screw#n  seat#n
screw#n#4  seat#n#4  0.166666666666667

screw#n  filter#n
screw#n#4  filter#n#1  0.2

screw#n  lens#n
screw#n#4  lens#n#1  0.166666666666667

screw#n  shutter#n
screw#n#3  shutter#n#1  0.25

battery#n  screw#n
battery#n#2  screw#n#4  0.166666666666667

battery#n  box#n
battery#n#2  box#n#1  0.166666666666667

battery#n  area#n
battery#n#2  area#n#5  0.142857142857143

battery#n  cover#n
battery#n#6  cover#n#7  0.333333333333333

battery#n  cap#n
battery#n#2  cap#n#3  0.2

battery#n  bulb#n
battery#n#2  bulb#n#2  0.142857142857143

battery#n  seat#n
battery#n#2  seat#n#4  0.2

battery#n  filter#n
battery#n#2  filter#n#2  0.333333333333333

battery#n  lens#n
battery#n#2  lens#n#1  0.2

battery#n  shutter#n
battery#n#2  shutter#n#1  0.166666666666667

seat#n  screw#n
seat#n#4  screw#n#4  0.166666666666667

seat#n  box#n
seat#n#3  box#n#8  0.5

seat#n  area#n
seat#n#1  area#n#1  0.333333333333333

seat#n  cover#n
seat#n#9  cover#n#6  0.25

seat#n  cap#n
seat#n#9  cap#n#4  0.2

seat#n  bulb#n
seat#n#8  bulb#n#3  0.333333333333333

seat#n  seat#n
seat#n#7  seat#n#7  1

seat#n  filter#n
seat#n#4  filter#n#1  0.25

seat#n  lens#n
seat#n#2  lens#n#4  0.25

seat#n  shutter#n
seat#n#9  shutter#n#2  0.166666666666667

cap#n  screw#n
cap#n#3  screw#n#4  0.166666666666667

cap#n  box#n
cap#n#3  box#n#1  0.166666666666667

cap#n  area#n
cap#n#4  area#n#5  0.166666666666667

cap#n  cover#n
cap#n#6  cover#n#5  0.5

cap#n  cap#n
cap#n#3  cap#n#3  1

cap#n  bulb#n
cap#n#5  bulb#n#1  0.2

cap#n  seat#n
cap#n#3  seat#n#4  0.2

cap#n  filter#n
cap#n#8  filter#n#1  0.25

cap#n  lens#n
cap#n#3  lens#n#1  0.2

cap#n  shutter#n
cap#n#4  shutter#n#2  0.25

screw#n  screw#n
screw#n#5  screw#n#5  1

screw#n  box#n
screw#n#4  box#n#1  0.142857142857143

screw#n  area#n
screw#n#4  area#n#5  0.125

screw#n  cover#n
screw#n#4  cover#n#9  0.142857142857143

screw#n  cap#n
screw#n#4  cap#n#8  0.166666666666667

screw#n  bulb#n
screw#n#4  bulb#n#2  0.125

screw#n  seat#n
screw#n#4  seat#n#4  0.166666666666667

screw#n  filter#n
screw#n#4  filter#n#1  0.2

screw#n  lens#n
screw#n#4  lens#n#1  0.166666666666667

screw#n  shutter#n
screw#n#3  shutter#n#1  0.25

cover#n  screw#n
cover#n#9  screw#n#4  0.142857142857143

cover#n  box#n
cover#n#6  box#n#1  0.166666666666667

cover#n  area#n
cover#n#1  area#n#5  0.2

cover#n  cover#n
cover#n#9  cover#n#9  1

cover#n  cap#n
cover#n#5  cap#n#6  0.5

cover#n  bulb#n
cover#n#5  bulb#n#3  0.166666666666667

cover#n  seat#n
cover#n#2  seat#n#9  0.25

cover#n  filter#n
cover#n#9  filter#n#1  0.2

cover#n  lens#n
cover#n#9  lens#n#1  0.166666666666667

cover#n  shutter#n
cover#n#4  shutter#n#2  0.25

shutter#n  screw#n
shutter#n#1  screw#n#3  0.25

shutter#n  box#n
shutter#n#1  box#n#1  0.142857142857143

shutter#n  area#n
shutter#n#2  area#n#5  0.142857142857143

shutter#n  cover#n
shutter#n#2  cover#n#4  0.25

shutter#n  cap#n
shutter#n#2  cap#n#4  0.25

shutter#n  bulb#n
shutter#n#1  bulb#n#2  0.125

shutter#n  seat#n
shutter#n#1  seat#n#4  0.166666666666667

shutter#n  filter#n
shutter#n#1  filter#n#1  0.2

shutter#n  lens#n
shutter#n#1  lens#n#1  0.166666666666667

shutter#n  shutter#n
shutter#n#1  shutter#n#1  1

lense#n  screw#n
lense#n#1  screw#n#4  0.166666666666667

lense#n  box#n
lense#n#1  box#n#1  0.166666666666667

lense#n  area#n
lense#n#1  area#n#5  0.142857142857143

lense#n  cover#n
lense#n#1  cover#n#9  0.166666666666667

lense#n  cap#n
lense#n#1  cap#n#8  0.2

lense#n  bulb#n
lense#n#1  bulb#n#2  0.142857142857143

lense#n  seat#n
lense#n#1  seat#n#4  0.2

lense#n  filter#n
lense#n#1  filter#n#1  0.25

lense#n  lens#n
lense#n#1  lens#n#1  1

lense#n  shutter#n
lense#n#1  shutter#n#1  0.166666666666667

lense#n  screw#n
lense#n#1  screw#n#4  0.166666666666667

lense#n  box#n
lense#n#1  box#n#1  0.166666666666667

lense#n  area#n
lense#n#1  area#n#5  0.142857142857143

lense#n  cover#n
lense#n#1  cover#n#9  0.166666666666667

lense#n  cap#n
lense#n#1  cap#n#3  0.2

lense#n  bulb#n
lense#n#1  bulb#n#2  0.142857142857143

lense#n  seat#n
lense#n#1  seat#n#4  0.2

lense#n  filter#n
lense#n#1  filter#n#1  0.25

lense#n  lens#n
lense#n#1  lens#n#1  1

lense#n  shutter#n
lense#n#1  shutter#n#1  0.166666666666667

shutter#n  screw#n
shutter#n#1  screw#n#3  0.25

shutter#n  box#n
shutter#n#1  box#n#1  0.142857142857143

shutter#n  area#n
shutter#n#2  area#n#5  0.142857142857143

shutter#n  cover#n
shutter#n#2  cover#n#4  0.25

shutter#n  cap#n
shutter#n#2  cap#n#4  0.25

shutter#n  bulb#n
shutter#n#1  bulb#n#2  0.125

shutter#n  seat#n
shutter#n#1  seat#n#4  0.166666666666667

shutter#n  filter#n
shutter#n#1  filter#n#1  0.2

shutter#n  lens#n
shutter#n#1  lens#n#1  0.166666666666667

shutter#n  shutter#n
shutter#n#2  shutter#n#2  1

screw#n  screw#n
screw#n#1  screw#n#1  1

screw#n  box#n
screw#n#4  box#n#1  0.142857142857143

screw#n  area#n
screw#n#4  area#n#5  0.125

screw#n  cover#n
screw#n#4  cover#n#9  0.142857142857143

screw#n  cap#n
screw#n#4  cap#n#8  0.166666666666667

screw#n  bulb#n
screw#n#4  bulb#n#2  0.125

screw#n  seat#n
screw#n#4  seat#n#4  0.166666666666667

screw#n  filter#n
screw#n#4  filter#n#1  0.2

screw#n  lens#n
screw#n#4  lens#n#1  0.166666666666667

screw#n  shutter#n
screw#n#3  shutter#n#1  0.25

cover#n  screw#n
cover#n#9  screw#n#4  0.142857142857143

cover#n  box#n
cover#n#1  box#n#1  0.166666666666667

cover#n  area#n
cover#n#6  area#n#5  0.2

cover#n  cover#n
cover#n#5  cover#n#5  1

cover#n  cap#n
cover#n#6  cap#n#2  0.5

cover#n  bulb#n
cover#n#5  bulb#n#1  0.166666666666667

cover#n  seat#n
cover#n#2  seat#n#9  0.25

cover#n  filter#n
cover#n#9  filter#n#1  0.2

cover#n  lens#n
cover#n#9  lens#n#1  0.166666666666667

cover#n  shutter#n
cover#n#4  shutter#n#2  0.25

lens#n  screw#n
lens#n#1  screw#n#4  0.166666666666667

lens#n  box#n
lens#n#5  box#n#1  0.166666666666667

lens#n  area#n
lens#n#4  area#n#3  0.25

lens#n  cover#n
lens#n#1  cover#n#9  0.166666666666667

lens#n  cap#n
lens#n#1  cap#n#3  0.2

lens#n  bulb#n
lens#n#4  bulb#n#6  0.2

lens#n  seat#n
lens#n#4  seat#n#2  0.25

lens#n  filter#n
lens#n#1  filter#n#1  0.25

lens#n  lens#n
lens#n#4  lens#n#4  1

lens#n  shutter#n
lens#n#1  shutter#n#1  0.166666666666667

cover#n  screw#n
cover#n#9  screw#n#4  0.142857142857143

cover#n  box#n
cover#n#1  box#n#1  0.166666666666667

cover#n  area#n
cover#n#6  area#n#5  0.2

cover#n  cover#n
cover#n#1  cover#n#1  1

cover#n  cap#n
cover#n#6  cap#n#2  0.5

cover#n  bulb#n
cover#n#5  bulb#n#3  0.166666666666667

cover#n  seat#n
cover#n#2  seat#n#9  0.25

cover#n  filter#n
cover#n#9  filter#n#1  0.2

cover#n  lens#n
cover#n#9  lens#n#1  0.166666666666667

cover#n  shutter#n
cover#n#4  shutter#n#2  0.25

shutter#n  screw#n
shutter#n#1  screw#n#3  0.25

shutter#n  box#n
shutter#n#1  box#n#1  0.142857142857143

shutter#n  area#n
shutter#n#2  area#n#5  0.142857142857143

shutter#n  cover#n
shutter#n#2  cover#n#4  0.25

shutter#n  cap#n
shutter#n#2  cap#n#4  0.25

shutter#n  bulb#n
shutter#n#1  bulb#n#2  0.125

shutter#n  seat#n
shutter#n#2  seat#n#9  0.166666666666667

shutter#n  filter#n
shutter#n#1  filter#n#1  0.2

shutter#n  lens#n
shutter#n#1  lens#n#1  0.166666666666667

shutter#n  shutter#n
shutter#n#2  shutter#n#2  1

screw#n  screw#n
screw#n#4  screw#n#4  1

screw#n  box#n
screw#n#4  box#n#1  0.142857142857143

screw#n  area#n
screw#n#4  area#n#5  0.125

screw#n  cover#n
screw#n#4  cover#n#9  0.142857142857143

screw#n  cap#n
screw#n#4  cap#n#3  0.166666666666667

screw#n  bulb#n
screw#n#4  bulb#n#2  0.125

screw#n  seat#n
screw#n#4  seat#n#4  0.166666666666667

screw#n  filter#n
screw#n#4  filter#n#1  0.2

screw#n  lens#n
screw#n#4  lens#n#1  0.166666666666667

screw#n  shutter#n
screw#n#3  shutter#n#1  0.25

cover#n  screw#n
cover#n#9  screw#n#4  0.142857142857143

cover#n  box#n
cover#n#6  box#n#7  0.166666666666667

cover#n  area#n
cover#n#6  area#n#5  0.2

cover#n  cover#n
cover#n#8  cover#n#8  1

cover#n  cap#n
cover#n#6  cap#n#2  0.5

cover#n  bulb#n
cover#n#5  bulb#n#1  0.166666666666667

cover#n  seat#n
cover#n#6  seat#n#9  0.25

cover#n  filter#n
cover#n#9  filter#n#1  0.2

cover#n  lens#n
cover#n#9  lens#n#1  0.166666666666667

cover#n  shutter#n
cover#n#4  shutter#n#2  0.25

screw#n  screw#n
screw#n#1  screw#n#1  1

screw#n  box#n
screw#n#4  box#n#1  0.142857142857143

screw#n  area#n
screw#n#4  area#n#5  0.125

screw#n  cover#n
screw#n#4  cover#n#9  0.142857142857143

screw#n  cap#n
screw#n#4  cap#n#3  0.166666666666667

screw#n  bulb#n
screw#n#4  bulb#n#2  0.125

screw#n  seat#n
screw#n#4  seat#n#4  0.166666666666667

screw#n  filter#n
screw#n#4  filter#n#1  0.2

screw#n  lens#n
screw#n#4  lens#n#1  0.166666666666667

screw#n  shutter#n
screw#n#3  shutter#n#1  0.25

cap#n  screw#n
cap#n#3  screw#n#4  0.166666666666667

cap#n  box#n
cap#n#3  box#n#1  0.166666666666667

cap#n  area#n
cap#n#2  area#n#5  0.166666666666667

cap#n  cover#n
cap#n#2  cover#n#6  0.5

cap#n  cap#n
cap#n#1  cap#n#1  1

cap#n  bulb#n
cap#n#5  bulb#n#1  0.2

cap#n  seat#n
cap#n#3  seat#n#4  0.2

cap#n  filter#n
cap#n#8  filter#n#1  0.25

cap#n  lens#n
cap#n#3  lens#n#1  0.2

cap#n  shutter#n
cap#n#4  shutter#n#2  0.25

pressurization#n  screw#n

pressurization#n  box#n

pressurization#n  area#n

pressurization#n  cover#n

pressurization#n  cap#n

pressurization#n  bulb#n

pressurization#n  seat#n

pressurization#n  filter#n

pressurization#n  lens#n

pressurization#n  shutter#n

upstream#n  screw#n

upstream#n  box#n

upstream#n  area#n

upstream#n  cover#n

upstream#n  cap#n

upstream#n  bulb#n

upstream#n  seat#n

upstream#n  filter#n

upstream#n  lens#n

upstream#n  shutter#n

flow#n  screw#n
flow#n#7  screw#n#5  0.166666666666667

flow#n  box#n
flow#n#3  box#n#10  0.142857142857143

flow#n  area#n
flow#n#5  area#n#4  0.166666666666667

flow#n  cover#n
flow#n#4  cover#n#5  0.125

flow#n  cap#n
flow#n#4  cap#n#9  0.111111111111111

flow#n  bulb#n
flow#n#4  bulb#n#3  0.142857142857143

flow#n  seat#n
flow#n#4  seat#n#8  0.142857142857143

flow#n  filter#n
flow#n#4  filter#n#1  0.1

flow#n  lens#n
flow#n#3  lens#n#3  0.125

flow#n  shutter#n
flow#n#4  shutter#n#2  0.0909090909090909

shutter#n  screw#n
shutter#n#1  screw#n#3  0.25

shutter#n  box#n
shutter#n#1  box#n#1  0.142857142857143

shutter#n  area#n
shutter#n#2  area#n#5  0.142857142857143

shutter#n  cover#n
shutter#n#2  cover#n#4  0.25

shutter#n  cap#n
shutter#n#2  cap#n#4  0.25

shutter#n  bulb#n
shutter#n#1  bulb#n#2  0.125

shutter#n  seat#n
shutter#n#2  seat#n#9  0.166666666666667

shutter#n  filter#n
shutter#n#1  filter#n#1  0.2

shutter#n  lens#n
shutter#n#1  lens#n#1  0.166666666666667

shutter#n  shutter#n
shutter#n#1  shutter#n#1  1

air#n  screw#n
air#n#1  screw#n#5  0.0909090909090909

air#n  box#n
air#n#3  box#n#3  0.125

air#n  area#n
air#n#2  area#n#1  0.2

air#n  cover#n
air#n#8  cover#n#10  0.142857142857143

air#n  cap#n
air#n#5  cap#n#9  0.25

air#n  bulb#n
air#n#3  bulb#n#4  0.166666666666667

air#n  seat#n
air#n#2  seat#n#6  0.25

air#n  filter#n
air#n#2  filter#n#1  0.111111111111111

air#n  lens#n
air#n#8  lens#n#3  0.2

air#n  shutter#n
air#n#5  shutter#n#2  0.1

laser#n  screw#n
laser#n#1  screw#n#4  0.166666666666667

laser#n  box#n
laser#n#1  box#n#1  0.166666666666667

laser#n  area#n
laser#n#1  area#n#5  0.142857142857143

laser#n  cover#n
laser#n#1  cover#n#9  0.166666666666667

laser#n  cap#n
laser#n#1  cap#n#8  0.2

laser#n  bulb#n
laser#n#1  bulb#n#2  0.142857142857143

laser#n  seat#n
laser#n#1  seat#n#4  0.2

laser#n  filter#n
laser#n#1  filter#n#1  0.25

laser#n  lens#n
laser#n#1  lens#n#1  0.333333333333333

laser#n  shutter#n
laser#n#1  shutter#n#1  0.166666666666667

connector#n  screw#n
connector#n#1  screw#n#4  0.166666666666667

connector#n  box#n
connector#n#1  box#n#1  0.25

connector#n  area#n
connector#n#1  area#n#5  0.2

connector#n  cover#n
connector#n#1  cover#n#6  0.2

connector#n  cap#n
connector#n#1  cap#n#3  0.2

connector#n  bulb#n
connector#n#1  bulb#n#3  0.142857142857143

connector#n  seat#n
connector#n#1  seat#n#3  0.2

connector#n  filter#n
connector#n#1  filter#n#1  0.25

connector#n  lens#n
connector#n#1  lens#n#5  0.2

connector#n  shutter#n
connector#n#1  shutter#n#1  0.166666666666667

movement#n  screw#n
movement#n#10  screw#n#3  0.166666666666667

movement#n  box#n
movement#n#1  box#n#10  0.25

movement#n  area#n
movement#n#9  area#n#2  0.142857142857143

movement#n  cover#n
movement#n#10  cover#n#9  0.142857142857143

movement#n  cap#n
movement#n#10  cap#n#8  0.166666666666667

movement#n  bulb#n
movement#n#4  bulb#n#4  0.125

movement#n  seat#n
movement#n#10  seat#n#4  0.166666666666667

movement#n  filter#n
movement#n#10  filter#n#1  0.2

movement#n  lens#n
movement#n#10  lens#n#1  0.166666666666667

movement#n  shutter#n
movement#n#10  shutter#n#1  0.2

screw#n  screw#n
screw#n#4  screw#n#4  1

screw#n  box#n
screw#n#4  box#n#1  0.142857142857143

screw#n  area#n
screw#n#4  area#n#5  0.125

screw#n  cover#n
screw#n#4  cover#n#9  0.142857142857143

screw#n  cap#n
screw#n#4  cap#n#3  0.166666666666667

screw#n  bulb#n
screw#n#4  bulb#n#2  0.125

screw#n  seat#n
screw#n#4  seat#n#4  0.166666666666667

screw#n  filter#n
screw#n#4  filter#n#1  0.2

screw#n  lens#n
screw#n#4  lens#n#1  0.166666666666667

screw#n  shutter#n
screw#n#3  shutter#n#1  0.25

sheet#n  screw#n
sheet#n#6  screw#n#4  0.142857142857143

sheet#n  box#n
sheet#n#6  box#n#7  0.2

sheet#n  area#n
sheet#n#6  area#n#5  0.25

sheet#n  cover#n
sheet#n#6  cover#n#6  0.25

sheet#n  cap#n
sheet#n#6  cap#n#4  0.2

sheet#n  bulb#n
sheet#n#4  bulb#n#4  0.25

sheet#n  seat#n
sheet#n#6  seat#n#9  0.2

sheet#n  filter#n
sheet#n#6  filter#n#1  0.2

sheet#n  lens#n
sheet#n#6  lens#n#5  0.166666666666667

sheet#n  shutter#n
sheet#n#6  shutter#n#2  0.166666666666667

component#n  screw#n
component#n#3  screw#n#1  0.1

component#n  box#n
component#n#2  box#n#3  0.142857142857143

component#n  area#n
component#n#3  area#n#1  0.166666666666667

component#n  cover#n
component#n#3  cover#n#5  0.166666666666667

component#n  cap#n
component#n#3  cap#n#5  0.142857142857143

component#n  bulb#n
component#n#3  bulb#n#3  0.333333333333333

component#n  seat#n
component#n#3  seat#n#8  0.333333333333333

component#n  filter#n
component#n#3  filter#n#1  0.125

component#n  lens#n
component#n#3  lens#n#4  0.111111111111111

component#n  shutter#n
component#n#3  shutter#n#2  0.111111111111111

cap#n  screw#n
cap#n#8  screw#n#4  0.166666666666667

cap#n  box#n
cap#n#8  box#n#1  0.166666666666667

cap#n  area#n
cap#n#2  area#n#5  0.166666666666667

cap#n  cover#n
cap#n#2  cover#n#6  0.5

cap#n  cap#n
cap#n#7  cap#n#7  1

cap#n  bulb#n
cap#n#5  bulb#n#1  0.2

cap#n  seat#n
cap#n#8  seat#n#4  0.2

cap#n  filter#n
cap#n#3  filter#n#1  0.25

cap#n  lens#n
cap#n#3  lens#n#1  0.2

cap#n  shutter#n
cap#n#4  shutter#n#2  0.25

filter#n  screwdriver#n
filter#n#1  screwdriver#n#1  0.142857142857143

filter#n  hand#n
filter#n#1  hand#n#8  0.2

filter#n  cloth#n
filter#n#1  cloth#n#1  0.2

filter#n  filter#n
filter#n#1  filter#n#1  1

filter#n  compartment#n
filter#n#1  compartment#n#2  0.125

filter#n  box#n
filter#n#1  box#n#1  0.2

filter#n  air#n
filter#n#1  air#n#5  0.111111111111111

case#n  screwdriver#n
case#n#20  screwdriver#n#1  0.142857142857143

case#n  hand#n
case#n#11  hand#n#6  0.2

case#n  cloth#n
case#n#20  cloth#n#1  0.2

case#n  filter#n
case#n#5  filter#n#1  0.2

case#n  compartment#n
case#n#17  compartment#n#2  0.142857142857143

case#n  box#n
case#n#20  box#n#1  0.333333333333333

case#n  air#n
case#n#12  air#n#3  0.142857142857143

filter#n  screwdriver#n
filter#n#1  screwdriver#n#1  0.142857142857143

filter#n  hand#n
filter#n#1  hand#n#8  0.2

filter#n  cloth#n
filter#n#1  cloth#n#1  0.2

filter#n  filter#n
filter#n#1  filter#n#1  1

filter#n  compartment#n
filter#n#1  compartment#n#2  0.125

filter#n  box#n
filter#n#1  box#n#1  0.2

filter#n  air#n
filter#n#1  air#n#5  0.111111111111111

case#n  screwdriver#n
case#n#20  screwdriver#n#1  0.142857142857143

case#n  hand#n
case#n#11  hand#n#6  0.2

case#n  cloth#n
case#n#5  cloth#n#1  0.2

case#n  filter#n
case#n#20  filter#n#1  0.2

case#n  compartment#n
case#n#17  compartment#n#2  0.142857142857143

case#n  box#n
case#n#10  box#n#3  0.333333333333333

case#n  air#n
case#n#1  air#n#8  0.142857142857143

filter#n  screwdriver#n
filter#n#1  screwdriver#n#1  0.142857142857143

filter#n  hand#n
filter#n#1  hand#n#8  0.2

filter#n  cloth#n
filter#n#1  cloth#n#1  0.2

filter#n  filter#n
filter#n#2  filter#n#2  1

filter#n  compartment#n
filter#n#1  compartment#n#2  0.125

filter#n  box#n
filter#n#1  box#n#1  0.2

filter#n  air#n
filter#n#1  air#n#2  0.111111111111111

case#n  screwdriver#n
case#n#5  screwdriver#n#1  0.142857142857143

case#n  hand#n
case#n#11  hand#n#6  0.2

case#n  cloth#n
case#n#20  cloth#n#1  0.2

case#n  filter#n
case#n#20  filter#n#1  0.2

case#n  compartment#n
case#n#17  compartment#n#2  0.142857142857143

case#n  box#n
case#n#20  box#n#1  0.333333333333333

case#n  air#n
case#n#1  air#n#8  0.142857142857143

filter#n  screwdriver#n
filter#n#1  screwdriver#n#1  0.142857142857143

filter#n  hand#n
filter#n#1  hand#n#8  0.2

filter#n  cloth#n
filter#n#1  cloth#n#1  0.2

filter#n  filter#n
filter#n#2  filter#n#2  1

filter#n  compartment#n
filter#n#1  compartment#n#2  0.125

filter#n  box#n
filter#n#1  box#n#1  0.2

filter#n  air#n
filter#n#1  air#n#5  0.111111111111111

case#n  screwdriver#n
case#n#5  screwdriver#n#1  0.142857142857143

case#n  hand#n
case#n#11  hand#n#6  0.2

case#n  cloth#n
case#n#20  cloth#n#1  0.2

case#n  filter#n
case#n#20  filter#n#1  0.2

case#n  compartment#n
case#n#17  compartment#n#2  0.142857142857143

case#n  box#n
case#n#20  box#n#1  0.333333333333333

case#n  air#n
case#n#12  air#n#3  0.142857142857143

air#n  screwdriver#n
air#n#6  screwdriver#n#2  0.1

air#n  hand#n
air#n#5  hand#n#5  0.25

air#n  cloth#n
air#n#2  cloth#n#1  0.142857142857143

air#n  filter#n
air#n#2  filter#n#1  0.111111111111111

air#n  compartment#n
air#n#5  compartment#n#1  0.2

air#n  box#n
air#n#3  box#n#3  0.125

air#n  air#n
air#n#8  air#n#8  1

cloth#n  screwdriver#n
cloth#n#1  screwdriver#n#1  0.142857142857143

cloth#n  hand#n
cloth#n#1  hand#n#8  0.142857142857143

cloth#n  cloth#n
cloth#n#1  cloth#n#1  1

cloth#n  filter#n
cloth#n#1  filter#n#1  0.2

cloth#n  compartment#n
cloth#n#1  compartment#n#2  0.166666666666667

cloth#n  box#n
cloth#n#1  box#n#7  0.2

cloth#n  air#n
cloth#n#1  air#n#5  0.142857142857143

circuit#n  screwdriver#n
circuit#n#1  screwdriver#n#1  0.125

circuit#n  hand#n
circuit#n#5  hand#n#6  0.25

circuit#n  cloth#n
circuit#n#1  cloth#n#1  0.166666666666667

circuit#n  filter#n
circuit#n#1  filter#n#2  0.333333333333333

circuit#n  compartment#n
circuit#n#3  compartment#n#1  0.166666666666667

circuit#n  box#n
circuit#n#1  box#n#1  0.166666666666667

circuit#n  air#n
circuit#n#2  air#n#9  0.25

bit#n  screwdriver#n
bit#n#11  screwdriver#n#1  0.2

bit#n  hand#n
bit#n#6  hand#n#9  0.2

bit#n  cloth#n
bit#n#10  cloth#n#1  0.166666666666667

bit#n  filter#n
bit#n#11  filter#n#1  0.142857142857143

bit#n  compartment#n
bit#n#10  compartment#n#1  0.166666666666667

bit#n  box#n
bit#n#1  box#n#3  0.2

bit#n  air#n
bit#n#10  air#n#5  0.166666666666667

circuit#n  screwdriver#n
circuit#n#1  screwdriver#n#1  0.125

circuit#n  hand#n
circuit#n#5  hand#n#6  0.25

circuit#n  cloth#n
circuit#n#1  cloth#n#1  0.166666666666667

circuit#n  filter#n
circuit#n#1  filter#n#2  0.333333333333333

circuit#n  compartment#n
circuit#n#3  compartment#n#1  0.166666666666667

circuit#n  box#n
circuit#n#1  box#n#1  0.166666666666667

circuit#n  air#n
circuit#n#2  air#n#9  0.25

shutter#n  screwdriver#n
shutter#n#1  screwdriver#n#1  0.111111111111111

shutter#n  hand#n
shutter#n#1  hand#n#8  0.142857142857143

shutter#n  cloth#n
shutter#n#2  cloth#n#1  0.166666666666667

shutter#n  filter#n
shutter#n#1  filter#n#1  0.2

shutter#n  compartment#n
shutter#n#2  compartment#n#2  0.111111111111111

shutter#n  box#n
shutter#n#1  box#n#1  0.142857142857143

shutter#n  air#n
shutter#n#2  air#n#5  0.1

cover#n  screwdriver#n
cover#n#1  screwdriver#n#1  0.125

cover#n  hand#n
cover#n#10  hand#n#14  0.2

cover#n  cloth#n
cover#n#6  cloth#n#1  0.25

cover#n  filter#n
cover#n#9  filter#n#1  0.2

cover#n  compartment#n
cover#n#1  compartment#n#2  0.142857142857143

cover#n  box#n
cover#n#1  box#n#1  0.166666666666667

cover#n  air#n
cover#n#10  air#n#8  0.142857142857143

sheet#n  screwdriver#n
sheet#n#6  screwdriver#n#1  0.142857142857143

sheet#n  hand#n
sheet#n#1  hand#n#5  0.142857142857143

sheet#n  cloth#n
sheet#n#8  cloth#n#1  0.333333333333333

sheet#n  filter#n
sheet#n#6  filter#n#1  0.2

sheet#n  compartment#n
sheet#n#1  compartment#n#1  0.25

sheet#n  box#n
sheet#n#6  box#n#7  0.2

sheet#n  air#n
sheet#n#4  air#n#3  0.2

centre  under

centre  over
centre#n#6  over#n#1  0.166666666666667

centre  middle
centre#n#2  middle#n#1  1

centre  left
centre#n#3  left#n#1  0.25

centre  right
centre#n#3  right#n#2  0.25

centre  on

out  under

out  over
out#n#1  over#n#1  0.0833333333333333

out  middle
out#v#3  middle#v#1  0.2

out  left
out#n#1  left#n#5  0.1

out  right
out#v#3  right#v#1  0.25

out  on

centre  under

centre  over
centre#n#6  over#n#1  0.166666666666667

centre  middle
centre#n#2  middle#n#1  1

centre  left
centre#n#3  left#n#1  0.25

centre  right
centre#n#3  right#n#2  0.25

centre  on

out  under

out  over
out#n#1  over#n#1  0.0833333333333333

out  middle
out#v#3  middle#v#1  0.2

out  left
out#n#1  left#n#5  0.1

out  right
out#v#3  right#v#2  0.25

out  on

centre  under

centre  over
centre#n#6  over#n#1  0.166666666666667

centre  middle
centre#n#2  middle#n#1  1

centre  left
centre#n#3  left#n#1  0.25

centre  right
centre#n#3  right#n#2  0.25

centre  on

out  under

out  over
out#n#1  over#n#1  0.0833333333333333

out  middle
out#v#3  middle#v#1  0.2

out  left
out#n#1  left#n#5  0.1

out  right
out#v#3  right#v#2  0.25

out  on

centre  under

centre  over
centre#n#6  over#n#1  0.166666666666667

centre  middle
centre#n#2  middle#n#1  1

centre  left
centre#n#3  left#n#1  0.25

centre  right
centre#n#3  right#n#2  0.25

centre  on

out  under

out  over
out#n#1  over#n#1  0.0833333333333333

out  middle
out#v#3  middle#v#1  0.2

out  left
out#n#1  left#n#5  0.1

out  right
out#v#3  right#v#1  0.25

out  on

from  under

from  over

from  middle

from  left

from  right

from  on

carefully  gently

carefully  slowly

carefully  fast

carefully  gently

carefully  slowly

carefully  fast

carefully  gently

carefully  slowly

carefully  fast

carefully  gently

carefully  slowly

carefully  fast

carefully  gently

carefully  slowly

carefully  fast

carefully  gently

carefully  slowly

carefully  fast

carefully  gently

carefully  slowly

carefully  fast

carefully  gently

carefully  slowly

carefully  fast

with  gently

with  slowly

with  fast

correctly  gently

correctly  slowly

correctly  fast

downstream  gently

downstream  slowly

downstream  fast

correctly  gently

correctly  slowly

correctly  fast

