1	"We	_	_	_	_	_	_	_	_	_	_	_	_	_
2	think	_	_	_	_	_	_	_	_	_	_	_	_	_
3	that	_	_	_	_	_	_	_	_	_	_	_	_	_
4	the	_	_	_	_	_	_	_	_	_	_	_	_	_
5	United	_	_	_	_	_	_	_	_	_	_	_	_	_
6	States	_	_	_	_	_	_	_	_	_	_	_	_	_
7	of	_	_	_	_	_	_	_	_	_	_	_	_	_
8	America	_	_	_	_	_	_	_	_	_	_	_	_	_
9	should	_	_	_	_	_	_	_	_	_	_	_	_	_
10	support	_	_	_	_	_	_	_	_	_	_	_	_	_
11	the	_	_	_	_	_	_	_	_	_	_	_	_	_
12	free	_	_	_	_	_	_	_	_	_	_	_	_	_
13	speech	_	_	_	_	_	_	_	_	_	_	_	_	_
14	of	_	_	_	_	_	_	_	_	_	_	_	_	_
15	all	_	_	_	_	_	_	_	_	_	_	_	_	_
16	groups,"	_	_	_	_	_	_	_	_	_	_	_	_	_
17	Mr.	_	_	_	_	_	_	_	_	_	_	_	_	_
18	White	_	_	_	_	_	_	_	_	_	_	_	_	_
19	said,	_	_	_	_	_	_	_	_	_	_	_	_	_
20	objecting	_	_	_	_	_	_	_	_	_	_	_	_	_
21	to	_	_	_	_	_	_	_	_	_	_	_	_	_
22	Mr.	_	_	_	_	_	_	_	_	_	_	_	_	_
23	Olson's	_	_	_	_	_	_	_	_	_	_	_	_	_
24	recommendation.	_	_	_	_	_	_	_	_	_	_	_	_	_

