1 You
2 unscrew
3 the
4 screws
5 and
6 remove
7 the
8 cover
9 .

1 You
2 loose
3 the
4 screw
5 ,
6 replace
7 the
8 bulb
9 with
10 an
11 equivalent
12 one
13 and
14 tighten
15 the
16 screw
17 .

1 Remount
2 the
3 cover
4 and
5 tighten
6 the
7 screws
8 .

