1 Remove
2 the
3 lens
4 cover
5 .

1 You
2 clean
3 the
4 lens
5 with
6 a
7 soft
8 cloth
9 and
10 you
11 put
12 back
13 the
14 lens
15 cover
16 .

1 You
2 assemble
3 the
4 shutter
5 .

1 You
2 tighten
3 the
4 screw
5 that
6 hold
7 it
8 .

1 You
2 assemble
3 the
4 outer
5 cover
6 ,
7 making
8 sure
9 the
10 O-ring
11 is
12 correctly
13 positioned
14 .

1 You
2 tighten
3 the
4 four
5 screw
6 and
7 you
8 put
9 back
10 the
11 cap
12 .

