1 Disconnect
2 the
3 terminal
4 ,
5 remove
6 the
7 cover
8 (
9 4
10 )
11 and
12 the
13 seal
14 (
15 5
16 )
17 .

1 Unscrew
2 the
3 screws
4 (
5 6
6 )
7 and
8 remove
9 the
10 retainer
11 (
12 7
13 )
14 .

1 Loosen
2 the
3 Allen
4 screw
5 (
6 8
7 )
8 and
9 carefully
10 extract
11 the
12 bulb
13 (
14 9
15 )
16 .

1 Replace
2 with
3 an
4 equivalent
5 one
6 ,
7 tighten
8 the
9 Allen
10 screw
11 again
12 ,
13 remount
14 the
15 retainer
16 in
17 the
18 correct
19 position
20 and
21 lock
22 with
23 the
24 screw
25 .

1 Remount
2 the
3 cover
4 with
5 the
6 seal
7 and
8 connect
9 the
10 terminal
11 .

