1 You
2 disconnect
3 the
4 terminal
5 ,
6 you
7 remove
8 the
9 cover
10 (
11 4
12 )
13 and
14 the
15 seal
16 (
17 5
18 )
19 .

1 Unscrew
2 the
3 screws
4 (
5 6
6 )
7 and
8 remove
9 the
10 retainer
11 (
12 7
13 )
14 .

1 You
2 loose
3 the
4 Allen
5 screw
6 (
7 8
8 )
9 and
10 carefully
11 extract
12 the
13 bulb
14 (
15 9
16 )
17 .

1 You
2 replace
3 the
4 blub
5 with
6 an
7 equivalent
8 one
9 ,
10 you
11 tighten
12 the
13 Allen
14 screw
15 again
16 ,
17 you
18 remount
19 the
20 retainer
21 in
22 the
23 correct
24 position
25 and
26 you
27 lock
28 with
29 the
30 screw
31 .

1 You
2 remount
3 the
4 cover
5 with
6 the
7 seal
8 and
9 connect
10 the
11 terminal
12 .

