1 You
2 remove
3 the
4 seat
5 to
6 access
7 the
8 filter
9 and
10 lift
11 the
12 battery
13 holder
14 .

1 To
2 remove
3 the
4 filter
5 ,
6 you
7 unscrew
8 the
9 finger
10 screw
11 positioned
12 at
13 the
14 centre
15 of
16 the
17 filter
18 and
19 carefully
20 slide
21 the
22 filter
23 out
24 of
25 its
26 case
27 .

