.  amble

.  bow#v

.  chew

.  curtsy

.  dancing#v

.  drink#v

.  greet#v

.  headstand

.  huddle#v

.  jump#v

.  kick#v

.  listen#v

.  look#v

.  moonwalk#n

.  point_out#v

.  pray#v

.  punch#v

.  rubbing#v

.  run#v

.  toast

.  walk_around

.  walk#v

.  water#v

;  amble

;  bow#v

;  chew

;  curtsy

;  dancing#v

;  drink#v

;  greet#v

;  headstand

;  huddle#v

;  jump#v

;  kick#v

;  listen#v

;  look#v

;  moonwalk#n

;  point_out#v

;  pray#v

;  punch#v

;  rubbing#v

;  run#v

;  toast

;  walk_around

;  walk#v

;  water#v

a  amble
a#n#6  amble#v#1  0.0433256610100913

a  bow#v
a#n#6  bow#v#3  0.0563224758936957

a  chew
a#n#5  chew#n#2  0.0756516709513321

a  curtsy
a#n#6  curtsy#v#1  0.0519743398398507

a  dancing#v
a#n#5  dance#v#2  0.0653149627328496

a  drink#v
a#n#4  drink#v#4  0.075578229012505

a  greet#v
a#n#4  greet#v#2  0.0882075768214467

a  headstand
a#n#6  headstand#n#1  0.0197340766727091

a  huddle#v
a#n#5  huddle#v#1  0.0346659195266692

a  jump#v
a#n#4  jump#v#1  0.0931308567269071

a  kick#v
a#n#5  kick#v#8  0.0638992909657955

a  listen#v
a#n#6  listen#v#1  0.0618747244194786

a  look#v
a#n#4  look#v#1  0.112136144981382

a  moonwalk#n
a#n#6  moonwalk#n#1  0.181454778152277

a  point_out#v
a#n#6  point_out#v#3  0.0624127719580494

a  pray#v
a#n#6  pray#v#1  0.0824310447896452

a  punch#v
a#n#2  punch#v#3  0.0443305006183805

a  rubbing#v
a#n#4  rub#v#1  0.0815075324197134

a  run#v
a#n#5  run#v#6  0.309683717331752

a  toast
a#n#2  toast#n#1  0.0562542224879778

a  walk_around
a#n#7  walk_around#v#4  0.0912918566443563

a  walk#v
a#n#5  walk#v#1  0.0996403084106098

a  water#v
a#n#5  water#v#2  0.116008060834808

acrobatic_feat  amble
acrobatic_feat#n#1  amble#n#1  0.098993856453927

acrobatic_feat  bow#v
acrobatic_feat#n#1  bow#v#1  0.123196265538683

acrobatic_feat  chew
acrobatic_feat#n#1  chew#v#1  0.103909239295561

acrobatic_feat  curtsy
acrobatic_feat#n#1  curtsy#v#1  0.0731452000492428

acrobatic_feat  dancing#v
acrobatic_feat#n#1  dance#v#2  0.170445450636152

acrobatic_feat  drink#v
acrobatic_feat#n#1  drink#v#1  0.109042779615847

acrobatic_feat  greet#v
acrobatic_feat#n#1  greet#v#1  0.0970055276636951

acrobatic_feat  headstand
acrobatic_feat#n#1  headstand#n#1  0.324021215416485

acrobatic_feat  huddle#v
acrobatic_feat#n#1  huddle#v#2  0.0963024634885607

acrobatic_feat  jump#v
acrobatic_feat#n#1  jump#v#9  0.272618385290126

acrobatic_feat  kick#v
acrobatic_feat#n#1  kick#v#8  0.113108357408868

acrobatic_feat  listen#v
acrobatic_feat#n#1  listen#v#1  0.0964920953392487

acrobatic_feat  look#v
acrobatic_feat#n#1  look#v#1  0.15836536780911

acrobatic_feat  moonwalk#n
acrobatic_feat#n#1  moonwalk#n#1  0.0959681660982909

acrobatic_feat  point_out#v
acrobatic_feat#n#1  point_out#v#1  0.085974579241892

acrobatic_feat  pray#v
acrobatic_feat#n#1  pray#v#1  0.053466128993875

acrobatic_feat  punch#v
acrobatic_feat#n#1  punch#v#2  0.0948593326178268

acrobatic_feat  rubbing#v
acrobatic_feat#n#1  rub#v#1  0.127536769269027

acrobatic_feat  run#v
acrobatic_feat#n#1  run#v#3  0.300005677456483

acrobatic_feat  toast
acrobatic_feat#n#1  toast#n#3  0.0862882919068846

acrobatic_feat  walk_around
acrobatic_feat#n#1  walk_around#v#1  0.110269709874304

acrobatic_feat  walk#v
acrobatic_feat#n#1  walk#v#1  0.20033487224176

acrobatic_feat  water#v
acrobatic_feat#n#1  water#v#4  0.0826515074721849

acrobatic#a  amble
acrobatic#a#1  amble#n#1  0.040210819299747

acrobatic#a  bow#v
acrobatic#a#1  bow#v#3  0.0509197220548573

acrobatic#a  chew
acrobatic#a#1  chew#v#1  0.0487345777003269

acrobatic#a  curtsy
acrobatic#a#1  curtsy#v#2  0.0473827280182366

acrobatic#a  dancing#v
acrobatic#a#1  dance#v#2  0.0914109194790762

acrobatic#a  drink#v
acrobatic#a#1  drink#v#1  0.0579352461772523

acrobatic#a  greet#v
acrobatic#a#1  greet#v#1  0.0569018628633144

acrobatic#a  headstand
acrobatic#a#1  headstand#n#1  0.0991642681599372

acrobatic#a  huddle#v
acrobatic#a#1  huddle#v#2  0.0328689643388419

acrobatic#a  jump#v
acrobatic#a#1  jump#v#1  0.14231936976035

acrobatic#a  kick#v
acrobatic#a#1  kick#v#5  0.0811490279960844

acrobatic#a  listen#v
acrobatic#a#1  listen#v#2  0.0528817540711461

acrobatic#a  look#v
acrobatic#a#1  look#v#1  0.0818949706199227

acrobatic#a  moonwalk#n
acrobatic#a#1  moonwalk#n#1  0.0586634966195561

acrobatic#a  point_out#v
acrobatic#a#1  point_out#v#3  0.0576330672073287

acrobatic#a  pray#v
acrobatic#a#1  pray#v#1  0.0318361725587287

acrobatic#a  punch#v
acrobatic#a#1  punch#v#2  0.0477053634025214

acrobatic#a  rubbing#v
acrobatic#a#1  rub#v#1  0.0603247802738371

acrobatic#a  run#v
acrobatic#a#1  run#v#7  0.0741463767804535

acrobatic#a  toast
acrobatic#a#1  toast#n#3  0.0615792845859117

acrobatic#a  walk_around
acrobatic#a#1  walk_around#v#1  0.0502153520332304

acrobatic#a  walk#v
acrobatic#a#1  walk#v#1  0.110887175550668

acrobatic#a  water#v
acrobatic#a#1  water#v#3  0.0493939950450604

across  amble
across#r#1  amble#n#1  0.0886906574713263

across  bow#v
across#r#2  bow#v#5  0.0476088031427629

across  chew
across#r#2  chew#v#1  0.0304590704481492

across  curtsy
across#r#2  curtsy#n#1  0.029938322748466

across  dancing#v
across#r#1  dance#v#2  0.120707621702666

across  drink#v
across#r#2  drink#v#1  0.0314698700552773

across  greet#v
across#r#2  greet#v#1  0.0227954372428033

across  headstand
across#r#1  headstand#n#1  0.0488823716737844

across  huddle#v
across#r#2  huddle#v#2  0.0256556589912502

across  jump#v
across#r#1  jump#v#1  0.0982405322017725

across  kick#v
across#r#1  kick#v#2  0.0986671297454823

across  listen#v
across#r#2  listen#v#1  0.0330242925841539

across  look#v
across#r#1  look#v#2  0.047411008596553

across  moonwalk#n
across#r#1  moonwalk#n#2  0.105906862771938

across  point_out#v
across#r#2  point_out#v#2  0.0232677293884352

across  pray#v
across#r#2  pray#v#1  0.0169262926160486

across  punch#v
across#r#1  punch#v#2  0.0372863451151343

across  rubbing#v
across#r#2  rub#v#1  0.0501034223869992

across  run#v
across#r#1  run#v#1  0.0768031665555342

across  toast
across#r#2  toast#n#1  0.0323851904565274

across  walk_around
across#r#1  walk_around#v#1  0.088833602635956

across  walk#v
across#r#1  walk#v#4  0.109224587911577

across  water#v
across#r#2  water#v#1  0.0336324553774645

amble  bow#v
amble#v#1  bow#v#3  0.0715080496768061

amble  dancing#v
amble#n#1  dance#v#2  0.114684881876104

amble  drink#v
amble#n#1  drink#v#1  0.0816249998156352

amble  greet#v
amble#v#1  greet#v#1  0.080569554153936

amble  jump#v
amble#v#1  jump#v#4  0.426251449197421

amble  kick#v
amble#v#1  kick#v#8  0.106503187304618

amble  listen#v
amble#n#1  listen#v#1  0.0728567188481302

amble  look#v
amble#n#1  look#v#6  0.162797013073241

amble  point_out#v
amble#v#1  point_out#v#1  0.0817201250565614

amble  pray#v
amble#n#1  pray#v#2  0.0425828365690461

amble  punch#v
amble#v#1  punch#v#2  0.0749983950760307

amble  rubbing#v
amble#v#1  rub#v#1  0.0895290901610594

amble  run#v
amble#v#1  run#v#23  0.270634887087152

amble  walk#v
amble#n#1  walk#v#4  0.716938946478538

an  amble
an#n#1  amble#n#1  0.0426176159032408

an  bow#v
an#n#1  bow#v#2  0.0683480069108379

an  chew
an#n#1  chew#n#2  0.030516689646793

an  curtsy
an#n#1  curtsy#n#1  0.0281070236938803

an  dancing#v
an#n#1  dance#v#2  0.0690795736365885

an  drink#v
an#n#1  drink#v#1  0.052592339766266

an  greet#v
an#n#1  greet#v#1  0.0898155588060042

an  headstand
an#n#1  headstand#n#1  0.0195396609012992

an  huddle#v
an#n#1  huddle#v#2  0.0279174476927177

an  jump#v
an#n#1  jump#v#14  0.0638639585252785

an  kick#v
an#n#1  kick#v#8  0.0839984843099769

an  listen#v
an#n#1  listen#v#1  0.0778300485139473

an  look#v
an#n#1  look#v#1  0.0982332757996999

an  moonwalk#n
an#n#1  moonwalk#n#1  0.0435684435046236

an  point_out#v
an#n#1  point_out#v#1  0.0612802414024143

an  pray#v
an#n#1  pray#v#1  0.0628693153851855

an  punch#v
an#n#1  punch#v#2  0.0325951658367289

an  rubbing#v
an#n#1  rub#v#1  0.0422287019491451

an  run#v
an#n#1  run#v#3  0.0710504061368048

an  toast
an#n#1  toast#n#3  0.0624287211594309

an  walk_around
an#n#1  walk_around#v#1  0.0414547817132144

an  walk#v
an#n#1  walk#v#1  0.0809275064966034

an  water#v
an#n#1  water#v#4  0.0382840761590905

and  amble

and  bow#v

and  chew

and  curtsy

and  dancing#v

and  drink#v

and  greet#v

and  headstand

and  huddle#v

and  jump#v

and  kick#v

and  listen#v

and  look#v

and  moonwalk#n

and  point_out#v

and  pray#v

and  punch#v

and  rubbing#v

and  run#v

and  toast

and  walk_around

and  walk#v

and  water#v

as  amble
as#n#2  amble#v#1  0.0456765001470617

as  bow#v
as#n#1  bow#v#3  0.0446067229466671

as  chew
as#n#1  chew#v#1  0.0659526199745894

as  curtsy
as#r#1  curtsy#n#1  0.0356230974880095

as  dancing#v
as#r#1  dance#v#3  0.0829555718484422

as  drink#v
as#n#1  drink#v#1  0.101589964139945

as  greet#v
as#n#1  greet#v#3  0.119689524674392

as  headstand
as#n#2  headstand#n#1  0.0162807480502645

as  huddle#v
as#n#2  huddle#v#1  0.0423452252087838

as  jump#v
as#n#1  jump#v#1  0.0954213261302096

as  kick#v
as#r#1  kick#v#8  0.242582196960573

as  listen#v
as#r#1  listen#v#1  0.0826251724598731

as  look#v
as#n#1  look#v#1  0.102400400733372

as  moonwalk#n
as#r#1  moonwalk#n#1  0.0411864231481117

as  point_out#v
as#r#1  point_out#v#1  0.0692459562477066

as  pray#v
as#r#1  pray#v#1  0.0601589293509229

as  punch#v
as#n#1  punch#v#3  0.0571629915897354

as  rubbing#v
as#n#1  rub#v#1  0.0852560513673531

as  run#v
as#n#1  run#v#40  0.24353325547656

as  toast
as#r#1  toast#n#3  0.0728505081369755

as  walk_around
as#r#1  walk_around#v#3  0.0693197154051433

as  walk#v
as#n#2  walk#v#1  0.111492926373263

as  water#v
as#n#1  water#v#2  0.0732366320303824

audience#n  amble
audience#n#3  amble#n#1  0.0894718216986139

audience#n  bow#v
audience#n#3  bow#v#2  0.0747899612262522

audience#n  chew
audience#n#3  chew#v#1  0.0766385118835812

audience#n  curtsy
audience#n#2  curtsy#n#1  0.0510734741494725

audience#n  dancing#v
audience#n#1  dance#v#2  0.1125307103577

audience#n  drink#v
audience#n#3  drink#v#1  0.0995136278355222

audience#n  greet#v
audience#n#3  greet#v#1  0.126189320702724

audience#n  headstand
audience#n#1  headstand#n#1  0.0307899639289895

audience#n  huddle#v
audience#n#3  huddle#v#2  0.0689514737941299

audience#n  jump#v
audience#n#4  jump#v#14  0.264215001038446

audience#n  kick#v
audience#n#3  kick#v#8  0.153044539958696

audience#n  listen#v
audience#n#3  listen#v#1  0.23602713557783

audience#n  look#v
audience#n#3  look#v#8  0.325149785840594

audience#n  moonwalk#n
audience#n#3  moonwalk#n#2  0.0729908685169171

audience#n  point_out#v
audience#n#3  point_out#v#1  0.120857290068831

audience#n  pray#v
audience#n#3  pray#v#1  0.0797923842780833

audience#n  punch#v
audience#n#3  punch#v#3  0.0438259723960715

audience#n  rubbing#v
audience#n#3  rub#v#1  0.0893470071645773

audience#n  run#v
audience#n#3  run#v#14  0.29721410424852

audience#n  toast
audience#n#3  toast#n#3  0.120569010509646

audience#n  walk_around
audience#n#3  walk_around#v#4  0.0926942374299548

audience#n  walk#v
audience#n#3  walk#v#1  0.243773507090679

audience#n  water#v
audience#n#1  water#v#4  0.364990386671481

backward  amble
backward#a#1  amble#v#1  0.104606569719096

backward  bow#v
backward#a#1  bow#v#4  0.119727642455191

backward  chew
backward#a#1  chew#v#1  0.103905517139207

backward  curtsy
backward#a#1  curtsy#n#1  0.0833796294236422

backward  dancing#v
backward#a#1  dance#v#2  0.158611900238727

backward  drink#v
backward#a#1  drink#v#1  0.188211983586015

backward  greet#v
backward#a#1  greet#v#1  0.124335842378111

backward  headstand
backward#r#2  headstand#n#1  0.0953489400378103

backward  huddle#v
backward#a#1  huddle#v#2  0.10104105704247

backward  jump#v
backward#a#1  jump#v#1  0.181990206246403

backward  kick#v
backward#a#1  kick#v#8  0.140682384877766

backward  listen#v
backward#a#1  listen#v#1  0.123394504250521

backward  look#v
backward#r#3  look#v#8  0.314251219565183

backward  moonwalk#n
backward#a#1  moonwalk#n#1  0.111886270885112

backward  point_out#v
backward#a#2  point_out#v#1  0.164423666620393

backward  pray#v
backward#a#1  pray#v#1  0.0690431440170808

backward  punch#v
backward#a#1  punch#v#2  0.0994608598447625

backward  rubbing#v
backward#a#1  rub#v#1  0.225135022833946

backward  run#v
backward#a#4  run#v#38  0.45220711450403

backward  toast
backward#a#1  toast#n#3  0.10785916386092

backward  walk_around
backward#a#1  walk_around#v#1  0.123978737398582

backward  walk#v
backward#a#1  walk#v#1  0.238990237492671

backward  water#v
backward#a#1  water#v#4  0.239423907182514

balance#v  amble
balance#v#1  amble#n#1  0.0757430246077649

balance#v  bow#v
balance#v#3  bow#v#3  0.0818794493117046

balance#v  chew
balance#v#3  chew#v#1  0.256609822365553

balance#v  curtsy
balance#v#1  curtsy#n#1  0.0690248185461476

balance#v  dancing#v
balance#v#1  dance#v#2  0.113628001523849

balance#v  drink#v
balance#v#1  drink#v#1  0.116469080964947

balance#v  greet#v
balance#v#1  greet#v#1  0.116228764746598

balance#v  headstand
balance#v#2  headstand#n#1  0.0857303996163548

balance#v  huddle#v
balance#v#1  huddle#v#2  0.0617272218571257

balance#v  jump#v
balance#v#1  jump#v#1  0.118758782922729

balance#v  kick#v
balance#v#1  kick#v#8  0.112283815083886

balance#v  listen#v
balance#v#1  listen#v#1  0.104422205316524

balance#v  look#v
balance#v#4  look#v#3  0.675623754901833

balance#v  moonwalk#n
balance#v#1  moonwalk#n#1  0.0617426134512735

balance#v  point_out#v
balance#v#1  point_out#v#3  0.0957252264148348

balance#v  pray#v
balance#v#1  pray#v#1  0.064357107148817

balance#v  punch#v
balance#v#1  punch#v#2  0.0562704786720209

balance#v  rubbing#v
balance#v#1  rub#v#1  0.116640995263185

balance#v  run#v
balance#v#4  run#v#5  0.890316120204966

balance#v  toast
balance#v#1  toast#n#3  0.111866453478922

balance#v  walk_around
balance#v#1  walk_around#v#3  0.0828279931182763

balance#v  walk#v
balance#v#3  walk#v#1  0.194429476316712

balance#v  water#v
balance#v#1  water#v#3  0.0966780548384379

bend#v  amble
bend#v#1  amble#v#1  0.103940259318831

bend#v  bow#v
bend#v#4  bow#v#4  1.00000000000003

bend#v  chew
bend#v#1  chew#v#1  0.133820459846714

bend#v  curtsy
bend#v#4  curtsy#v#1  0.307609916299977

bend#v  dancing#v
bend#v#6  dance#v#1  0.685343899164094

bend#v  drink#v
bend#v#1  drink#v#1  0.122983415412667

bend#v  greet#v
bend#v#1  greet#v#1  0.198998268587564

bend#v  headstand
bend#v#1  headstand#n#1  0.125645593333629

bend#v  huddle#v
bend#v#4  huddle#v#2  0.808266407183727

bend#v  jump#v
bend#v#6  jump#v#8  0.549290455803499

bend#v  kick#v
bend#v#1  kick#v#3  0.175726979112964

bend#v  listen#v
bend#v#2  listen#v#2  0.294403956132915

bend#v  look#v
bend#v#1  look#v#1  0.188228542151651

bend#v  moonwalk#n
bend#v#1  moonwalk#n#1  0.0940222544350355

bend#v  point_out#v
bend#v#1  point_out#v#1  0.133340422300102

bend#v  pray#v
bend#v#1  pray#v#1  0.0807677543347057

bend#v  punch#v
bend#v#1  punch#v#2  0.100400638478855

bend#v  rubbing#v
bend#v#1  rub#v#1  0.191472508874084

bend#v  run#v
bend#v#5  run#v#26  0.50087452754815

bend#v  toast
bend#v#3  toast#n#1  0.221039234587062

bend#v  walk_around
bend#v#1  walk_around#v#1  0.125051932210496

bend#v  walk#v
bend#v#1  walk#v#1  0.255992250616754

bend#v  water#v
bend#v#1  water#v#1  0.088105503841972

be#v  amble
be#v#1  amble#v#1  0.190202006291297

be#v  bow#v
be#v#1  bow#v#3  0.219444106367363

be#v  chew
be#v#1  chew#v#1  0.246807212701242

be#v  curtsy
be#v#1  curtsy#n#1  0.149056960672263

be#v  dancing#v
be#v#1  dance#v#2  0.293694953785492

be#v  drink#v
be#v#1  drink#v#1  0.272667819225066

be#v  greet#v
be#v#1  greet#v#1  0.300176302522454

be#v  headstand
be#v#1  headstand#n#1  0.0961672236110993

be#v  huddle#v
be#v#1  huddle#v#2  0.147369508951975

be#v  jump#v
be#v#1  jump#v#5  0.311502551923613

be#v  kick#v
be#v#1  kick#v#8  0.348884328166221

be#v  listen#v
be#v#1  listen#v#1  0.309103593380641

be#v  look#v
be#v#6  look#v#9  0.713954703312005

be#v  moonwalk#n
be#v#1  moonwalk#n#1  0.166714191879284

be#v  point_out#v
be#v#1  point_out#v#1  0.307611759786925

be#v  pray#v
be#v#1  pray#v#1  0.18942367937501

be#v  punch#v
be#v#1  punch#v#3  0.156208394495754

be#v  rubbing#v
be#v#1  rub#v#1  0.272040109300489

be#v  run#v
be#v#13  run#v#5  0.739414990145203

be#v  toast
be#v#1  toast#n#3  0.267352732678553

be#v  walk_around
be#v#4  walk_around#v#3  0.24546667615489

be#v  walk#v
be#v#1  walk#v#1  0.441095436285741

be#v  water#v
be#v#1  water#v#3  0.243926298325388

by  amble
by#r#2  amble#n#1  0.053455204909348

by  bow#v
by#r#1  bow#v#2  0.0404838480943067

by  chew
by#r#2  chew#v#1  0.0526353090562376

by  curtsy
by#r#2  curtsy#n#1  0.029164956884393

by  dancing#v
by#r#2  dance#v#2  0.0796203539773601

by  drink#v
by#r#2  drink#v#1  0.0629509801190599

by  greet#v
by#r#2  greet#v#1  0.0810975409491615

by  headstand
by#r#2  headstand#n#1  0.0188545478136263

by  huddle#v
by#r#2  huddle#v#2  0.0361754095680357

by  jump#v
by#r#2  jump#v#15  0.0806650669760164

by  kick#v
by#r#2  kick#v#8  0.0841251351708514

by  listen#v
by#r#2  listen#v#1  0.0825161779921449

by  look#v
by#r#2  look#v#1  0.110272512195125

by  moonwalk#n
by#r#2  moonwalk#n#1  0.060595492616812

by  point_out#v
by#r#2  point_out#v#1  0.0690715226313471

by  pray#v
by#r#2  pray#v#1  0.0457628730709132

by  punch#v
by#r#2  punch#v#2  0.0457177989416271

by  rubbing#v
by#r#2  rub#v#1  0.0689799218086706

by  run#v
by#r#1  run#v#4  0.108908858746131

by  toast
by#r#2  toast#n#3  0.0728446433868395

by  walk_around
by#r#2  walk_around#v#1  0.0594704308907083

by  walk#v
by#r#2  walk#v#1  0.116610087878145

by  water#v
by#r#2  water#v#1  0.0477662794266724

cage#n  amble
cage#n#4  amble#v#1  0.0627915551988254

cage#n  bow#v
cage#n#4  bow#v#4  0.102615890903258

cage#n  chew
cage#n#2  chew#v#1  0.075642584675492

cage#n  curtsy
cage#n#2  curtsy#n#1  0.0358892852873248

cage#n  dancing#v
cage#n#3  dance#v#2  0.216815482692518

cage#n  drink#v
cage#n#1  drink#v#1  0.0729940328411592

cage#n  greet#v
cage#n#2  greet#v#1  0.0774990278070779

cage#n  headstand
cage#n#4  headstand#n#1  0.0628404234887168

cage#n  huddle#v
cage#n#4  huddle#v#2  0.0666843232543216

cage#n  jump#v
cage#n#2  jump#v#3  0.387680034991296

cage#n  kick#v
cage#n#4  kick#v#1  0.192680507114616

cage#n  listen#v
cage#n#2  listen#v#1  0.0716061857429676

cage#n  look#v
cage#n#2  look#v#1  0.118209244064397

cage#n  moonwalk#n
cage#n#1  moonwalk#n#2  0.0450196052126597

cage#n  point_out#v
cage#n#2  point_out#v#1  0.0679057386629575

cage#n  pray#v
cage#n#2  pray#v#1  0.0474610203619823

cage#n  punch#v
cage#n#2  punch#v#3  0.0561738371103526

cage#n  rubbing#v
cage#n#1  rub#v#1  0.0981580483889581

cage#n  run#v
cage#n#2  run#v#31  0.383971807396068

cage#n  toast
cage#n#1  toast#n#1  0.0780121476917102

cage#n  walk_around
cage#n#1  walk_around#v#1  0.0680735619301773

cage#n  walk#v
cage#n#4  walk#v#5  0.320628820473061

cage#n  water#v
cage#n#1  water#v#1  0.0632494573948424

chew  bow#v
chew#v#1  bow#v#4  0.0830845341816848

chew  dancing#v
chew#v#1  dance#v#2  0.104480032361091

chew  drink#v
chew#v#1  drink#v#1  0.225641268871508

chew  greet#v
chew#v#1  greet#v#1  0.0940205833795284

chew  jump#v
chew#v#1  jump#v#2  0.30994570734137

chew  kick#v
chew#v#1  kick#v#8  0.119441640103318

chew  listen#v
chew#v#1  listen#v#2  0.11231798615323

chew  look#v
chew#v#1  look#v#1  0.133516068495531

chew  point_out#v
chew#v#1  point_out#v#1  0.0938224286334841

chew  pray#v
chew#v#1  pray#v#1  0.0533128851988937

chew  punch#v
chew#n#1  punch#v#1  0.224453221401198

chew  rubbing#v
chew#v#1  rub#v#1  0.193795600935035

chew  run#v
chew#v#1  run#v#14  0.306500455216993

chew  walk#v
chew#v#1  walk#v#1  0.214737911967261

circumambulate#v  amble
circumambulate#v#1  amble#v#1  0.0317871881653945

circumambulate#v  bow#v
circumambulate#v#1  bow#v#4  0.0335087373252051

circumambulate#v  chew
circumambulate#v#1  chew#v#1  0.0270573787411374

circumambulate#v  curtsy
circumambulate#v#1  curtsy#v#1  0.0194955431194284

circumambulate#v  dancing#v
circumambulate#v#1  dance#v#2  0.070826479137013

circumambulate#v  drink#v
circumambulate#v#1  drink#v#1  0.0418965319722267

circumambulate#v  greet#v
circumambulate#v#1  greet#v#1  0.03065230478851

circumambulate#v  headstand
circumambulate#v#1  headstand#n#1  0.0278508115462334

circumambulate#v  huddle#v
circumambulate#v#1  huddle#v#1  0.0334964076112377

circumambulate#v  jump#v
circumambulate#v#1  jump#v#12  0.0880102713635519

circumambulate#v  kick#v
circumambulate#v#1  kick#v#4  0.0374080020241639

circumambulate#v  listen#v
circumambulate#v#1  listen#v#1  0.0335167011630144

circumambulate#v  look#v
circumambulate#v#1  look#v#4  0.0788088706654368

circumambulate#v  moonwalk#n
circumambulate#v#1  moonwalk#n#1  0.0581698947034505

circumambulate#v  point_out#v
circumambulate#v#1  point_out#v#1  0.0257890751101345

circumambulate#v  pray#v
circumambulate#v#1  pray#v#1  0.0172822180507871

circumambulate#v  punch#v
circumambulate#v#1  punch#v#3  0.0341208827096384

circumambulate#v  rubbing#v
circumambulate#v#1  rub#v#1  0.070987467990278

circumambulate#v  run#v
circumambulate#v#1  run#v#7  0.0846197520300695

circumambulate#v  toast
circumambulate#v#1  toast#n#1  0.0252770975386473

circumambulate#v  walk_around
circumambulate#v#1  walk_around#v#2  1.00000000000001

circumambulate#v  walk#v
circumambulate#v#1  walk#v#1  0.0611508772719481

circumambulate#v  water#v
circumambulate#v#1  water#v#3  0.109033500608459

circus#n  amble
circus#n#2  amble#n#1  0.0949172457283612

circus#n  bow#v
circus#n#3  bow#v#3  0.0664051390338049

circus#n  chew
circus#n#2  chew#n#2  0.11172054539827

circus#n  curtsy
circus#n#1  curtsy#n#1  0.0482387274987894

circus#n  dancing#v
circus#n#5  dance#v#2  0.102733400199135

circus#n  drink#v
circus#n#5  drink#v#1  0.0864692886494885

circus#n  greet#v
circus#n#3  greet#v#1  0.106789891048644

circus#n  headstand
circus#n#4  headstand#n#1  0.174833809161489

circus#n  huddle#v
circus#n#1  huddle#v#1  0.0590160447091933

circus#n  jump#v
circus#n#4  jump#v#9  0.142367023092305

circus#n  kick#v
circus#n#3  kick#v#8  0.105743482843618

circus#n  listen#v
circus#n#3  listen#v#1  0.103514852791297

circus#n  look#v
circus#n#6  look#v#4  0.295558566147596

circus#n  moonwalk#n
circus#n#2  moonwalk#n#2  0.0909408721197787

circus#n  point_out#v
circus#n#3  point_out#v#1  0.0851260372102599

circus#n  pray#v
circus#n#3  pray#v#1  0.0588193980416506

circus#n  punch#v
circus#n#5  punch#v#2  0.0578147818328459

circus#n  rubbing#v
circus#n#5  rub#v#1  0.259754832478085

circus#n  run#v
circus#n#6  run#v#36  0.300977177616414

circus#n  toast
circus#n#6  toast#n#3  0.296911520532581

circus#n  walk_around
circus#n#2  walk_around#v#1  0.0902517927869015

circus#n  walk#v
circus#n#2  walk#v#1  0.155501465684369

circus#n  water#v
circus#n#5  water#v#4  0.0922795128382049

crouch#v  amble
crouch#v#1  amble#v#1  0.0631527765897647

crouch#v  bow#v
crouch#v#1  bow#v#4  1.00000000000003

crouch#v  chew
crouch#v#1  chew#v#1  0.0830845341816848

crouch#v  curtsy
crouch#v#1  curtsy#v#1  0.307609916299977

crouch#v  dancing#v
crouch#v#1  dance#v#2  0.107856580181326

crouch#v  drink#v
crouch#v#1  drink#v#1  0.072236861816992

crouch#v  greet#v
crouch#v#1  greet#v#1  0.0857995835932332

crouch#v  headstand
crouch#v#1  headstand#n#1  0.070279726724197

crouch#v  huddle#v
crouch#v#1  huddle#v#2  0.808266407183727

crouch#v  jump#v
crouch#v#1  jump#v#1  0.112526204445899

crouch#v  kick#v
crouch#v#1  kick#v#8  0.0721593404641963

crouch#v  listen#v
crouch#v#1  listen#v#2  0.194114972307728

crouch#v  look#v
crouch#v#1  look#v#1  0.110017943441215

crouch#v  moonwalk#n
crouch#v#1  moonwalk#n#1  0.0608628960903553

crouch#v  point_out#v
crouch#v#1  point_out#v#1  0.0653487637950974

crouch#v  pray#v
crouch#v#1  pray#v#1  0.0592034875335347

crouch#v  punch#v
crouch#v#1  punch#v#2  0.0555244226522567

crouch#v  rubbing#v
crouch#v#1  rub#v#1  0.110423941151048

crouch#v  run#v
crouch#v#1  run#v#3  0.157534837323477

crouch#v  toast
crouch#v#1  toast#n#1  0.070138431574068

crouch#v  walk_around
crouch#v#1  walk_around#v#1  0.0808695821025042

crouch#v  walk#v
crouch#v#1  walk#v#1  0.131055439719048

crouch#v  water#v
crouch#v#1  water#v#1  0.0575591536161253

curtsy  bow#v
curtsy#v#1  bow#v#3  0.659328865955932

curtsy  dancing#v
curtsy#n#1  dance#v#2  0.068155474121346

curtsy  drink#v
curtsy#n#1  drink#v#1  0.0535684403080707

curtsy  greet#v
curtsy#v#1  greet#v#1  0.375762877048455

curtsy  jump#v
curtsy#n#1  jump#v#1  0.074526675706408

curtsy  kick#v
curtsy#v#2  kick#v#2  0.102841367456201

curtsy  listen#v
curtsy#v#1  listen#v#2  0.221370693830397

curtsy  look#v
curtsy#n#1  look#v#1  0.0997256925529346

curtsy  point_out#v
curtsy#n#1  point_out#v#1  0.0626591369662128

curtsy  pray#v
curtsy#n#1  pray#v#1  0.336036592592169

curtsy  punch#v
curtsy#v#2  punch#v#2  0.0465158937620549

curtsy  rubbing#v
curtsy#v#2  rub#v#1  0.0731647781227634

curtsy  run#v
curtsy#v#2  run#v#29  0.0776225645538632

curtsy  walk#v
curtsy#n#1  walk#v#1  0.0912065040811138

dance_step  amble
dance_step#n#1  amble#v#1  0.277743937109732

dance_step  bow#v
dance_step#n#1  bow#v#3  0.0741959070240362

dance_step  chew
dance_step#n#1  chew#v#1  0.0570955630262076

dance_step  curtsy
dance_step#n#1  curtsy#n#1  0.0566194019812197

dance_step  dancing#v
dance_step#n#1  dance#v#3  0.260074674407169

dance_step  drink#v
dance_step#n#1  drink#v#1  0.0696018237449494

dance_step  greet#v
dance_step#n#1  greet#v#1  0.0852884820658931

dance_step  headstand
dance_step#n#1  headstand#n#1  0.115543292929023

dance_step  huddle#v
dance_step#n#1  huddle#v#2  0.0630352279681185

dance_step  jump#v
dance_step#n#1  jump#v#1  0.194318021984898

dance_step  kick#v
dance_step#n#1  kick#v#8  0.0804796724521423

dance_step  listen#v
dance_step#n#1  listen#v#1  0.0771711102408973

dance_step  look#v
dance_step#n#1  look#v#1  0.222890883897305

dance_step  moonwalk#n
dance_step#n#1  moonwalk#n#1  0.856950580617498

dance_step  point_out#v
dance_step#n#1  point_out#v#3  0.074337836808547

dance_step  pray#v
dance_step#n#1  pray#v#1  0.0573262129770339

dance_step  punch#v
dance_step#n#1  punch#v#2  0.0455261962273493

dance_step  rubbing#v
dance_step#n#1  rub#v#1  0.086999049083465

dance_step  run#v
dance_step#n#1  run#v#1  0.12020631113724

dance_step  toast
dance_step#n#1  toast#n#3  0.0569144164733972

dance_step  walk_around
dance_step#n#1  walk_around#v#1  0.289581274196382

dance_step  walk#v
dance_step#n#1  walk#v#1  0.307591517294255

dance_step  water#v
dance_step#n#1  water#v#4  0.0560462659988807

dance#n  amble
dance#n#3  amble#v#1  0.2101680048219

dance#n  bow#v
dance#n#3  bow#v#3  0.0975494511315939

dance#n  chew
dance#n#3  chew#v#1  0.0826636275699165

dance#n  curtsy
dance#n#3  curtsy#n#1  0.0832274731135249

dance#n  dancing#v
dance#n#3  dance#v#2  0.295828354221303

dance#n  drink#v
dance#n#2  drink#v#2  0.274845502267456

dance#n  greet#v
dance#n#3  greet#v#1  0.124111277392831

dance#n  headstand
dance#n#1  headstand#n#1  0.101562750477422

dance#n  huddle#v
dance#n#3  huddle#v#2  0.0833275414071548

dance#n  jump#v
dance#n#1  jump#v#1  0.19708197251142

dance#n  kick#v
dance#n#3  kick#v#8  0.125588909241702

dance#n  listen#v
dance#n#3  listen#v#1  0.112015090032464

dance#n  look#v
dance#n#3  look#v#1  0.24553031482224

dance#n  moonwalk#n
dance#n#3  moonwalk#n#1  0.324638661313725

dance#n  point_out#v
dance#n#1  point_out#v#3  0.23196919687658

dance#n  pray#v
dance#n#3  pray#v#1  0.0927370319598169

dance#n  punch#v
dance#n#3  punch#v#2  0.0628010002045929

dance#n  rubbing#v
dance#n#3  rub#v#1  0.125919389304975

dance#n  run#v
dance#n#2  run#v#7  0.197026907844645

dance#n  toast
dance#n#2  toast#n#4  0.350294257670398

dance#n  walk_around
dance#n#3  walk_around#v#1  0.218714663357564

dance#n  walk#v
dance#n#3  walk#v#1  0.258213507066387

dance#n  water#v
dance#n#2  water#v#3  0.286096606729529

down  amble
down#n#2  amble#v#1  0.335641145236248

down  bow#v
down#a#1  bow#v#5  0.266768155538308

down  chew
down#v#3  chew#v#1  0.23832140469696

down  curtsy
down#a#1  curtsy#n#1  0.173749451743577

down  dancing#v
down#a#1  dance#v#2  0.209499551161258

down  drink#v
down#v#1  drink#v#1  0.478366794496481

down  greet#v
down#a#1  greet#v#1  0.140356622734284

down  headstand
down#a#1  headstand#n#1  0.11060443337642

down  huddle#v
down#a#1  huddle#v#2  0.131503330106197

down  jump#v
down#n#2  jump#v#4  0.456916340321516

down  kick#v
down#n#2  kick#v#1  0.555402937626096

down  listen#v
down#a#1  listen#v#1  0.162713713302123

down  look#v
down#a#5  look#v#4  0.348929804664864

down  moonwalk#n
down#a#1  moonwalk#n#1  0.107125933857952

down  point_out#v
down#v#6  point_out#v#1  0.186567973459169

down  pray#v
down#a#1  pray#v#1  0.0812558863153482

down  punch#v
down#a#1  punch#v#2  0.136105384365886

down  rubbing#v
down#a#1  rub#v#1  0.166185216896338

down  run#v
down#n#2  run#v#33  0.694600365289984

down  toast
down#v#1  toast#n#4  0.462641572316543

down  walk_around
down#a#5  walk_around#v#2  0.513524199249709

down  walk#v
down#a#1  walk#v#1  0.258547500117775

down  water#v
down#r#5  water#v#4  0.37601902155702

drink#n  amble
drink#n#1  amble#n#1  0.0832427341447247

drink#n  bow#v
drink#n#1  bow#v#3  0.0755160530628275

drink#n  chew
drink#n#5  chew#n#2  0.214197317550475

drink#n  curtsy
drink#n#1  curtsy#n#1  0.0463896990326413

drink#n  dancing#v
drink#n#3  dance#v#1  0.22957278555371

drink#n  drink#v
drink#n#2  drink#v#5  0.518256211274309

drink#n  greet#v
drink#n#1  greet#v#1  0.190392438898137

drink#n  headstand
drink#n#4  headstand#n#1  0.0334593916352746

drink#n  huddle#v
drink#n#4  huddle#v#2  0.0567121295881796

drink#n  jump#v
drink#n#5  jump#v#14  0.274441058342248

drink#n  kick#v
drink#n#1  kick#v#8  0.124568508421579

drink#n  listen#v
drink#n#1  listen#v#1  0.102712841806705

drink#n  look#v
drink#n#1  look#v#1  0.16426798396552

drink#n  moonwalk#n
drink#n#1  moonwalk#n#2  0.0749305184223091

drink#n  point_out#v
drink#n#1  point_out#v#1  0.0977484980749348

drink#n  pray#v
drink#n#1  pray#v#1  0.0666530041433768

drink#n  punch#v
drink#n#3  punch#v#1  0.0955455604175066

drink#n  rubbing#v
drink#n#3  rub#v#1  0.148593720346128

drink#n  run#v
drink#n#3  run#v#39  0.297493378696504

drink#n  toast
drink#n#1  toast#n#4  0.574485824871832

drink#n  walk_around
drink#n#1  walk_around#v#1  0.0947147972479621

drink#n  walk#v
drink#n#1  walk#v#1  0.181758624917316

drink#n  water#v
drink#n#1  water#v#3  0.196843895535635

elephant#n  amble
elephant#n#1  amble#v#1  0.0761737265938891

elephant#n  bow#v
elephant#n#1  bow#v#3  0.0757612152316936

elephant#n  chew
elephant#n#1  chew#v#1  0.126664077283552

elephant#n  curtsy
elephant#n#1  curtsy#v#2  0.0415323442169399

elephant#n  dancing#v
elephant#n#1  dance#v#2  0.12919475791161

elephant#n  drink#v
elephant#n#1  drink#v#1  0.125670418001379

elephant#n  greet#v
elephant#n#1  greet#v#1  0.0677084215344883

elephant#n  headstand
elephant#n#1  headstand#n#1  0.0453952893974706

elephant#n  huddle#v
elephant#n#1  huddle#v#2  0.0603184339821637

elephant#n  jump#v
elephant#n#1  jump#v#1  0.156951545787382

elephant#n  kick#v
elephant#n#1  kick#v#8  0.0925512203761075

elephant#n  listen#v
elephant#n#2  listen#v#1  0.0854919307163475

elephant#n  look#v
elephant#n#1  look#v#1  0.143500152062435

elephant#n  moonwalk#n
elephant#n#1  moonwalk#n#2  0.0666511740318971

elephant#n  point_out#v
elephant#n#1  point_out#v#1  0.0673720981154838

elephant#n  pray#v
elephant#n#1  pray#v#2  0.0487493794142495

elephant#n  punch#v
elephant#n#1  punch#v#3  0.0821663292839133

elephant#n  rubbing#v
elephant#n#1  rub#v#1  0.140773466167903

elephant#n  run#v
elephant#n#2  run#v#26  0.581436752176811

elephant#n  toast
elephant#n#1  toast#n#3  0.0832690837975147

elephant#n  walk_around
elephant#n#1  walk_around#v#1  0.09022790735435

elephant#n  walk#v
elephant#n#1  walk#v#1  0.163452682395712

elephant#n  water#v
elephant#n#1  water#v#1  0.0766928703236796

exhibit#v  amble
exhibit#v#2  amble#v#1  0.0963267097051722

exhibit#v  bow#v
exhibit#v#2  bow#v#3  0.129680207021806

exhibit#v  chew
exhibit#v#2  chew#v#1  0.113050309189081

exhibit#v  curtsy
exhibit#v#2  curtsy#n#1  0.0844759765254487

exhibit#v  dancing#v
exhibit#v#2  dance#v#2  0.143009804436457

exhibit#v  drink#v
exhibit#v#2  drink#v#1  0.130917578412865

exhibit#v  greet#v
exhibit#v#2  greet#v#1  0.293553341333277

exhibit#v  headstand
exhibit#v#2  headstand#n#1  0.0423655907866738

exhibit#v  huddle#v
exhibit#v#2  huddle#v#2  0.0869623222908287

exhibit#v  jump#v
exhibit#v#2  jump#v#15  0.163238833277552

exhibit#v  kick#v
exhibit#v#2  kick#v#8  0.17035643286927

exhibit#v  listen#v
exhibit#v#2  listen#v#1  0.16863846354159

exhibit#v  look#v
exhibit#v#2  look#v#2  0.263874819709266

exhibit#v  moonwalk#n
exhibit#v#2  moonwalk#n#1  0.0932325901193013

exhibit#v  point_out#v
exhibit#v#2  point_out#v#1  0.15546807380115

exhibit#v  pray#v
exhibit#v#2  pray#v#1  0.0969322608270911

exhibit#v  punch#v
exhibit#v#2  punch#v#3  0.0634289234101011

exhibit#v  rubbing#v
exhibit#v#2  rub#v#1  0.142754131191246

exhibit#v  run#v
exhibit#v#2  run#v#14  0.180118572114882

exhibit#v  toast
exhibit#v#2  toast#n#3  0.120011981992547

exhibit#v  walk_around
exhibit#v#2  walk_around#v#3  0.119439327897335

exhibit#v  walk#v
exhibit#v#4  walk#v#9  0.40672017184591

exhibit#v  water#v
exhibit#v#2  water#v#1  0.0935171329784073

ext.#n  amble

ext.#n  bow#v

ext.#n  chew

ext.#n  curtsy

ext.#n  dancing#v

ext.#n  drink#v

ext.#n  greet#v

ext.#n  headstand

ext.#n  huddle#v

ext.#n  jump#v

ext.#n  kick#v

ext.#n  listen#v

ext.#n  look#v

ext.#n  moonwalk#n

ext.#n  point_out#v

ext.#n  pray#v

ext.#n  punch#v

ext.#n  rubbing#v

ext.#n  run#v

ext.#n  toast

ext.#n  walk_around

ext.#n  walk#v

ext.#n  water#v

feat#n  amble
feat#n#1  amble#v#1  0.0604453162071979

feat#n  bow#v
feat#n#1  bow#v#4  0.0853284382224369

feat#n  chew
feat#n#1  chew#v#1  0.0811806121174236

feat#n  curtsy
feat#n#1  curtsy#n#1  0.0642850478238927

feat#n  dancing#v
feat#n#1  dance#v#2  0.124439427435182

feat#n  drink#v
feat#n#1  drink#v#1  0.0900241111479262

feat#n  greet#v
feat#n#1  greet#v#1  0.10485569221128

feat#n  headstand
feat#n#1  headstand#n#1  0.130534169244686

feat#n  huddle#v
feat#n#1  huddle#v#2  0.0736577908369265

feat#n  jump#v
feat#n#1  jump#v#1  0.135544172990111

feat#n  kick#v
feat#n#1  kick#v#8  0.12422457368777

feat#n  listen#v
feat#n#1  listen#v#1  0.101810551140076

feat#n  look#v
feat#n#1  look#v#1  0.170174553403775

feat#n  moonwalk#n
feat#n#1  moonwalk#n#1  0.0835603945494317

feat#n  point_out#v
feat#n#1  point_out#v#1  0.104305276596674

feat#n  pray#v
feat#n#1  pray#v#1  0.0699143091199736

feat#n  punch#v
feat#n#1  punch#v#2  0.0507973787334236

feat#n  rubbing#v
feat#n#1  rub#v#1  0.0958627792985216

feat#n  run#v
feat#n#1  run#v#1  0.161116028451711

feat#n  toast
feat#n#1  toast#n#3  0.0973626266193394

feat#n  walk_around
feat#n#1  walk_around#v#3  0.0965770249638426

feat#n  walk#v
feat#n#1  walk#v#1  0.155835178303718

feat#n  water#v
feat#n#1  water#v#1  0.0758716984809615

finally  amble
finally#r#1  amble#n#1  0.0589319735045883

finally  bow#v
finally#r#2  bow#v#4  0.0610355271350888

finally  chew
finally#r#1  chew#v#1  0.0690964985435351

finally  curtsy
finally#r#1  curtsy#n#1  0.0480362608032147

finally  dancing#v
finally#r#2  dance#v#2  0.0801858986695577

finally  drink#v
finally#r#2  drink#v#1  0.0751180370506077

finally  greet#v
finally#r#1  greet#v#1  0.0967449353341316

finally  headstand
finally#r#2  headstand#n#1  0.0438955231792258

finally  huddle#v
finally#r#2  huddle#v#2  0.0418550122479475

finally  jump#v
finally#r#2  jump#v#1  0.0949727820909067

finally  kick#v
finally#r#1  kick#v#8  0.109485114641259

finally  listen#v
finally#r#1  listen#v#1  0.0802938737339025

finally  look#v
finally#r#3  look#v#4  0.377253964381191

finally  moonwalk#n
finally#r#2  moonwalk#n#1  0.0634227785574148

finally  point_out#v
finally#r#1  point_out#v#1  0.0941333553730052

finally  pray#v
finally#r#1  pray#v#1  0.0516179018493224

finally  punch#v
finally#r#2  punch#v#2  0.0510490976843188

finally  rubbing#v
finally#r#2  rub#v#1  0.0735789827443134

finally  run#v
finally#r#1  run#v#30  0.563651797929558

finally  toast
finally#r#1  toast#n#3  0.0810882662289828

finally  walk_around
finally#r#1  walk_around#v#1  0.0680722694869758

finally  walk#v
finally#r#2  walk#v#1  0.134389271510282

finally  water#v
finally#r#2  water#v#3  0.0542935953939594

first#a  amble
first#a#1  amble#v#1  0.114393485877472

first#a  bow#v
first#a#1  bow#v#3  0.0989810593503684

first#a  chew
first#a#1  chew#v#1  0.116415454153379

first#a  curtsy
first#a#1  curtsy#n#1  0.0694677866747546

first#a  dancing#v
first#a#3  dance#v#2  0.240724449174796

first#a  drink#v
first#a#1  drink#v#1  0.158039420627837

first#a  greet#v
first#a#1  greet#v#1  0.158011234148817

first#a  headstand
first#a#1  headstand#n#1  0.0658654574807353

first#a  huddle#v
first#a#5  huddle#v#2  0.0878973119010915

first#a  jump#v
first#a#1  jump#v#1  0.167503812244308

first#a  kick#v
first#a#1  kick#v#8  0.164757560931878

first#a  listen#v
first#a#1  listen#v#1  0.140560213169005

first#a  look#v
first#a#1  look#v#1  0.294775246340475

first#a  moonwalk#n
first#a#3  moonwalk#n#1  0.371904795020185

first#a  point_out#v
first#a#1  point_out#v#1  0.161126347132426

first#a  pray#v
first#a#1  pray#v#1  0.0936520337925706

first#a  punch#v
first#a#1  punch#v#3  0.0790153440759593

first#a  rubbing#v
first#a#1  rub#v#1  0.138015816820108

first#a  run#v
first#a#1  run#v#30  0.288022658566618

first#a  toast
first#a#1  toast#n#3  0.119692665725305

first#a  walk_around
first#a#1  walk_around#v#1  0.138532394151956

first#a  walk#v
first#a#1  walk#v#1  0.259905128506682

first#a  water#v
first#a#1  water#v#1  0.109589550252644

free#a  amble
free#a#1  amble#n#1  0.114445154115808

free#a  bow#v
free#a#6  bow#v#2  0.325923615034738

free#a  chew
free#a#1  chew#v#1  0.120924679827137

free#a  curtsy
free#a#1  curtsy#n#1  0.0923110827203022

free#a  dancing#v
free#a#1  dance#v#2  0.165396200711669

free#a  drink#v
free#a#2  drink#v#4  0.623808054942972

free#a  greet#v
free#a#1  greet#v#1  0.24996145012215

free#a  headstand
free#a#5  headstand#n#1  0.0529910194225162

free#a  huddle#v
free#a#1  huddle#v#2  0.147556186369592

free#a  jump#v
free#a#2  jump#v#1  0.282579596429117

free#a  kick#v
free#a#1  kick#v#8  0.217050307547323

free#a  listen#v
free#a#1  listen#v#1  0.184095616988891

free#a  look#v
free#a#1  look#v#1  0.293422901415611

free#a  moonwalk#n
free#a#1  moonwalk#n#1  0.0978221564067756

free#a  point_out#v
free#a#1  point_out#v#1  0.233661767194521

free#a  pray#v
free#a#1  pray#v#1  0.126227791791043

free#a  punch#v
free#a#1  punch#v#2  0.0764987335128782

free#a  rubbing#v
free#a#1  rub#v#1  0.151286458103091

free#a  run#v
free#a#1  run#v#11  0.232500784132725

free#a  toast
free#a#1  toast#n#3  0.158578786478565

free#a  walk_around
free#a#1  walk_around#v#4  0.139518165618091

free#a  walk#v
free#a#1  walk#v#1  0.250794658246859

free#a  water#v
free#a#1  water#v#1  0.108081955432401

from  amble

from  bow#v

from  chew

from  curtsy

from  dancing#v

from  drink#v

from  greet#v

from  headstand

from  huddle#v

from  jump#v

from  kick#v

from  listen#v

from  look#v

from  moonwalk#n

from  point_out#v

from  pray#v

from  punch#v

from  rubbing#v

from  run#v

from  toast

from  walk_around

from  walk#v

from  water#v

glass#n  amble
glass#n#1  amble#v#1  0.0735812941633092

glass#n  bow#v
glass#n#1  bow#v#3  0.0899116434870144

glass#n  chew
glass#n#2  chew#v#1  0.172163645624158

glass#n  curtsy
glass#n#1  curtsy#n#1  0.0561091558639309

glass#n  dancing#v
glass#n#1  dance#v#2  0.125328154351125

glass#n  drink#v
glass#n#2  drink#v#2  0.420273580154275

glass#n  greet#v
glass#n#2  greet#v#1  0.0898700785534566

glass#n  headstand
glass#n#1  headstand#n#1  0.0314600389092349

glass#n  huddle#v
glass#n#1  huddle#v#2  0.0537279835658163

glass#n  jump#v
glass#n#2  jump#v#14  0.204039658012419

glass#n  kick#v
glass#n#1  kick#v#8  0.107623306057923

glass#n  listen#v
glass#n#1  listen#v#1  0.0867339879300342

glass#n  look#v
glass#n#1  look#v#1  0.148625177143577

glass#n  moonwalk#n
glass#n#1  moonwalk#n#1  0.0645087370525319

glass#n  point_out#v
glass#n#1  point_out#v#1  0.0909568790340364

glass#n  pray#v
glass#n#2  pray#v#1  0.0481223106846929

glass#n  punch#v
glass#n#1  punch#v#3  0.094075723885635

glass#n  rubbing#v
glass#n#1  rub#v#1  0.171385248435941

glass#n  run#v
glass#n#1  run#v#39  0.186035173210742

glass#n  toast
glass#n#2  toast#n#4  0.323016975617806

glass#n  walk_around
glass#n#1  walk_around#v#1  0.0853297816135271

glass#n  walk#v
glass#n#1  walk#v#1  0.169090676217362

glass#n  water#v
glass#n#2  water#v#3  0.220004619959787

goal#n  amble
goal#n#3  amble#v#1  0.248856907276377

goal#n  bow#v
goal#n#3  bow#v#4  0.122046639985866

goal#n  chew
goal#n#1  chew#v#1  0.101617668485813

goal#n  curtsy
goal#n#1  curtsy#n#1  0.0810284556066224

goal#n  dancing#v
goal#n#1  dance#v#2  0.21065092238573

goal#n  drink#v
goal#n#1  drink#v#1  0.164474838981272

goal#n  greet#v
goal#n#1  greet#v#4  0.208352638548605

goal#n  headstand
goal#n#3  headstand#n#1  0.0589834008429097

goal#n  huddle#v
goal#n#3  huddle#v#2  0.090109141497647

goal#n  jump#v
goal#n#3  jump#v#4  0.315001582520967

goal#n  kick#v
goal#n#3  kick#v#2  0.294089118689764

goal#n  listen#v
goal#n#1  listen#v#1  0.213868756717724

goal#n  look#v
goal#n#1  look#v#1  0.253336768654128

goal#n  moonwalk#n
goal#n#1  moonwalk#n#1  0.0979183150212684

goal#n  point_out#v
goal#n#1  point_out#v#1  0.208400260503373

goal#n  pray#v
goal#n#1  pray#v#1  0.104570267151912

goal#n  punch#v
goal#n#2  punch#v#3  0.096883745870671

goal#n  rubbing#v
goal#n#3  rub#v#1  0.243994515173883

goal#n  run#v
goal#n#2  run#v#37  0.345334464251579

goal#n  toast
goal#n#1  toast#n#3  0.146731938722046

goal#n  walk_around
goal#n#3  walk_around#v#1  0.239602956285281

goal#n  walk#v
goal#n#1  walk#v#1  0.254383408926585

goal#n  water#v
goal#n#3  water#v#1  0.0895296233157672

greet#v  amble
greet#v#1  amble#v#1  0.080569554153936

greet#v  bow#v
greet#v#1  bow#v#3  0.286920620327044

greet#v  chew
greet#v#1  chew#v#1  0.0940205833795284

greet#v  curtsy
greet#v#1  curtsy#v#1  0.375762877048455

greet#v  dancing#v
greet#v#1  dance#v#2  0.113057096923992

greet#v  drink#v
greet#v#1  drink#v#3  0.31549916152076

greet#v  greet#v
greet#v#3  greet#v#3  0.999999999999999

greet#v  headstand
greet#v#1  headstand#n#1  0.0499074847684629

greet#v  huddle#v
greet#v#1  huddle#v#2  0.0841059464887534

greet#v  jump#v
greet#v#1  jump#v#1  0.11037943662811

greet#v  kick#v
greet#v#1  kick#v#8  0.264081060960295

greet#v  listen#v
greet#v#4  listen#v#1  0.146442572714199

greet#v  look#v
greet#v#1  look#v#2  0.302734630136711

greet#v  moonwalk#n
greet#v#1  moonwalk#n#1  0.0721715113133406

greet#v  point_out#v
greet#v#4  point_out#v#1  0.293065109578464

greet#v  pray#v
greet#v#1  pray#v#1  0.262365479862376

greet#v  punch#v
greet#v#1  punch#v#2  0.054003640285488

greet#v  rubbing#v
greet#v#1  rub#v#1  0.103596706147825

greet#v  run#v
greet#v#1  run#v#14  0.195645124450633

greet#v  toast
greet#v#1  toast#v#2  0.31549916152076

greet#v  walk_around
greet#v#1  walk_around#v#3  0.0982747399001634

greet#v  walk#v
greet#v#1  walk#v#1  0.209919012047456

greet#v  water#v
greet#v#1  water#v#3  0.0920122579652169

headstand  bow#v
headstand#n#1  bow#v#1  0.09356492600445

headstand  dancing#v
headstand#n#1  dance#v#1  0.0868193533986588

headstand  drink#v
headstand#n#1  drink#v#1  0.0345644643305702

headstand  greet#v
headstand#n#1  greet#v#1  0.0499074847684629

headstand  jump#v
headstand#n#1  jump#v#9  0.0958861619252107

headstand  kick#v
headstand#n#1  kick#v#3  0.0543909175073512

headstand  listen#v
headstand#n#1  listen#v#1  0.0346408164521058

headstand  look#v
headstand#n#1  look#v#1  0.055003175895784

headstand  point_out#v
headstand#n#1  point_out#v#1  0.0257107647332257

headstand  pray#v
headstand#n#1  pray#v#1  0.0264945884225641

headstand  punch#v
headstand#n#1  punch#v#2  0.0443510278533581

headstand  rubbing#v
headstand#n#1  rub#v#1  0.0504179937582643

headstand  run#v
headstand#n#1  run#v#3  0.0726658669622136

headstand  walk#v
headstand#n#1  walk#v#1  0.0769048447214501

head#n  amble
head#n#29  amble#v#1  0.193291274555905

head#n  bow#v
head#n#1  bow#v#2  0.235565275188376

head#n  chew
head#n#1  chew#v#1  0.130161828999115

head#n  curtsy
head#n#1  curtsy#v#1  0.0719206887582998

head#n  dancing#v
head#n#1  dance#v#2  0.143983359454602

head#n  drink#v
head#n#18  drink#v#1  0.268710716808069

head#n  greet#v
head#n#33  greet#v#1  0.256057618200895

head#n  headstand
head#n#32  headstand#n#1  0.119182604241858

head#n  huddle#v
head#n#1  huddle#v#2  0.0739668337056046

head#n  jump#v
head#n#24  jump#v#13  0.481084583219407

head#n  kick#v
head#n#33  kick#v#8  0.317897428303132

head#n  listen#v
head#n#23  listen#v#1  0.248249786264283

head#n  look#v
head#n#23  look#v#1  0.25784038250312

head#n  moonwalk#n
head#n#1  moonwalk#n#1  0.0771441183373319

head#n  point_out#v
head#n#23  point_out#v#1  0.152280415567674

head#n  pray#v
head#n#33  pray#v#1  0.307428844330431

head#n  punch#v
head#n#31  punch#v#2  0.355839019110921

head#n  rubbing#v
head#n#1  rub#v#1  0.148354367770883

head#n  run#v
head#n#21  run#v#38  0.560557471114777

head#n  toast
head#n#18  toast#n#4  0.135087531334076

head#n  walk_around
head#n#29  walk_around#v#1  0.185418375638371

head#n  walk#v
head#n#29  walk#v#1  0.192449239871152

head#n  water#v
head#n#27  water#v#2  0.128960851979881

health#n  amble
health#n#1  amble#n#1  0.0557858705111166

health#n  bow#v
health#n#1  bow#v#2  0.0654627861951414

health#n  chew
health#n#1  chew#v#1  0.0745247872148606

health#n  curtsy
health#n#1  curtsy#n#1  0.0415145781282465

health#n  dancing#v
health#n#1  dance#v#2  0.0682126032877191

health#n  drink#v
health#n#1  drink#v#1  0.0896823925964549

health#n  greet#v
health#n#1  greet#v#1  0.093193841179023

health#n  headstand
health#n#2  headstand#n#1  0.0201617925252912

health#n  huddle#v
health#n#1  huddle#v#2  0.0463742249840547

health#n  jump#v
health#n#2  jump#v#7  0.349804007579065

health#n  kick#v
health#n#1  kick#v#8  0.116499327122944

health#n  listen#v
health#n#1  listen#v#1  0.0961627754103301

health#n  look#v
health#n#1  look#v#4  0.234479650818215

health#n  moonwalk#n
health#n#1  moonwalk#n#2  0.0468145176706791

health#n  point_out#v
health#n#1  point_out#v#1  0.0936589485824242

health#n  pray#v
health#n#1  pray#v#1  0.0483158762777592

health#n  punch#v
health#n#1  punch#v#3  0.0427854970382087

health#n  rubbing#v
health#n#1  rub#v#1  0.0830927541817162

health#n  run#v
health#n#1  run#v#12  0.0997730529039141

health#n  toast
health#n#1  toast#n#3  0.084676464401109

health#n  walk_around
health#n#1  walk_around#v#3  0.0617358660259685

health#n  walk#v
health#n#1  walk#v#1  0.134186291808701

health#n  water#v
health#n#1  water#v#3  0.056416449040732

huddle#v  bow#v
huddle#v#2  bow#v#4  0.808266407183727

huddle#v  dancing#v
huddle#v#2  dance#v#2  0.0901850195147289

huddle#v  drink#v
huddle#v#2  drink#v#1  0.0587199471832769

huddle#v  greet#v
huddle#v#2  greet#v#1  0.0841059464887534

huddle#v  jump#v
huddle#v#2  jump#v#1  0.0823094528890491

huddle#v  kick#v
huddle#v#2  kick#v#8  0.0656303407122158

huddle#v  listen#v
huddle#v#2  listen#v#2  0.209989213220605

huddle#v  look#v
huddle#v#2  look#v#1  0.10542520499524

huddle#v  point_out#v
huddle#v#2  point_out#v#1  0.05720302864703

huddle#v  pray#v
huddle#v#2  pray#v#1  0.0625607640174157

huddle#v  punch#v
huddle#v#2  punch#v#2  0.0463058645291035

huddle#v  rubbing#v
huddle#v#2  rub#v#1  0.0902627393752494

huddle#v  run#v
huddle#v#2  run#v#3  0.162722954623633

huddle#v  walk#v
huddle#v#2  walk#v#1  0.112952829672037

in  amble
in#n#1  amble#v#1  0.0713389221350393

in  bow#v
in#a#2  bow#v#4  0.0736872454714092

in  chew
in#n#2  chew#v#1  0.0715200024053877

in  curtsy
in#a#2  curtsy#n#1  0.0453591673144197

in  dancing#v
in#n#1  dance#v#2  0.115653246815647

in  drink#v
in#a#2  drink#v#4  0.430763137607808

in  greet#v
in#n#2  greet#v#3  0.121236575171066

in  headstand
in#n#1  headstand#n#1  0.0363677906384302

in  huddle#v
in#r#1  huddle#v#2  0.0712880652034021

in  jump#v
in#a#3  jump#v#15  0.270754131187033

in  kick#v
in#a#1  kick#v#8  0.100618490827301

in  listen#v
in#a#1  listen#v#1  0.0761265953160516

in  look#v
in#n#2  look#v#2  0.117855883832966

in  moonwalk#n
in#a#2  moonwalk#n#1  0.0572530383083453

in  point_out#v
in#a#2  point_out#v#1  0.0876538494122985

in  pray#v
in#a#2  pray#v#1  0.064097810643606

in  punch#v
in#n#1  punch#v#2  0.0725309532005782

in  rubbing#v
in#n#1  rub#v#1  0.108017250798397

in  run#v
in#r#1  run#v#3  0.320192789602422

in  toast
in#n#3  toast#n#1  0.0913944134879312

in  walk_around
in#n#1  walk_around#v#1  0.0850091636445289

in  walk#v
in#a#2  walk#v#10  0.172971121719854

in  water#v
in#n#2  water#v#2  0.104858517238892

inside  amble
inside#r#4  amble#n#1  0.133430797672124

inside  bow#v
inside#a#1  bow#v#4  0.104202960497518

inside  chew
inside#n#2  chew#v#1  0.0716113272136457

inside  curtsy
inside#a#1  curtsy#n#1  0.0431712767441558

inside  dancing#v
inside#a#1  dance#v#2  0.108755515772615

inside  drink#v
inside#n#1  drink#v#4  0.134315275840524

inside  greet#v
inside#a#1  greet#v#1  0.0818845771433057

inside  headstand
inside#a#1  headstand#n#1  0.0412789759982524

inside  huddle#v
inside#a#1  huddle#v#2  0.0981318779631253

inside  jump#v
inside#n#2  jump#v#1  0.126462070433878

inside  kick#v
inside#a#1  kick#v#8  0.0949910373358761

inside  listen#v
inside#n#1  listen#v#1  0.104003075016346

inside  look#v
inside#a#1  look#v#1  0.136937155693019

inside  moonwalk#n
inside#r#4  moonwalk#n#2  0.136337276855371

inside  point_out#v
inside#a#1  point_out#v#2  0.147295277493564

inside  pray#v
inside#a#3  pray#v#1  0.0497039111696182

inside  punch#v
inside#a#1  punch#v#2  0.0614360736586783

inside  rubbing#v
inside#a#1  rub#v#1  0.247556080851132

inside  run#v
inside#a#1  run#v#3  0.201447036658737

inside  toast
inside#a#1  toast#n#1  0.0705301941949445

inside  walk_around
inside#r#4  walk_around#v#4  0.128961404514576

inside  walk#v
inside#r#4  walk#v#4  0.14818956042909

inside  water#v
inside#a#1  water#v#1  0.0735475588417695

int.#n  amble

int.#n  bow#v

int.#n  chew

int.#n  curtsy

int.#n  dancing#v

int.#n  drink#v

int.#n  greet#v

int.#n  headstand

int.#n  huddle#v

int.#n  jump#v

int.#n  kick#v

int.#n  listen#v

int.#n  look#v

int.#n  moonwalk#n

int.#n  point_out#v

int.#n  pray#v

int.#n  punch#v

int.#n  rubbing#v

int.#n  run#v

int.#n  toast

int.#n  walk_around

int.#n  walk#v

int.#n  water#v

it  amble
it#n#1  amble#v#1  0.0463571292102788

it  bow#v
it#n#1  bow#v#3  0.0429746745809083

it  chew
it#n#1  chew#v#1  0.0633235997601167

it  curtsy
it#n#1  curtsy#n#1  0.0523074207354457

it  dancing#v
it#n#1  dance#v#2  0.0597668839155996

it  drink#v
it#n#1  drink#v#1  0.260541234375578

it  greet#v
it#n#1  greet#v#2  0.369921950421681

it  headstand
it#n#1  headstand#n#1  0.0214120750572664

it  huddle#v
it#n#1  huddle#v#2  0.0320834192110572

it  jump#v
it#n#1  jump#v#1  0.059907652408622

it  kick#v
it#n#1  kick#v#8  0.0826880137918151

it  listen#v
it#n#1  listen#v#1  0.0784637569408323

it  look#v
it#n#1  look#v#1  0.111560091111289

it  moonwalk#n
it#n#1  moonwalk#n#1  0.041417441063214

it  point_out#v
it#n#1  point_out#v#3  0.0720740352251732

it  pray#v
it#n#1  pray#v#1  0.0534258752976629

it  punch#v
it#n#1  punch#v#2  0.0301764907643238

it  rubbing#v
it#n#1  rub#v#1  0.0662648204374095

it  run#v
it#n#1  run#v#3  0.0945818606904883

it  toast
it#n#1  toast#n#3  0.060962959142273

it  walk_around
it#n#1  walk_around#v#1  0.0545605081293245

it  walk#v
it#n#1  walk#v#1  0.102558803882556

it  water#v
it#n#1  water#v#2  0.0685862298160753

its  amble
it#n#1  amble#v#1  0.0463571292102788

its  bow#v
it#n#1  bow#v#3  0.0429746745809083

its  chew
it#n#1  chew#v#1  0.0633235997601167

its  curtsy
it#n#1  curtsy#n#1  0.0523074207354457

its  dancing#v
it#n#1  dance#v#2  0.0597668839155996

its  drink#v
it#n#1  drink#v#1  0.260541234375578

its  greet#v
it#n#1  greet#v#2  0.369921950421681

its  headstand
it#n#1  headstand#n#1  0.0214120750572664

its  huddle#v
it#n#1  huddle#v#2  0.0320834192110572

its  jump#v
it#n#1  jump#v#1  0.059907652408622

its  kick#v
it#n#1  kick#v#8  0.0826880137918151

its  listen#v
it#n#1  listen#v#1  0.0784637569408323

its  look#v
it#n#1  look#v#1  0.111560091111289

its  moonwalk#n
it#n#1  moonwalk#n#1  0.041417441063214

its  point_out#v
it#n#1  point_out#v#3  0.0720740352251732

its  pray#v
it#n#1  pray#v#1  0.0534258752976629

its  punch#v
it#n#1  punch#v#2  0.0301764907643238

its  rubbing#v
it#n#1  rub#v#1  0.0662648204374095

its  run#v
it#n#1  run#v#3  0.0945818606904883

its  toast
it#n#1  toast#n#3  0.060962959142273

its  walk_around
it#n#1  walk_around#v#1  0.0545605081293245

its  walk#v
it#n#1  walk#v#1  0.102558803882556

its  water#v
it#n#1  water#v#2  0.0685862298160753

itself  amble

itself  bow#v

itself  chew

itself  curtsy

itself  dancing#v

itself  drink#v

itself  greet#v

itself  headstand

itself  huddle#v

itself  jump#v

itself  kick#v

itself  listen#v

itself  look#v

itself  moonwalk#n

itself  point_out#v

itself  pray#v

itself  punch#v

itself  rubbing#v

itself  run#v

itself  toast

itself  walk_around

itself  walk#v

itself  water#v

knee#n  amble
knee#n#1  amble#n#1  0.0613155437455449

knee#n  bow#v
knee#n#3  bow#v#1  0.688950007034499

knee#n  chew
knee#n#1  chew#v#1  0.0776848177419896

knee#n  curtsy
knee#n#3  curtsy#v#1  0.126143666771512

knee#n  dancing#v
knee#n#1  dance#v#2  0.142905092634803

knee#n  drink#v
knee#n#1  drink#v#1  0.0800752449778073

knee#n  greet#v
knee#n#1  greet#v#1  0.0823455784323741

knee#n  headstand
knee#n#3  headstand#n#1  0.0935001942589608

knee#n  huddle#v
knee#n#3  huddle#v#2  0.173664646663193

knee#n  jump#v
knee#n#1  jump#v#12  0.267249918397818

knee#n  kick#v
knee#n#1  kick#v#5  0.0885359490823722

knee#n  listen#v
knee#n#1  listen#v#2  0.0734515492819949

knee#n  look#v
knee#n#1  look#v#1  0.111794959106975

knee#n  moonwalk#n
knee#n#1  moonwalk#n#1  0.0642056885939102

knee#n  point_out#v
knee#n#1  point_out#v#1  0.06231780821469

knee#n  pray#v
knee#n#1  pray#v#1  0.0483684237738623

knee#n  punch#v
knee#n#1  punch#v#2  0.0605373962269112

knee#n  rubbing#v
knee#n#1  rub#v#1  0.11717965138127

knee#n  run#v
knee#n#1  run#v#6  0.221919381015792

knee#n  toast
knee#n#1  toast#n#3  0.054292591730425

knee#n  walk_around
knee#n#1  walk_around#v#1  0.0788831334517064

knee#n  walk#v
knee#n#1  walk#v#1  0.152090118256161

knee#n  water#v
knee#n#1  water#v#1  0.100095899949527

leg#n  amble
leg#n#3  amble#v#1  0.0948236302130499

leg#n  bow#v
leg#n#7  bow#v#1  0.481172555063364

leg#n  chew
leg#n#1  chew#v#1  0.136009560701895

leg#n  curtsy
leg#n#1  curtsy#v#1  0.108916936379986

leg#n  dancing#v
leg#n#1  dance#v#2  0.243239635963946

leg#n  drink#v
leg#n#1  drink#v#1  0.124336386581372

leg#n  greet#v
leg#n#1  greet#v#1  0.109468198263843

leg#n  headstand
leg#n#7  headstand#n#1  0.12479611300696

leg#n  huddle#v
leg#n#7  huddle#v#2  0.240655847317942

leg#n  jump#v
leg#n#1  jump#v#5  0.349241904621961

leg#n  kick#v
leg#n#1  kick#v#8  0.120944336587934

leg#n  listen#v
leg#n#1  listen#v#1  0.106838915139656

leg#n  look#v
leg#n#1  look#v#2  0.264099778814456

leg#n  moonwalk#n
leg#n#1  moonwalk#n#1  0.0940352577648626

leg#n  point_out#v
leg#n#1  point_out#v#1  0.0947193133122188

leg#n  pray#v
leg#n#1  pray#v#1  0.067108800113272

leg#n  punch#v
leg#n#3  punch#v#2  0.0991011637598975

leg#n  rubbing#v
leg#n#1  rub#v#1  0.163546640640217

leg#n  run#v
leg#n#4  run#v#40  0.394877923568582

leg#n  toast
leg#n#2  toast#n#3  0.262201140614189

leg#n  walk_around
leg#n#3  walk_around#v#1  0.111164988173967

leg#n  walk#v
leg#n#1  walk#v#1  0.212269777716281

leg#n  water#v
leg#n#1  water#v#1  0.118485901847892

leisurely  amble
leisurely#a#1  amble#n#1  0.166924736081785

leisurely  bow#v
leisurely#r#1  bow#v#4  0.0601412144027619

leisurely  chew
leisurely#a#1  chew#v#1  0.0707871910207959

leisurely  curtsy
leisurely#a#1  curtsy#n#1  0.0382824603343639

leisurely  dancing#v
leisurely#r#1  dance#v#2  0.0936595485837828

leisurely  drink#v
leisurely#r#1  drink#v#1  0.0677102376669155

leisurely  greet#v
leisurely#a#1  greet#v#1  0.0924806666042325

leisurely  headstand
leisurely#a#1  headstand#n#1  0.0321510754901437

leisurely  huddle#v
leisurely#a#1  huddle#v#2  0.0568110198108081

leisurely  jump#v
leisurely#a#1  jump#v#1  0.0920671864437763

leisurely  kick#v
leisurely#a#1  kick#v#8  0.0857214885176552

leisurely  listen#v
leisurely#a#1  listen#v#1  0.0907539572724341

leisurely  look#v
leisurely#a#1  look#v#1  0.120964637166561

leisurely  moonwalk#n
leisurely#r#1  moonwalk#n#2  0.0873213482327469

leisurely  point_out#v
leisurely#a#1  point_out#v#3  0.0727044201906791

leisurely  pray#v
leisurely#a#1  pray#v#2  0.0580530338792712

leisurely  punch#v
leisurely#r#1  punch#v#2  0.0409586581962392

leisurely  rubbing#v
leisurely#r#1  rub#v#1  0.0718812499460208

leisurely  run#v
leisurely#r#1  run#v#1  0.264292821211667

leisurely  toast
leisurely#a#1  toast#n#3  0.0689282702073436

leisurely  walk_around
leisurely#r#1  walk_around#v#1  0.122381789389365

leisurely  walk#v
leisurely#r#1  walk#v#8  0.460277244981454

leisurely  water#v
leisurely#a#1  water#v#4  0.0517734587464218

make#v  amble
make#v#3  amble#v#1  0.250593679341679

make#v  bow#v
make#v#3  bow#v#3  0.157514386337868

make#v  chew
make#v#3  chew#v#1  0.199203914418677

make#v  curtsy
make#v#3  curtsy#n#1  0.121212555166347

make#v  dancing#v
make#v#3  dance#v#2  0.22441690110976

make#v  drink#v
make#v#39  drink#v#1  0.337552504390456

make#v  greet#v
make#v#41  greet#v#1  0.261979606102103

make#v  headstand
make#v#24  headstand#n#1  0.110341685550183

make#v  huddle#v
make#v#3  huddle#v#2  0.120192558464732

make#v  jump#v
make#v#35  jump#v#5  0.824708127476865

make#v  kick#v
make#v#21  kick#v#7  0.842306186120782

make#v  listen#v
make#v#3  listen#v#1  0.226910777173589

make#v  look#v
make#v#31  look#v#3  0.736477721158722

make#v  moonwalk#n
make#v#3  moonwalk#n#1  0.235935546840758

make#v  point_out#v
make#v#3  point_out#v#1  0.233469061779514

make#v  pray#v
make#v#35  pray#v#1  0.265152198899748

make#v  punch#v
make#v#3  punch#v#2  0.117592686364643

make#v  rubbing#v
make#v#3  rub#v#1  0.271107784058795

make#v  run#v
make#v#31  run#v#5  0.979564285654312

make#v  toast
make#v#39  toast#n#4  0.282906333209886

make#v  walk_around
make#v#3  walk_around#v#1  0.2635506412412

make#v  walk#v
make#v#21  walk#v#3  0.960888781109093

make#v  water#v
make#v#46  water#v#3  0.229777701086463

moonwalk#n  bow#v
moonwalk#n#1  bow#v#4  0.0608628960903553

moonwalk#n  dancing#v
moonwalk#n#1  dance#v#2  0.232990214203416

moonwalk#n  drink#v
moonwalk#n#2  drink#v#1  0.0620457468608862

moonwalk#n  greet#v
moonwalk#n#1  greet#v#1  0.0721715113133406

moonwalk#n  jump#v
moonwalk#n#1  jump#v#1  0.113158668426232

moonwalk#n  kick#v
moonwalk#n#2  kick#v#8  0.0666484088964335

moonwalk#n  listen#v
moonwalk#n#1  listen#v#1  0.0664186314021301

moonwalk#n  look#v
moonwalk#n#1  look#v#1  0.231539437860013

moonwalk#n  point_out#v
moonwalk#n#1  point_out#v#3  0.0689270901833659

moonwalk#n  pray#v
moonwalk#n#1  pray#v#1  0.0556789022477703

moonwalk#n  punch#v
moonwalk#n#2  punch#v#2  0.0484834690898901

moonwalk#n  rubbing#v
moonwalk#n#1  rub#v#1  0.0685783779408294

moonwalk#n  run#v
moonwalk#n#2  run#v#23  0.257638067747751

moonwalk#n  walk#v
moonwalk#n#2  walk#v#4  0.769440417868364

nap#n  amble
nap#n#1  amble#v#1  0.0732581368770014

nap#n  bow#v
nap#n#5  bow#v#4  0.107597481148939

nap#n  chew
nap#n#1  chew#v#1  0.0790371619631307

nap#n  curtsy
nap#n#5  curtsy#v#2  0.0496660496239323

nap#n  dancing#v
nap#n#3  dance#v#2  0.105459695939751

nap#n  drink#v
nap#n#1  drink#v#2  0.126522477445133

nap#n  greet#v
nap#n#1  greet#v#1  0.131974352196439

nap#n  headstand
nap#n#3  headstand#n#1  0.0587119741399183

nap#n  huddle#v
nap#n#5  huddle#v#2  0.11472925259773

nap#n  jump#v
nap#n#1  jump#v#5  0.159214639497599

nap#n  kick#v
nap#n#1  kick#v#8  0.141132578479625

nap#n  listen#v
nap#n#1  listen#v#1  0.0914111601188557

nap#n  look#v
nap#n#1  look#v#1  0.291364457048889

nap#n  moonwalk#n
nap#n#5  moonwalk#n#1  0.096913259534651

nap#n  point_out#v
nap#n#1  point_out#v#1  0.0957801314059704

nap#n  pray#v
nap#n#1  pray#v#1  0.0738796121009562

nap#n  punch#v
nap#n#3  punch#v#3  0.100177737257116

nap#n  rubbing#v
nap#n#3  rub#v#1  0.173238520615482

nap#n  run#v
nap#n#1  run#v#30  0.559315116435976

nap#n  toast
nap#n#1  toast#n#1  0.159470007490852

nap#n  walk_around
nap#n#1  walk_around#v#1  0.0906920883685394

nap#n  walk#v
nap#n#4  walk#v#5  0.182238511256004

nap#n  water#v
nap#n#1  water#v#3  0.0679273092027653

nibble#v  amble
nibble#v#3  amble#n#1  0.0967696892823023

nibble#v  bow#v
nibble#v#2  bow#v#3  0.0546252787573136

nibble#v  chew
nibble#v#1  chew#v#1  0.287528451926158

nibble#v  curtsy
nibble#v#2  curtsy#v#2  0.0863365915563863

nibble#v  dancing#v
nibble#v#2  dance#v#2  0.0769930134733565

nibble#v  drink#v
nibble#v#3  drink#v#2  0.274336075956615

nibble#v  greet#v
nibble#v#3  greet#v#1  0.0965771218020032

nibble#v  headstand
nibble#v#2  headstand#n#1  0.0342384949285646

nibble#v  huddle#v
nibble#v#2  huddle#v#2  0.0422233201374741

nibble#v  jump#v
nibble#v#2  jump#v#1  0.103336086998139

nibble#v  kick#v
nibble#v#3  kick#v#8  0.0972606762648484

nibble#v  listen#v
nibble#v#3  listen#v#1  0.0766844740972026

nibble#v  look#v
nibble#v#3  look#v#4  0.125866002665746

nibble#v  moonwalk#n
nibble#v#3  moonwalk#n#2  0.0847269506199781

nibble#v  point_out#v
nibble#v#3  point_out#v#2  0.0828655973202144

nibble#v  pray#v
nibble#v#3  pray#v#1  0.0400707094351863

nibble#v  punch#v
nibble#v#2  punch#v#2  0.071965008837701

nibble#v  rubbing#v
nibble#v#2  rub#v#1  0.106572287460996

nibble#v  run#v
nibble#v#2  run#v#6  0.0904956182661093

nibble#v  toast
nibble#v#3  toast#n#4  0.329253324424666

nibble#v  walk_around
nibble#v#3  walk_around#v#1  0.0861443375589282

nibble#v  walk#v
nibble#v#3  walk#v#1  0.127921292899393

nibble#v  water#v
nibble#v#3  water#v#3  0.251553737518219

nut#n  amble
nut#n#7  amble#v#1  0.0664820202217215

nut#n  bow#v
nut#n#7  bow#v#3  0.0996346180041757

nut#n  chew
nut#n#7  chew#v#1  0.0910549968611723

nut#n  curtsy
nut#n#3  curtsy#v#2  0.0534585379679347

nut#n  dancing#v
nut#n#3  dance#v#2  0.121779182257575

nut#n  drink#v
nut#n#7  drink#v#1  0.111452901314952

nut#n  greet#v
nut#n#7  greet#v#1  0.0868078596211415

nut#n  headstand
nut#n#3  headstand#n#1  0.0618451448946482

nut#n  huddle#v
nut#n#7  huddle#v#2  0.0565193689731185

nut#n  jump#v
nut#n#3  jump#v#1  0.119858914016642

nut#n  kick#v
nut#n#7  kick#v#8  0.187320728616595

nut#n  listen#v
nut#n#7  listen#v#1  0.0771300376749555

nut#n  look#v
nut#n#7  look#v#1  0.145393043880739

nut#n  moonwalk#n
nut#n#3  moonwalk#n#1  0.0622984865894832

nut#n  point_out#v
nut#n#7  point_out#v#1  0.082414091598551

nut#n  pray#v
nut#n#2  pray#v#1  0.237024915337393

nut#n  punch#v
nut#n#7  punch#v#3  0.0767823404572378

nut#n  rubbing#v
nut#n#7  rub#v#1  0.122407359960256

nut#n  run#v
nut#n#7  run#v#6  0.13313183783722

nut#n  toast
nut#n#1  toast#n#1  0.0902493615119119

nut#n  walk_around
nut#n#5  walk_around#v#3  0.153212082851756

nut#n  walk#v
nut#n#7  walk#v#1  0.137917907546501

nut#n  water#v
nut#n#7  water#v#3  0.13741249025916

of  amble

of  bow#v

of  chew

of  curtsy

of  dancing#v

of  drink#v

of  greet#v

of  headstand

of  huddle#v

of  jump#v

of  kick#v

of  listen#v

of  look#v

of  moonwalk#n

of  point_out#v

of  pray#v

of  punch#v

of  rubbing#v

of  run#v

of  toast

of  walk_around

of  walk#v

of  water#v

on  amble
on#r#1  amble#v#1  0.106196562615744

on  bow#v
on#a#1  bow#v#4  0.0434584608105626

on  chew
on#a#1  chew#v#1  0.0529238200974775

on  curtsy
on#a#2  curtsy#v#2  0.0397338192134091

on  dancing#v
on#r#1  dance#v#2  0.092372219127524

on  drink#v
on#a#1  drink#v#1  0.0771796316165656

on  greet#v
on#a#1  greet#v#1  0.0737509771346917

on  headstand
on#r#1  headstand#n#1  0.0863456531465643

on  huddle#v
on#r#1  huddle#v#2  0.0385401931031127

on  jump#v
on#a#1  jump#v#14  0.156540672779653

on  kick#v
on#r#2  kick#v#8  0.0846710138666518

on  listen#v
on#a#2  listen#v#1  0.0846651753046435

on  look#v
on#a#1  look#v#1  0.221615921812554

on  moonwalk#n
on#r#1  moonwalk#n#2  0.07779983131655

on  point_out#v
on#a#2  point_out#v#2  0.0764802218255764

on  pray#v
on#a#1  pray#v#1  0.0453731848991164

on  punch#v
on#r#1  punch#v#2  0.0508703535396896

on  rubbing#v
on#a#1  rub#v#1  0.0789563174217708

on  run#v
on#r#1  run#v#1  0.253268211905033

on  toast
on#a#1  toast#n#1  0.0830528890885804

on  walk_around
on#a#1  walk_around#v#4  0.527518355858261

on  walk#v
on#r#1  walk#v#8  0.448163142720001

on  water#v
on#a#1  water#v#2  0.0897012378521021

perform#v  amble
perform#v#1  amble#v#1  0.11672809612821

perform#v  bow#v
perform#v#1  bow#v#3  0.123121044210265

perform#v  chew
perform#v#1  chew#v#1  0.110463987173589

perform#v  curtsy
perform#v#1  curtsy#n#1  0.084561120563682

perform#v  dancing#v
perform#v#4  dance#v#2  0.215292267945955

perform#v  drink#v
perform#v#1  drink#v#1  0.139974039819801

perform#v  greet#v
perform#v#1  greet#v#1  0.155922683549037

perform#v  headstand
perform#v#1  headstand#n#1  0.101525523259318

perform#v  huddle#v
perform#v#1  huddle#v#2  0.0841461134458457

perform#v  jump#v
perform#v#1  jump#v#1  0.155797509965614

perform#v  kick#v
perform#v#1  kick#v#8  0.179334176766607

perform#v  listen#v
perform#v#1  listen#v#1  0.163334608214022

perform#v  look#v
perform#v#1  look#v#1  0.262592272513633

perform#v  moonwalk#n
perform#v#1  moonwalk#n#1  0.117287155506496

perform#v  point_out#v
perform#v#1  point_out#v#1  0.170041302982291

perform#v  pray#v
perform#v#1  pray#v#1  0.111060273642714

perform#v  punch#v
perform#v#1  punch#v#2  0.0751389104711995

perform#v  rubbing#v
perform#v#1  rub#v#1  0.153774929232664

perform#v  run#v
perform#v#1  run#v#37  0.389811120127628

perform#v  toast
perform#v#1  toast#n#3  0.136260165894602

perform#v  walk_around
perform#v#1  walk_around#v#3  0.152816496496512

perform#v  walk#v
perform#v#3  walk#v#1  0.22559280533642

perform#v  water#v
perform#v#3  water#v#4  0.234647013041856

propose#v  amble
propose#v#1  amble#v#1  0.246173543401779

propose#v  bow#v
propose#v#1  bow#v#2  0.167601507240473

propose#v  chew
propose#v#1  chew#v#1  0.0820026119947171

propose#v  curtsy
propose#v#1  curtsy#n#1  0.0640824959075209

propose#v  dancing#v
propose#v#4  dance#v#2  0.263849854602353

propose#v  drink#v
propose#v#4  drink#v#3  0.372800555415959

propose#v  greet#v
propose#v#4  greet#v#1  0.208267791179599

propose#v  headstand
propose#v#1  headstand#n#1  0.0408621661033443

propose#v  huddle#v
propose#v#4  huddle#v#2  0.072864517654925

propose#v  jump#v
propose#v#3  jump#v#8  0.28882471718116

propose#v  kick#v
propose#v#3  kick#v#8  0.277886861799216

propose#v  listen#v
propose#v#1  listen#v#1  0.153309502034691

propose#v  look#v
propose#v#5  look#v#4  0.276910222268323

propose#v  moonwalk#n
propose#v#1  moonwalk#n#1  0.0782184760411398

propose#v  point_out#v
propose#v#2  point_out#v#1  0.318061958061376

propose#v  pray#v
propose#v#1  pray#v#1  0.113297951771245

propose#v  punch#v
propose#v#1  punch#v#2  0.241891877607506

propose#v  rubbing#v
propose#v#1  rub#v#1  0.110500552499705

propose#v  run#v
propose#v#3  run#v#2  0.390791227260108

propose#v  toast
propose#v#4  toast#v#2  0.372800555415959

propose#v  walk_around
propose#v#1  walk_around#v#1  0.231171499298338

propose#v  walk#v
propose#v#1  walk#v#1  0.26264971654509

propose#v  water#v
propose#v#1  water#v#1  0.0749667830829208

raise#v  amble
raise#v#14  amble#v#1  0.273155315378145

raise#v  bow#v
raise#v#7  bow#v#2  0.351174093389793

raise#v  chew
raise#v#3  chew#v#1  0.261496733077116

raise#v  curtsy
raise#v#10  curtsy#v#2  0.119098975436364

raise#v  dancing#v
raise#v#2  dance#v#2  0.279115887898491

raise#v  drink#v
raise#v#2  drink#v#1  0.144559628206759

raise#v  greet#v
raise#v#24  greet#v#1  0.311615639729313

raise#v  headstand
raise#v#2  headstand#n#1  0.081559113524062

raise#v  huddle#v
raise#v#16  huddle#v#2  0.10413769758437

raise#v  jump#v
raise#v#12  jump#v#7  0.539651465541872

raise#v  kick#v
raise#v#20  kick#v#8  0.352271220928447

raise#v  listen#v
raise#v#10  listen#v#1  0.175547075533355

raise#v  look#v
raise#v#20  look#v#2  0.290836840609343

raise#v  moonwalk#n
raise#v#2  moonwalk#n#1  0.107694808482764

raise#v  point_out#v
raise#v#10  point_out#v#1  0.311339251958705

raise#v  pray#v
raise#v#20  pray#v#1  0.350646649780689

raise#v  punch#v
raise#v#2  punch#v#2  0.16542752049768

raise#v  rubbing#v
raise#v#9  rub#v#1  0.213730465070621

raise#v  run#v
raise#v#8  run#v#26  0.937208243198024

raise#v  toast
raise#v#8  toast#n#3  0.241787666682295

raise#v  walk_around
raise#v#14  walk_around#v#1  0.25720581206102

raise#v  walk#v
raise#v#2  walk#v#1  0.260886840842128

raise#v  water#v
raise#v#5  water#v#1  0.125401384072009

respect#n  amble
respect#n#4  amble#n#1  0.0955575225881586

respect#n  bow#v
respect#n#7  bow#v#2  0.13625788480094

respect#n  chew
respect#n#6  chew#v#1  0.066985604437852

respect#n  curtsy
respect#n#6  curtsy#v#1  0.0706464244253474

respect#n  dancing#v
respect#n#4  dance#v#2  0.100609693871679

respect#n  drink#v
respect#n#4  drink#v#1  0.097436818046961

respect#n  greet#v
respect#n#6  greet#v#1  0.151899113981905

respect#n  headstand
respect#n#4  headstand#n#1  0.105077881123753

respect#n  huddle#v
respect#n#4  huddle#v#2  0.0667446020541862

respect#n  jump#v
respect#n#4  jump#v#9  0.314422300708645

respect#n  kick#v
respect#n#4  kick#v#8  0.131004024736953

respect#n  listen#v
respect#n#1  listen#v#1  0.185999613193668

respect#n  look#v
respect#n#1  look#v#9  0.409123059030951

respect#n  moonwalk#n
respect#n#4  moonwalk#n#1  0.079456879370477

respect#n  point_out#v
respect#n#4  point_out#v#1  0.0935139026265499

respect#n  pray#v
respect#n#4  pray#v#1  0.0737024473524802

respect#n  punch#v
respect#n#4  punch#v#2  0.0561219789290335

respect#n  rubbing#v
respect#n#4  rub#v#1  0.0816957413424582

respect#n  run#v
respect#n#5  run#v#7  0.487766513886295

respect#n  toast
respect#n#4  toast#n#3  0.099823542785398

respect#n  walk_around
respect#n#2  walk_around#v#3  0.0870274362674862

respect#n  walk#v
respect#n#4  walk#v#1  0.149919087236912

respect#n  water#v
respect#n#4  water#v#3  0.0608939962728378

river#n  amble
river#n#1  amble#v#1  0.0646969858572883

river#n  bow#v
river#n#1  bow#v#4  0.0783246076187247

river#n  chew
river#n#1  chew#v#1  0.0781279140375876

river#n  curtsy
river#n#1  curtsy#v#2  0.0485800800734596

river#n  dancing#v
river#n#1  dance#v#2  0.114610835314653

river#n  drink#v
river#n#1  drink#v#1  0.118481774199264

river#n  greet#v
river#n#1  greet#v#1  0.0836528544805301

river#n  headstand
river#n#1  headstand#n#1  0.0291303283895804

river#n  huddle#v
river#n#1  huddle#v#1  0.0849937921323001

river#n  jump#v
river#n#1  jump#v#9  0.17303309060578

river#n  kick#v
river#n#1  kick#v#8  0.0891074922649123

river#n  listen#v
river#n#1  listen#v#1  0.0680006148191784

river#n  look#v
river#n#1  look#v#1  0.164668576453539

river#n  moonwalk#n
river#n#1  moonwalk#n#1  0.0681682074439337

river#n  point_out#v
river#n#1  point_out#v#3  0.0716439649445313

river#n  pray#v
river#n#1  pray#v#1  0.0781075329852707

river#n  punch#v
river#n#1  punch#v#3  0.0734894887465314

river#n  rubbing#v
river#n#1  rub#v#1  0.111442924507146

river#n  run#v
river#n#1  run#v#18  0.229833232336106

river#n  toast
river#n#1  toast#n#1  0.132787921319234

river#n  walk_around
river#n#1  walk_around#v#1  0.0763242947258217

river#n  walk#v
river#n#1  walk#v#1  0.22913747269027

river#n  water#v
river#n#1  water#v#1  0.124276762414096

savana#n  amble

savana#n  bow#v

savana#n  chew

savana#n  curtsy

savana#n  dancing#v

savana#n  drink#v

savana#n  greet#v

savana#n  headstand

savana#n  huddle#v

savana#n  jump#v

savana#n  kick#v

savana#n  listen#v

savana#n  look#v

savana#n  moonwalk#n

savana#n  point_out#v

savana#n  pray#v

savana#n  punch#v

savana#n  rubbing#v

savana#n  run#v

savana#n  toast

savana#n  walk_around

savana#n  walk#v

savana#n  water#v

sequence#n  amble
sequence#n#2  amble#v#1  0.0953024582553289

sequence#n  bow#v
sequence#n#2  bow#v#3  0.0844563495050613

sequence#n  chew
sequence#n#2  chew#v#1  0.0952526389200688

sequence#n  curtsy
sequence#n#2  curtsy#n#1  0.0551668855855292

sequence#n  dancing#v
sequence#n#2  dance#v#2  0.142481205279952

sequence#n  drink#v
sequence#n#5  drink#v#3  0.304888118640743

sequence#n  greet#v
sequence#n#2  greet#v#1  0.120374916133139

sequence#n  headstand
sequence#n#2  headstand#n#1  0.0463326501126666

sequence#n  huddle#v
sequence#n#4  huddle#v#2  0.0775931468317651

sequence#n  jump#v
sequence#n#2  jump#v#13  0.378912490439637

sequence#n  kick#v
sequence#n#2  kick#v#8  0.141950333990158

sequence#n  listen#v
sequence#n#2  listen#v#1  0.118290372373057

sequence#n  look#v
sequence#n#2  look#v#1  0.333556638738211

sequence#n  moonwalk#n
sequence#n#5  moonwalk#n#1  0.524525665259119

sequence#n  point_out#v
sequence#n#2  point_out#v#1  0.119891754455832

sequence#n  pray#v
sequence#n#2  pray#v#1  0.0824074283119396

sequence#n  punch#v
sequence#n#2  punch#v#3  0.0700750641349336

sequence#n  rubbing#v
sequence#n#2  rub#v#1  0.13940871080467

sequence#n  run#v
sequence#n#2  run#v#17  0.188190398561522

sequence#n  toast
sequence#n#5  toast#v#2  0.304888118640743

sequence#n  walk_around
sequence#n#2  walk_around#v#1  0.105203504596731

sequence#n  walk#v
sequence#n#2  walk#v#1  0.203010056244059

sequence#n  water#v
sequence#n#2  water#v#1  0.110877809696078

show#n  amble
show#n#1  amble#n#1  0.0983260497355744

show#n  bow#v
show#n#3  bow#v#3  0.104022591563489

show#n  chew
show#n#1  chew#n#2  0.0911613611589173

show#n  curtsy
show#n#2  curtsy#n#1  0.300987540800725

show#n  dancing#v
show#n#3  dance#v#3  0.200896230233527

show#n  drink#v
show#n#2  drink#v#1  0.136547906480481

show#n  greet#v
show#n#3  greet#v#1  0.141047425568046

show#n  headstand
show#n#1  headstand#n#1  0.0883750368810328

show#n  huddle#v
show#n#3  huddle#v#2  0.0725339050925271

show#n  jump#v
show#n#4  jump#v#5  0.265251487877288

show#n  kick#v
show#n#1  kick#v#8  0.148736620795242

show#n  listen#v
show#n#1  listen#v#1  0.150386267612334

show#n  look#v
show#n#4  look#v#2  0.413880192608457

show#n  moonwalk#n
show#n#3  moonwalk#n#1  0.33751059663889

show#n  point_out#v
show#n#1  point_out#v#1  0.159297730814489

show#n  pray#v
show#n#2  pray#v#1  0.232771810672913

show#n  punch#v
show#n#3  punch#v#2  0.0583226775682616

show#n  rubbing#v
show#n#3  rub#v#1  0.111200186538622

show#n  run#v
show#n#2  run#v#32  0.24617382629568

show#n  toast
show#n#2  toast#n#3  0.110722724447024

show#n  walk_around
show#n#3  walk_around#v#1  0.101819440604937

show#n  walk#v
show#n#2  walk#v#2  0.238271670617739

show#n  water#v
show#n#3  water#v#4  0.101170777018274

sign#n  amble
sign#n#3  amble#v#1  0.117591468465806

sign#n  bow#v
sign#n#9  bow#v#3  0.292981260955574

sign#n  chew
sign#n#3  chew#v#1  0.130780785459153

sign#n  curtsy
sign#n#9  curtsy#n#1  0.883053890047918

sign#n  dancing#v
sign#n#3  dance#v#2  0.22665942395706

sign#n  drink#v
sign#n#3  drink#v#1  0.154055419722926

sign#n  greet#v
sign#n#9  greet#v#1  0.251603880504539

sign#n  headstand
sign#n#3  headstand#n#1  0.0694334188184123

sign#n  huddle#v
sign#n#3  huddle#v#2  0.0925837041392804

sign#n  jump#v
sign#n#3  jump#v#1  0.178502686879211

sign#n  kick#v
sign#n#3  kick#v#8  0.192572068666509

sign#n  listen#v
sign#n#3  listen#v#1  0.182616396058461

sign#n  look#v
sign#n#3  look#v#1  0.257896004034917

sign#n  moonwalk#n
sign#n#3  moonwalk#n#1  0.117235168015743

sign#n  point_out#v
sign#n#3  point_out#v#1  0.176550990493562

sign#n  pray#v
sign#n#9  pray#v#1  0.373653496454857

sign#n  punch#v
sign#n#3  punch#v#2  0.0934825033753901

sign#n  rubbing#v
sign#n#7  rub#v#1  0.197186321933556

sign#n  run#v
sign#n#6  run#v#13  0.375374539685117

sign#n  toast
sign#n#3  toast#n#3  0.152810744503221

sign#n  walk_around
sign#n#3  walk_around#v#3  0.133677468736234

sign#n  walk#v
sign#n#3  walk#v#1  0.263445471134488

sign#n  water#v
sign#n#3  water#v#2  0.123288158857758

slide#v  amble
slide#v#1  amble#v#1  0.100165300969605

slide#v  bow#v
slide#v#1  bow#v#4  0.11700859018719

slide#v  chew
slide#v#1  chew#v#1  0.0966678849904381

slide#v  curtsy
slide#v#1  curtsy#v#1  0.0786844677332139

slide#v  dancing#v
slide#v#3  dance#v#2  0.241362751496446

slide#v  drink#v
slide#v#2  drink#v#1  0.100931993969229

slide#v  greet#v
slide#v#2  greet#v#1  0.100424029919465

slide#v  headstand
slide#v#1  headstand#n#1  0.0603914578871919

slide#v  huddle#v
slide#v#1  huddle#v#2  0.101233524668351

slide#v  jump#v
slide#v#2  jump#v#9  0.629900291416194

slide#v  kick#v
slide#v#3  kick#v#8  0.131067078199057

slide#v  listen#v
slide#v#1  listen#v#2  0.2389476735991

slide#v  look#v
slide#v#3  look#v#1  0.167602721849925

slide#v  moonwalk#n
slide#v#1  moonwalk#n#1  0.100599053971865

slide#v  point_out#v
slide#v#3  point_out#v#1  0.112043565732104

slide#v  pray#v
slide#v#2  pray#v#1  0.0921815065379944

slide#v  punch#v
slide#v#1  punch#v#2  0.0963721530857808

slide#v  rubbing#v
slide#v#1  rub#v#1  0.11185914347075

slide#v  run#v
slide#v#3  run#v#26  0.969234170447214

slide#v  toast
slide#v#3  toast#n#3  0.25378491251216

slide#v  walk_around
slide#v#1  walk_around#v#1  0.11025753691444

slide#v  walk#v
slide#v#2  walk#v#10  0.630733032354737

slide#v  water#v
slide#v#2  water#v#4  0.0957112776721327

some  amble
some#a#1  amble#v#1  0.0848432357086971

some  bow#v
some#a#1  bow#v#4  0.100029069987372

some  chew
some#a#4  chew#n#2  0.119493702704245

some  curtsy
some#a#4  curtsy#n#1  0.0865726790553802

some  dancing#v
some#a#1  dance#v#2  0.123172402957917

some  drink#v
some#r#1  drink#v#1  0.158008380753217

some  greet#v
some#a#1  greet#v#1  0.154769920611573

some  headstand
some#a#4  headstand#n#1  0.0447978000797164

some  huddle#v
some#a#1  huddle#v#2  0.0981339925815976

some  jump#v
some#a#1  jump#v#1  0.126413974755821

some  kick#v
some#a#1  kick#v#8  0.140363390471803

some  listen#v
some#a#1  listen#v#1  0.126420295918665

some  look#v
some#a#3  look#v#10  0.323268892555964

some  moonwalk#n
some#a#1  moonwalk#n#1  0.0859777258872989

some  point_out#v
some#a#1  point_out#v#1  0.137439383508223

some  pray#v
some#a#1  pray#v#1  0.100518112809512

some  punch#v
some#a#1  punch#v#2  0.0703228722771953

some  rubbing#v
some#a#1  rub#v#1  0.123912287889054

some  run#v
some#a#3  run#v#5  0.376652358213288

some  toast
some#a#1  toast#n#3  0.121517132099159

some  walk_around
some#a#4  walk_around#v#3  0.126255383456862

some  walk#v
some#a#1  walk#v#1  0.194917247368652

some  water#v
some#a#1  water#v#1  0.0840303790849717

step#n  amble
step#n#7  amble#n#1  0.391493430522694

step#n  bow#v
step#n#10  bow#v#5  0.114333588557835

step#n  chew
step#n#3  chew#n#2  0.296410964384819

step#n  curtsy
step#n#10  curtsy#n#1  0.0763236911987732

step#n  dancing#v
step#n#10  dance#v#2  0.372046041975428

step#n  drink#v
step#n#3  drink#v#1  0.0905989829418589

step#n  greet#v
step#n#3  greet#v#1  0.106871316813701

step#n  headstand
step#n#11  headstand#n#1  0.115543292929023

step#n  huddle#v
step#n#4  huddle#v#2  0.0829066884610183

step#n  jump#v
step#n#5  jump#v#7  0.356932335301992

step#n  kick#v
step#n#9  kick#v#3  0.123666478459399

step#n  listen#v
step#n#3  listen#v#1  0.124627595458542

step#n  look#v
step#n#7  look#v#8  0.235887847714219

step#n  moonwalk#n
step#n#11  moonwalk#n#1  0.856950580617498

step#n  point_out#v
step#n#1  point_out#v#1  0.133812578961493

step#n  pray#v
step#n#3  pray#v#1  0.0597292457814444

step#n  punch#v
step#n#4  punch#v#2  0.114183116494532

step#n  rubbing#v
step#n#3  rub#v#1  0.115392701121465

step#n  run#v
step#n#7  run#v#14  0.402137912990748

step#n  toast
step#n#3  toast#n#3  0.0902378435175056

step#n  walk_around
step#n#3  walk_around#v#1  0.392111264742932

step#n  walk#v
step#n#2  walk#v#8  0.481746798830878

step#n  water#v
step#n#3  water#v#1  0.0829711001133817

stretch#v  amble
stretch#v#1  amble#n#1  0.134417636072262

stretch#v  bow#v
stretch#v#7  bow#v#5  0.440024989971647

stretch#v  chew
stretch#v#10  chew#v#1  0.11733429201824

stretch#v  curtsy
stretch#v#7  curtsy#n#1  0.208762835635742

stretch#v  dancing#v
stretch#v#11  dance#v#1  0.622972173519545

stretch#v  drink#v
stretch#v#9  drink#v#2  0.178830060734324

stretch#v  greet#v
stretch#v#6  greet#v#1  0.202156641348495

stretch#v  headstand
stretch#v#7  headstand#n#1  0.0978783319760229

stretch#v  huddle#v
stretch#v#5  huddle#v#2  0.0852340406442098

stretch#v  jump#v
stretch#v#11  jump#v#8  0.510026015716562

stretch#v  kick#v
stretch#v#10  kick#v#8  0.230226209159088

stretch#v  listen#v
stretch#v#9  listen#v#1  0.198227366463156

stretch#v  look#v
stretch#v#1  look#v#5  0.512793239002593

stretch#v  moonwalk#n
stretch#v#1  moonwalk#n#2  0.125226956169716

stretch#v  point_out#v
stretch#v#8  point_out#v#1  0.104127333672063

stretch#v  pray#v
stretch#v#2  pray#v#1  0.0576727458018408

stretch#v  punch#v
stretch#v#7  punch#v#2  0.12295577820478

stretch#v  rubbing#v
stretch#v#10  rub#v#1  0.118037319088542

stretch#v  run#v
stretch#v#11  run#v#6  0.286999690559794

stretch#v  toast
stretch#v#10  toast#n#1  0.221323837572541

stretch#v  walk_around
stretch#v#1  walk_around#v#1  0.147862024059449

stretch#v  walk#v
stretch#v#6  walk#v#1  0.197812874697931

stretch#v  water#v
stretch#v#4  water#v#1  0.0841497373495955

stroll#n  amble
stroll#n#1  amble#n#1  0.999999999999994

stroll#n  bow#v
stroll#n#1  bow#v#4  0.0605583223091159

stroll#n  chew
stroll#n#1  chew#v#1  0.0711233537359699

stroll#n  curtsy
stroll#n#1  curtsy#n#1  0.0340774644190043

stroll#n  dancing#v
stroll#n#1  dance#v#2  0.114684881876104

stroll#n  drink#v
stroll#n#1  drink#v#1  0.0816249998156352

stroll#n  greet#v
stroll#n#1  greet#v#1  0.0789212306669054

stroll#n  headstand
stroll#n#1  headstand#n#1  0.0361284140208807

stroll#n  huddle#v
stroll#n#1  huddle#v#2  0.0391340208674969

stroll#n  jump#v
stroll#n#1  jump#v#1  0.101213671029794

stroll#n  kick#v
stroll#n#1  kick#v#8  0.081088236900933

stroll#n  listen#v
stroll#n#1  listen#v#1  0.0728567188481302

stroll#n  look#v
stroll#n#1  look#v#6  0.162797013073241

stroll#n  moonwalk#n
stroll#n#1  moonwalk#n#2  0.832528405400895

stroll#n  point_out#v
stroll#n#1  point_out#v#1  0.0673998058359311

stroll#n  pray#v
stroll#n#1  pray#v#2  0.0425828365690461

stroll#n  punch#v
stroll#n#1  punch#v#2  0.0527152399725825

stroll#n  rubbing#v
stroll#n#1  rub#v#1  0.0730024836751378

stroll#n  run#v
stroll#n#1  run#v#23  0.268217358036292

stroll#n  toast
stroll#n#1  toast#n#3  0.0858666471026597

stroll#n  walk_around
stroll#n#1  walk_around#v#4  0.519861806623129

stroll#n  walk#v
stroll#n#1  walk#v#4  0.716938946478538

stroll#n  water#v
stroll#n#1  water#v#4  0.0703034225719199

suck#v  amble
suck#v#6  amble#v#1  0.0704707599060473

suck#v  bow#v
suck#v#6  bow#v#3  0.071691426101256

suck#v  chew
suck#v#1  chew#v#1  0.177573187828454

suck#v  curtsy
suck#v#6  curtsy#n#1  0.0448681297897302

suck#v  dancing#v
suck#v#6  dance#v#2  0.0974369497380471

suck#v  drink#v
suck#v#1  drink#v#1  0.605678303623926

suck#v  greet#v
suck#v#4  greet#v#1  0.0720874711775852

suck#v  headstand
suck#v#3  headstand#n#1  0.0480833898523612

suck#v  huddle#v
suck#v#7  huddle#v#2  0.0509075363067128

suck#v  jump#v
suck#v#6  jump#v#1  0.135184955138549

suck#v  kick#v
suck#v#3  kick#v#8  0.108078690751049

suck#v  listen#v
suck#v#3  listen#v#1  0.0794783888266574

suck#v  look#v
suck#v#4  look#v#3  0.697690805714821

suck#v  moonwalk#n
suck#v#6  moonwalk#n#1  0.0492259208066369

suck#v  point_out#v
suck#v#6  point_out#v#1  0.102117814690901

suck#v  pray#v
suck#v#3  pray#v#2  0.0599685629476161

suck#v  punch#v
suck#v#6  punch#v#2  0.0692609512398423

suck#v  rubbing#v
suck#v#6  rub#v#1  0.293471781404123

suck#v  run#v
suck#v#4  run#v#5  0.918751559952336

suck#v  toast
suck#v#3  toast#n#3  0.0805041542406418

suck#v  walk_around
suck#v#6  walk_around#v#1  0.0777284870281714

suck#v  walk#v
suck#v#2  walk#v#1  0.199884083426033

suck#v  water#v
suck#v#5  water#v#3  0.172887883333248

surrounding#n  amble

surrounding#n  bow#v

surrounding#n  chew

surrounding#n  curtsy

surrounding#n  dancing#v

surrounding#n  drink#v

surrounding#n  greet#v

surrounding#n  headstand

surrounding#n  huddle#v

surrounding#n  jump#v

surrounding#n  kick#v

surrounding#n  listen#v

surrounding#n  look#v

surrounding#n  moonwalk#n

surrounding#n  point_out#v

surrounding#n  pray#v

surrounding#n  punch#v

surrounding#n  rubbing#v

surrounding#n  run#v

surrounding#n  toast

surrounding#n  walk_around

surrounding#n  walk#v

surrounding#n  water#v

take#v  amble
take#v#1  amble#v#1  0.328890090481717

take#v  bow#v
take#v#15  bow#v#2  0.338809280569182

take#v  chew
take#v#29  chew#v#1  0.298096946302602

take#v  curtsy
take#v#17  curtsy#n#1  0.102171885818544

take#v  dancing#v
take#v#22  dance#v#1  0.482628388262493

take#v  drink#v
take#v#18  drink#v#2  0.505586726573084

take#v  greet#v
take#v#7  greet#v#2  0.290104061272113

take#v  headstand
take#v#17  headstand#n#1  0.0795769510710774

take#v  huddle#v
take#v#17  huddle#v#2  0.125038430631729

take#v  jump#v
take#v#5  jump#v#7  0.453592278307544

take#v  kick#v
take#v#39  kick#v#6  0.643831081169285

take#v  listen#v
take#v#17  listen#v#1  0.192551974539077

take#v  look#v
take#v#38  look#v#3  0.707735883295884

take#v  moonwalk#n
take#v#1  moonwalk#n#2  0.141672722455411

take#v  point_out#v
take#v#20  point_out#v#1  0.322082483522773

take#v  pray#v
take#v#6  pray#v#1  0.306963650311815

take#v  punch#v
take#v#17  punch#v#2  0.166933481624244

take#v  rubbing#v
take#v#17  rub#v#1  0.348806095335271

take#v  run#v
take#v#38  run#v#5  0.93535975895054

take#v  toast
take#v#11  toast#v#2  0.267635640342671

take#v  walk_around
take#v#1  walk_around#v#1  0.332594335410296

take#v  walk#v
take#v#17  walk#v#1  0.324148599942841

take#v  water#v
take#v#12  water#v#4  0.319724673906074

the  amble

the  bow#v

the  chew

the  curtsy

the  dancing#v

the  drink#v

the  greet#v

the  headstand

the  huddle#v

the  jump#v

the  kick#v

the  listen#v

the  look#v

the  moonwalk#n

the  point_out#v

the  pray#v

the  punch#v

the  rubbing#v

the  run#v

the  toast

the  walk_around

the  walk#v

the  water#v

then  amble
then#r#1  amble#v#1  0.050351668862245

then  bow#v
then#r#1  bow#v#4  0.0660194783341687

then  chew
then#r#1  chew#v#1  0.076138535454936

then  curtsy
then#a#1  curtsy#v#2  0.0462492266769328

then  dancing#v
then#r#1  dance#v#2  0.0886517358138373

then  drink#v
then#n#1  drink#v#1  0.0908130824403487

then  greet#v
then#a#1  greet#v#1  0.0890472093633442

then  headstand
then#r#1  headstand#n#1  0.0461209996598264

then  huddle#v
then#r#1  huddle#v#2  0.0656016062027907

then  jump#v
then#r#2  jump#v#8  0.343542611290887

then  kick#v
then#r#2  kick#v#8  0.104626039860549

then  listen#v
then#r#2  listen#v#1  0.099897694895216

then  look#v
then#r#2  look#v#1  0.216991041685695

then  moonwalk#n
then#r#3  moonwalk#n#1  0.14982125623466

then  point_out#v
then#a#1  point_out#v#1  0.108587519887475

then  pray#v
then#a#1  pray#v#1  0.0578718617890295

then  punch#v
then#r#1  punch#v#2  0.0484972273105534

then  rubbing#v
then#a#1  rub#v#1  0.080656685026106

then  run#v
then#r#2  run#v#2  0.43971006900391

then  toast
then#r#1  toast#n#1  0.337567677786068

then  walk_around
then#a#1  walk_around#v#3  0.0593186433546301

then  walk#v
then#r#1  walk#v#1  0.129769472672668

then  water#v
then#r#1  water#v#1  0.054949985664877

to  amble

to  bow#v

to  chew

to  curtsy

to  dancing#v

to  drink#v

to  greet#v

to  headstand

to  huddle#v

to  jump#v

to  kick#v

to  listen#v

to  look#v

to  moonwalk#n

to  point_out#v

to  pray#v

to  punch#v

to  rubbing#v

to  run#v

to  toast

to  walk_around

to  walk#v

to  water#v

toast  bow#v
toast#n#1  bow#v#4  0.070138431574068

toast  dancing#v
toast#n#3  dance#v#2  0.0900080844321224

toast  drink#v
toast#v#2  drink#v#3  0.999999999999995

toast  greet#v
toast#v#2  greet#v#1  0.31549916152076

toast  jump#v
toast#n#3  jump#v#14  0.10017990609504

toast  kick#v
toast#n#3  kick#v#8  0.1558097372194

toast  listen#v
toast#n#3  listen#v#1  0.12452665828021

toast  look#v
toast#n#3  look#v#4  0.21404266794587

toast  point_out#v
toast#n#3  point_out#v#1  0.116357108212541

toast  pray#v
toast#n#3  pray#v#1  0.0708850149257979

toast  punch#v
toast#n#1  punch#v#3  0.0535856570310635

toast  rubbing#v
toast#n#1  rub#v#1  0.111914291486827

toast  run#v
toast#v#1  run#v#39  0.340882923932478

toast  walk#v
toast#n#3  walk#v#1  0.211530869686147

visitor#n  amble
visitor#n#1  amble#n#1  0.0570513261080956

visitor#n  bow#v
visitor#n#1  bow#v#4  0.0608752261105593

visitor#n  chew
visitor#n#1  chew#v#1  0.0444897322956928

visitor#n  curtsy
visitor#n#1  curtsy#n#1  0.0419232630236026

visitor#n  dancing#v
visitor#n#1  dance#v#2  0.0737790790183815

visitor#n  drink#v
visitor#n#1  drink#v#4  0.147787844119787

visitor#n  greet#v
visitor#n#1  greet#v#1  0.072529676359264

visitor#n  headstand
visitor#n#1  headstand#n#1  0.0210388898018293

visitor#n  huddle#v
visitor#n#1  huddle#v#2  0.0609757561430036

visitor#n  jump#v
visitor#n#1  jump#v#15  0.0952792256429677

visitor#n  kick#v
visitor#n#1  kick#v#8  0.0686594238023422

visitor#n  listen#v
visitor#n#1  listen#v#1  0.0973853990999818

visitor#n  look#v
visitor#n#1  look#v#1  0.129693616827104

visitor#n  moonwalk#n
visitor#n#1  moonwalk#n#1  0.0438157373134229

visitor#n  point_out#v
visitor#n#1  point_out#v#1  0.0880510912496603

visitor#n  pray#v
visitor#n#1  pray#v#1  0.0555322097812594

visitor#n  punch#v
visitor#n#1  punch#v#2  0.0305616563409421

visitor#n  rubbing#v
visitor#n#1  rub#v#1  0.0688030252792893

visitor#n  run#v
visitor#n#1  run#v#17  0.111675857679452

visitor#n  toast
visitor#n#1  toast#n#3  0.0620298781691496

visitor#n  walk_around
visitor#n#1  walk_around#v#1  0.0602046608762663

visitor#n  walk#v
visitor#n#1  walk#v#1  0.121946456709864

visitor#n  water#v
visitor#n#1  water#v#1  0.0621965217262297

walk_around  bow#v
walk_around#v#1  bow#v#4  0.0808695821025042

walk_around  dancing#v
walk_around#v#1  dance#v#2  0.13105631979835

walk_around  drink#v
walk_around#v#1  drink#v#1  0.087754683005549

walk_around  greet#v
walk_around#v#3  greet#v#1  0.0982747399001634

walk_around  jump#v
walk_around#v#1  jump#v#4  0.386494181219393

walk_around  kick#v
walk_around#v#1  kick#v#8  0.115357958830514

walk_around  listen#v
walk_around#v#3  listen#v#1  0.0983151590431429

walk_around  look#v
walk_around#v#4  look#v#1  0.209658251705979

walk_around  point_out#v
walk_around#v#3  point_out#v#1  0.0968243625699654

walk_around  pray#v
walk_around#v#3  pray#v#1  0.0577277559802876

walk_around  punch#v
walk_around#v#1  punch#v#2  0.0785449709659641

walk_around  rubbing#v
walk_around#v#1  rub#v#1  0.102796157164126

walk_around  run#v
walk_around#v#1  run#v#23  0.254861906689917

walk_around  walk#v
walk_around#v#4  walk#v#4  0.620280952134928

water#v  bow#v
water#v#3  bow#v#3  0.271460465502934

water#v  dancing#v
water#v#4  dance#v#2  0.0887336448672243

water#v  drink#v
water#v#3  drink#v#2  0.230173256535701

water#v  greet#v
water#v#3  greet#v#1  0.0920122579652169

water#v  jump#v
water#v#1  jump#v#1  0.128299512990149

water#v  kick#v
water#v#3  kick#v#8  0.0976166443616641

water#v  listen#v
water#v#1  listen#v#1  0.081578834308307

water#v  look#v
water#v#3  look#v#1  0.118687588618862

water#v  point_out#v
water#v#3  point_out#v#1  0.0608979823101209

water#v  pray#v
water#v#3  pray#v#1  0.0436507966590973

water#v  punch#v
water#v#4  punch#v#1  0.0518006949347595

water#v  rubbing#v
water#v#1  rub#v#1  0.111381153158977

water#v  run#v
water#v#4  run#v#6  0.311156755299898

water#v  walk#v
water#v#1  walk#v#1  0.232829504212678

water#n  amble
water#n#2  amble#v#1  0.0913281021439006

water#n  bow#v
water#n#2  bow#v#3  0.107872272297689

water#n  chew
water#n#2  chew#v#1  0.120590770588524

water#n  curtsy
water#n#2  curtsy#n#1  0.0669881463082682

water#n  dancing#v
water#n#2  dance#v#2  0.148382965421714

water#n  drink#v
water#n#2  drink#v#1  0.177719059450453

water#n  greet#v
water#n#2  greet#v#1  0.112403025616568

water#n  headstand
water#n#2  headstand#n#1  0.0639406810608861

water#n  huddle#v
water#n#2  huddle#v#2  0.0953358317671196

water#n  jump#v
water#n#2  jump#v#9  0.22990815663839

water#n  kick#v
water#n#2  kick#v#8  0.145055461711963

water#n  listen#v
water#n#2  listen#v#1  0.114381090428837

water#n  look#v
water#n#3  look#v#1  0.228880229562833

water#n  moonwalk#n
water#n#2  moonwalk#n#2  0.0792232571743085

water#n  point_out#v
water#n#2  point_out#v#1  0.101534534996272

water#n  pray#v
water#n#1  pray#v#1  0.0800655628495982

water#n  punch#v
water#n#1  punch#v#3  0.082248924270389

water#n  rubbing#v
water#n#2  rub#v#1  0.163726318200835

water#n  run#v
water#n#2  run#v#6  0.294421631369514

water#n  toast
water#n#1  toast#n#1  0.112151861384172

water#n  walk_around
water#n#2  walk_around#v#1  0.110782929351717

water#n  walk#v
water#n#2  walk#v#1  0.243768781066797

water#n  water#v
water#n#1  water#v#3  0.177197830312044

wine#n  amble
wine#n#1  amble#v#1  0.0515694794582425

wine#n  bow#v
wine#n#1  bow#v#3  0.0794527149502309

wine#n  chew
wine#n#1  chew#v#1  0.11215122330191

wine#n  curtsy
wine#n#1  curtsy#v#1  0.0336269976348464

wine#n  dancing#v
wine#n#1  dance#v#2  0.0943718492155786

wine#n  drink#v
wine#n#1  drink#v#1  0.217645511715979

wine#n  greet#v
wine#n#1  greet#v#1  0.0625551422297764

wine#n  headstand
wine#n#1  headstand#n#1  0.0206064118671746

wine#n  huddle#v
wine#n#1  huddle#v#2  0.0428163914197159

wine#n  jump#v
wine#n#1  jump#v#1  0.126863348170832

wine#n  kick#v
wine#n#1  kick#v#8  0.0784241790173453

wine#n  listen#v
wine#n#1  listen#v#1  0.0564688325401315

wine#n  look#v
wine#n#1  look#v#4  0.117414075000587

wine#n  moonwalk#n
wine#n#1  moonwalk#n#1  0.0370188400466019

wine#n  point_out#v
wine#n#1  point_out#v#1  0.0568330972562659

wine#n  pray#v
wine#n#1  pray#v#1  0.0377186287638305

wine#n  punch#v
wine#n#1  punch#v#3  0.101976105796516

wine#n  rubbing#v
wine#n#1  rub#v#1  0.142042982817642

wine#n  run#v
wine#n#1  run#v#25  0.152493018407015

wine#n  toast
wine#n#1  toast#n#1  0.159083907647555

wine#n  walk_around
wine#n#1  walk_around#v#1  0.0582846199601406

wine#n  walk#v
wine#n#1  walk#v#1  0.121190985946357

wine#n  water#v
wine#n#1  water#v#1  0.0844092259929637

without  amble

without  bow#v

without  chew

without  curtsy

without  dancing#v

without  drink#v

without  greet#v

without  headstand

without  huddle#v

without  jump#v

without  kick#v

without  listen#v

without  look#v

without  moonwalk#n

without  point_out#v

without  pray#v

without  punch#v

without  rubbing#v

without  run#v

without  toast

without  walk_around

without  walk#v

without  water#v

