unscrew,Slot_screw,flat-blade_screwdriver
remove,cover,hand
unscrew,Allen_screw,Allen_screwdriver
replace,bulb,hand
screw,Allen_screw,Allen_screwdriver
assemble,cover,hand
screw,Slot_screw,flat-blade_screwdriver
remove,seat,hand
remove,cover,hand
unscrew,Finger_screw,hand
remove,filter,hand
clean,filter,cloth
assemble,filter,hand
screw,Finger_screw,hand
put_back,cover,hand
assemble,seat,hand
remove,seat,hand
remove,cover,hand
unscrew,Finger_screw,hand
remove,filter,hand
clean,filter,cloth
assemble,filter,hand
screw,Finger_screw,hand
put_back,cover,hand
assemble,seat,hand
unscrew,Slot_screw,flat-blade_screwdriver
remove,cover,hand
remove,seat,hand
remove,cover,hand
unscrew,Allen_screw,Allen_screwdriver
replace,bulb,hand
screw,Allen_screw,Allen_screwdriver
assemble,cover,hand
screw,Slot_screw,flat-blade_screwdriver
unscrew,Finger_screw,hand
remove,filter,hand
clean,filter,cloth
assemble,filter,hand
screw,Finger_screw,hand
put_back,cover,hand
assemble,seat,hand