remove,seat,hand
NO_VERB, NO_OBJ, NO_STRUM
unscrew,Phillips_screw,Phillips_screwdriver
NO_VERB,filter, NO_STRUM
NO_VERB,filter, NO_STRUM
assemble,filter,hand
NO_VERB,Phillips_screw, NO_STRUM
put_back, NO_OBJ, NO_STRUM
assemble,seat,hand
unscrew,Phillips_screw,Phillips_screwdriver
remove,cover,hand
NO_VERB,Phillips_screw, NO_STRUM
replace,bulb,hand
NO_VERB,Phillips_screw, NO_STRUM
assemble,cover,hand
NO_VERB,Phillips_screw, NO_STRUM
unscrew,Slot_screw,flat-blade_screwdriver
remove,cover,hand
NO_VERB,Allen_screw, NO_STRUM
replace,bulb,hand
NO_VERB,Allen_screw, NO_STRUM
NO_VERB, NO_OBJ, NO_STRUM
NO_VERB,Allen_screw, NO_STRUM
unscrew,Allen_screw,Allen_screwdriver
remove, NO_OBJ, NO_STRUM
NO_VERB,Allen_screw, NO_STRUM
replace, NO_OBJ, NO_STRUM
NO_VERB,Allen_screw, NO_STRUM
NO_VERB, NO_OBJ, NO_STRUM
NO_VERB,Allen_screw, NO_STRUM
remove,seat,hand
NO_VERB, NO_OBJ, NO_STRUM
unscrew,Finger_screw,hand
NO_VERB,filter, NO_STRUM
NO_VERB,filter, NO_STRUM
assemble,filter,hand
NO_VERB, NO_OBJ, NO_STRUM
put_back, NO_OBJ, NO_STRUM
assemble, NO_OBJ, NO_STRUM
remove,seat,hand
NO_VERB, NO_OBJ, NO_STRUM
unscrew,Finger_screw,hand
NO_VERB,filter, NO_STRUM
clean,filter,cloth
assemble,filter,hand
NO_VERB, NO_OBJ, NO_STRUM
put_back, NO_OBJ, NO_STRUM
assemble, NO_OBJ, NO_STRUM
unscrew,Slot_screw,flat-blade_screwdriver
remove,cover,hand
remove,seat,hand
NO_VERB, NO_OBJ, NO_STRUM
NO_VERB,Allen_screw, NO_STRUM
replace,bulb,hand
NO_VERB,Allen_screw, NO_STRUM
assemble, NO_OBJ, NO_STRUM
NO_VERB,Allen_screw, NO_STRUM
unscrew,Finger_screw,hand
NO_VERB,filter, NO_STRUM
clean,filter,cloth
assemble,filter,hand
NO_VERB, NO_OBJ, NO_STRUM
put_back, NO_OBJ, NO_STRUM
assemble, NO_OBJ, NO_STRUM
remove, NO_OBJ, NO_STRUM
unscrew, NO_OBJ, NO_STRUM
remove,cover,hand
open, NO_OBJ, NO_STRUM
NO_VERB, NO_OBJ, NO_STRUM
clean, NO_OBJ,air
close, NO_OBJ, NO_STRUM
unscrew,Finger_screw,hand
remove, NO_OBJ, NO_STRUM
clean, NO_OBJ,cloth
NO_VERB, NO_OBJ, NO_STRUM
assemble, NO_OBJ, NO_STRUM
NO_VERB, NO_OBJ, NO_STRUM
assemble, NO_OBJ, NO_STRUM
NO_VERB, NO_OBJ, NO_STRUM
NO_VERB, NO_OBJ, NO_STRUM
remove, NO_OBJ, NO_STRUM
close, NO_OBJ, NO_STRUM
NO_VERB, NO_OBJ, NO_STRUM
NO_VERB, NO_OBJ, NO_STRUM
close, NO_OBJ, NO_STRUM
NO_VERB, NO_OBJ, NO_STRUM
NO_VERB, NO_OBJ, NO_STRUM
NO_VERB, NO_OBJ, NO_STRUM
NO_VERB, NO_OBJ, NO_STRUM
remove, NO_OBJ, NO_STRUM
remove, NO_OBJ, NO_STRUM
clean, NO_OBJ, NO_STRUM
assemble, NO_OBJ, NO_STRUM
